"Machine","Machine Type"
0,4
1,4
2,4
3,4
4,4
5,4
6,4
7,4
8,4
9,4
10,4
11,4
12,4
13,4
14,4
15,4
16,4
17,4
18,4
19,4
20,4
21,4
22,4
23,4
24,4
25,4
26,4
27,4
28,4
29,4
30,4
31,4
32,4
33,4
34,4
35,4
36,4
37,5
38,5
39,5
40,5
41,5
42,5
43,5
44,5
45,5
46,5
47,5
48,5
49,4
50,5
51,5
52,5
53,5
54,5
55,5
56,5
57,5
58,5
59,5
60,5
61,5
62,5
63,5
64,5
65,5
66,5
67,5
68,5
69,5
70,5
71,5
72,5
73,5
74,5
75,5
76,5
77,5
78,5
79,5
80,5
81,5
82,5
83,5
84,5
85,5
86,5
87,5
88,5
89,5
90,5
91,5
92,5
93,5
94,5
95,5
96,5
97,5
98,5
99,5
100,5
101,5
102,5
103,5
104,5
105,5
106,5
107,5
108,5
109,5
110,5
111,5
112,5
113,5
114,5
115,5
116,5
117,5
118,5
119,5
120,5
121,5
122,5
123,5
124,5
125,5
126,5
127,5
128,5
129,5
130,5
131,5
132,5
133,5
134,5
135,5
136,5
137,5
138,5
139,5
140,5
141,5
142,5
143,5
144,5
145,5
146,5
147,5
148,5
149,5
150,5
151,5
152,5
153,5
154,5
155,5
156,5
157,5
158,5
159,5
160,5
161,5
162,5
163,5
164,5
165,5
166,5
167,5
168,5
169,5
170,5
171,5
172,5
173,5
174,5
175,5
176,5
177,5
178,5
179,5
180,5
181,5
182,5
183,5
184,5
185,5
186,5
187,5
188,5
189,5
190,5
191,5
192,5
193,5
194,5
195,5
196,5
197,5
198,5
199,5
200,5
201,5
202,5
203,5
204,5
205,5
206,5
207,5
208,5
209,5
210,5
211,5
212,5
213,5
214,5
215,5
216,5
217,5
218,5
219,5
220,5
221,5
222,5
223,5
224,5
225,5
226,5
227,5
228,5
229,5
230,5
231,5
232,5
233,5
234,5
235,5
236,5
237,5
238,5
239,5
240,5
241,5
242,5
243,5
244,5
245,5
246,5
247,5
248,5
249,5
250,5
251,5
252,5
253,5
254,5
255,5
256,5
257,5
258,5
259,5
260,5
261,5
262,5
263,5
264,5
265,5
266,5
267,5
268,5
269,5
270,5
271,5
272,5
273,5
274,5
275,5
276,5
277,5
278,5
279,5
280,5
281,5
282,5
283,5
284,5
285,5
286,5
287,5
288,5
289,5
290,5
291,5
292,5
293,5
294,5
295,5
296,5
297,5
298,5
299,5
300,5
301,5
302,5
303,5
304,5
305,5
306,5
307,5
308,5
309,5
310,5
311,5
312,5
313,5
314,5
315,5
316,5
317,5
318,5
319,5
320,5
321,5
322,5
323,5
324,5
325,5
326,5
327,5
328,5
329,5
330,3
331,5
332,3
333,5
334,5
335,5
336,5
337,5
338,5
339,5
340,5
341,5
342,5
343,5
344,5
345,5
346,5
347,5
348,5
349,5
350,5
351,5
352,5
353,5
354,5
355,5
356,5
357,5
358,5
359,5
360,5
361,5
362,5
363,5
364,5
365,5
366,5
367,5
368,5
369,5
370,5
371,5
372,5
373,5
374,5
375,5
376,5
377,5
378,5
379,5
380,5
381,5
382,5
383,5
384,5
385,5
386,5
387,5
388,5
389,5
390,5
391,5
392,5
393,5
394,5
395,5
396,5
397,5
398,5
399,5
400,5
401,5
402,5
403,5
404,5
405,5
406,5
407,5
408,5
409,5
410,5
411,5
412,5
413,5
414,5
415,5
416,3
417,5
418,5
419,5
420,5
421,5
422,5
423,5
424,5
425,5
426,5
427,5
428,5
429,5
430,5
431,5
432,5
433,5
434,5
435,5
436,5
437,5
438,5
439,5
440,5
441,5
442,5
443,5
444,5
445,5
446,5
447,5
448,5
449,5
450,5
451,5
452,5
453,5
454,5
455,5
456,5
457,5
458,5
459,5
460,5
461,5
462,5
463,5
464,5
465,5
466,5
467,5
468,5
469,5
470,5
471,5
472,5
473,5
474,3
475,5
476,5
477,5
478,5
479,5
480,5
481,4
482,5
483,5
484,5
485,5
486,5
487,5
488,5
489,5
490,5
491,5
492,5
493,5
494,5
495,5
496,5
497,5
498,5
499,5
500,5
501,5
502,5
503,5
504,5
505,5
506,5
507,5
508,5
509,5
510,5
511,5
512,5
513,5
514,5
515,5
516,5
517,5
518,5
519,5
520,5
521,5
522,5
523,3
524,5
525,5
526,5
527,5
528,5
529,5
530,5
531,5
532,5
533,5
534,5
535,5
536,5
537,5
538,5
539,5
540,5
541,5
542,5
543,5
544,5
545,5
546,5
547,5
548,5
549,5
550,5
551,5
552,5
553,5
554,5
555,5
556,5
557,5
558,5
559,5
560,5
561,5
562,5
563,5
564,5
565,5
566,5
567,5
568,5
569,5
570,5
571,5
572,5
573,5
574,5
575,5
576,5
577,5
578,5
579,5
580,5
581,5
582,5
583,5
584,5
585,5
586,5
587,5
588,5
589,5
590,5
591,5
592,5
593,5
594,5
595,5
596,5
597,5
598,5
599,5
600,5
601,5
602,5
603,5
604,5
605,5
606,5
607,5
608,5
609,5
610,5
611,5
612,5
613,5
614,5
615,5
616,5
617,5
618,5
619,5
620,5
621,5
622,5
623,5
624,5
625,5
626,5
627,5
628,5
629,5
630,5
631,5
632,4
633,5
634,5
635,5
636,5
637,5
638,5
639,5
640,5
641,5
642,5
643,5
644,5
645,5
646,5
647,5
648,5
649,5
650,5
651,5
652,5
653,5
654,5
655,5
656,5
657,5
658,5
659,5
660,5
661,5
662,5
663,5
664,5
665,5
666,5
667,5
668,5
669,5
670,5
671,5
672,5
673,5
674,5
675,5
676,5
677,5
678,5
679,5
680,5
681,5
682,5
683,5
684,5
685,5
686,5
687,5
688,5
689,5
690,5
691,5
692,5
693,5
694,5
695,5
696,5
697,5
698,5
699,3
700,5
701,5
702,5
703,5
704,5
705,5
706,5
707,5
708,5
709,5
710,5
711,5
712,5
713,5
714,5
715,5
716,5
717,5
718,5
719,5
720,5
721,5
722,5
723,5
724,5
725,5
726,5
727,5
728,5
729,5
730,3
731,5
732,5
733,5
734,5
735,5
736,5
737,5
738,5
739,5
740,5
741,5
742,5
743,5
744,5
745,5
746,5
747,5
748,5
749,3
750,5
751,5
752,5
753,5
754,5
755,5
756,5
757,5
758,5
759,3
760,5
761,5
762,3
763,5
764,5
765,5
766,5
767,5
768,3
769,5
770,5
771,5
772,5
773,5
774,5
775,5
776,5
777,5
778,5
779,5
780,5
781,5
782,5
783,5
784,5
785,5
786,5
787,5
788,5
789,5
790,5
791,5
792,5
793,5
794,5
795,5
796,5
797,5
798,5
799,5
800,5
801,5
802,5
803,5
804,5
805,5
806,5
807,5
808,5
809,5
810,5
811,5
812,5
813,5
814,5
815,5
816,5
817,5
818,5
819,5
820,5
821,5
822,5
823,5
824,5
825,5
826,5
827,5
828,5
829,5
830,5
831,5
832,5
833,5
834,5
835,5
836,5
837,5
838,5
839,5
840,5
841,5
842,5
843,5
844,5
845,5
846,5
847,5
848,5
849,5
850,5
851,5
852,5
853,5
854,5
855,5
856,5
857,5
858,5
859,5
860,5
861,5
862,5
863,5
864,5
865,5
866,5
867,5
868,5
869,5
870,5
871,5
872,5
873,5
874,5
875,5
876,5
877,5
878,5
879,5
880,5
881,5
882,5
883,5
884,5
885,5
886,5
887,5
888,5
889,5
890,5
891,5
892,5
893,5
894,5
895,5
896,5
897,5
898,5
899,5
900,5
901,5
902,5
903,5
904,5
905,5
906,5
907,5
908,5
909,5
910,5
911,5
912,5
913,5
914,5
915,5
916,5
917,3
918,5
919,5
920,5
921,5
922,5
923,5
924,5
925,5
926,5
927,5
928,5
929,5
930,5
931,5
932,5
933,5
934,5
935,5
936,5
937,5
938,5
939,5
940,5
941,5
942,5
943,5
944,5
945,5
946,5
947,5
948,5
949,5
950,5
951,5
952,5
953,5
954,5
955,5
956,5
957,5
958,5
959,5
960,5
961,5
962,5
963,5
964,5
965,5
966,5
967,5
968,5
969,5
970,5
971,5
972,5
973,5
974,5
975,5
976,5
977,5
978,5
979,5
980,5
981,5
982,5
983,5
984,5
985,5
986,5
987,5
988,5
989,5
990,5
991,5
992,5
993,5
994,5
995,5
996,5
997,5
998,5
999,5
1000,5
1001,5
1002,5
1003,5
1004,5
1005,5
1006,5
1007,5
1008,5
1009,5
1010,5
1011,5
1012,5
1013,5
1014,5
1015,5
1016,5
1017,5
1018,5
1019,5
1020,5
1021,5
1022,5
1023,5
1024,5
1025,5
1026,5
1027,5
1028,5
1029,5
1030,5
1031,5
1032,5
1033,5
1034,5
1035,5
1036,5
1037,5
1038,5
1039,5
1040,5
1041,5
1042,5
1043,5
1044,5
1045,5
1046,5
1047,5
1048,5
1049,5
1050,5
1051,5
1052,5
1053,5
1054,5
1055,5
1056,5
1057,5
1058,5
1059,5
1060,5
1061,5
1062,4
1063,5
1064,3
1065,4
1066,4
1067,5
1068,5
1069,4
1070,4
1071,4
1072,4
1073,4
1074,4
1075,5
1076,5
1077,4
1078,4
1079,4
1080,4
1081,4
1082,4
1083,4
1084,5
1085,4
1086,5
1087,4
1088,5
1089,4
1090,5
1091,5
1092,4
1093,5
1094,4
1095,4
1096,4
1097,4
1098,4
1099,4
1100,4
1101,4
1102,4
1103,5
1104,4
1105,5
1106,4
1107,4
1108,4
1109,4
1110,4
1111,4
1112,5
1113,4
1114,5
1115,4
1116,4
1117,4
1118,4
1119,4
1120,5
1121,4
1122,4
1123,5
1124,4
1125,4
1126,4
1127,4
1128,5
1129,4
1130,4
1131,4
1132,4
1133,4
1134,5
1135,4
1136,4
1137,3
1138,4
1139,4
1140,5
1141,5
1142,4
1143,5
1144,4
1145,5
1146,5
1147,4
1148,4
1149,4
1150,5
1151,4
1152,5
1153,4
1154,4
1155,4
1156,4
1157,4
1158,4
1159,5
1160,5
1161,4
1162,5
1163,4
1164,4
1165,4
1166,5
1167,5
1168,4
1169,5
1170,4
1171,4
1172,5
1173,5
1174,5
1175,5
1176,4
1177,4
1178,5
1179,4
1180,5
1181,4
1182,4
1183,4
1184,4
1185,4
1186,4
1187,5
1188,5
1189,3
1190,4
1191,4
1192,4
1193,5
1194,4
1195,4
1196,4
1197,4
1198,4
1199,4
1200,4
1201,4
1202,4
1203,4
1204,5
1205,4
1206,5
1207,4
1208,5
1209,4
1210,5
1211,4
1212,5
1213,4
1214,3
1215,4
1216,4
1217,4
1218,5
1219,5
1220,5
1221,4
1222,4
1223,4
1224,5
1225,5
1226,5
1227,4
1228,4
1229,4
1230,4
1231,5
1232,5
1233,4
1234,5
1235,4
1236,4
1237,5
1238,4
1239,5
1240,5
1241,4
1242,4
1243,4
1244,4
1245,5
1246,5
1247,4
1248,4
1249,4
1250,4
1251,5
1252,5
1253,5
1254,4
1255,4
1256,4
1257,4
1258,5
1259,4
1260,4
1261,4
1262,5
1263,4
1264,4
1265,4
1266,5
1267,5
1268,4
1269,5
1270,4
1271,4
1272,5
1273,4
1274,5
1275,4
1276,4
1277,4
1278,4
1279,4
1280,4
1281,5
1282,5
1283,4
1284,4
1285,4
1286,5
1287,5
1288,4
1289,4
1290,4
1291,4
1292,4
1293,5
1294,4
1295,4
1296,5
1297,4
1298,4
1299,4
1300,5
1301,4
1302,4
1303,4
1304,4
1305,4
1306,4
1307,5
1308,5
1309,4
1310,5
1311,4
1312,4
1313,4
1314,4
1315,5
1316,5
1317,5
1318,5
1319,5
1320,5
1321,5
1322,5
1323,5
1324,5
1325,5
1326,5
1327,5
1328,5
1329,5
1330,5
1331,5
1332,5
1333,5
1334,5
1335,5
1336,5
1337,5
1338,5
1339,5
1340,5
1341,5
1342,5
1343,5
1344,5
1345,5
1346,3
1347,5
1348,5
1349,5
1350,5
1351,5
1352,5
1353,5
1354,5
1355,5
1356,5
1357,5
1358,5
1359,5
1360,5
1361,5
1362,4
1363,5
1364,5
1365,5
1366,5
1367,5
1368,5
1369,5
1370,5
1371,5
1372,5
1373,5
1374,5
1375,5
1376,5
1377,5
1378,5
1379,5
1380,5
1381,5
1382,5
1383,4
1384,5
1385,5
1386,5
1387,5
1388,5
1389,5
1390,5
1391,5
1392,5
1393,5
1394,5
1395,5
1396,5
1397,4
1398,5
1399,5
1400,5
1401,5
1402,5
1403,5
1404,5
1405,5
1406,5
1407,5
1408,5
1409,4
1410,5
1411,5
1412,5
1413,5
1414,5
1415,5
1416,5
1417,5
1418,5
1419,5
1420,5
1421,5
1422,5
1423,5
1424,5
1425,5
1426,4
1427,5
1428,5
1429,5
1430,5
1431,5
1432,5
1433,5
1434,5
1435,5
1436,5
1437,4
1438,5
1439,5
1440,5
1441,5
1442,5
1443,5
1444,5
1445,5
1446,5
1447,5
1448,5
1449,5
1450,5
1451,5
1452,5
1453,5
1454,5
1455,5
1456,5
1457,5
1458,5
1459,5
1460,5
1461,4
1462,5
1463,5
1464,5
1465,5
1466,5
1467,5
1468,5
1469,5
1470,5
1471,5
1472,5
1473,5
1474,5
1475,5
1476,5
1477,5
1478,5
1479,5
1480,5
1481,5
1482,5
1483,5
1484,5
1485,5
1486,5
1487,5
1488,5
1489,5
1490,5
1491,5
1492,5
1493,5
1494,5
1495,5
1496,5
1497,5
1498,5
1499,5
1500,5
1501,5
1502,5
1503,5
1504,5
1505,5
1506,5
1507,5
1508,5
1509,5
1510,5
1511,5
1512,5
1513,5
1514,5
1515,5
1516,5
1517,5
1518,5
1519,5
1520,5
1521,5
1522,5
1523,4
1524,5
1525,5
1526,5
1527,5
1528,4
1529,5
1530,5
1531,5
1532,5
1533,5
1534,5
1535,5
1536,5
1537,5
1538,5
1539,5
1540,5
1541,5
1542,5
1543,5
1544,5
1545,5
1546,5
1547,5
1548,5
1549,5
1550,5
1551,5
1552,5
1553,5
1554,5
1555,5
1556,5
1557,5
1558,5
1559,5
1560,5
1561,5
1562,4
1563,5
1564,5
1565,5
1566,5
1567,5
1568,5
1569,5
1570,5
1571,5
1572,5
1573,5
1574,5
1575,5
1576,5
1577,5
1578,5
1579,5
1580,5
1581,5
1582,5
1583,5
1584,5
1585,5
1586,5
1587,5
1588,5
1589,5
1590,4
1591,5
1592,5
1593,5
1594,5
1595,5
1596,5
1597,5
1598,5
1599,5
1600,5
1601,5
1602,5
1603,5
1604,5
1605,5
1606,5
1607,5
1608,5
1609,5
1610,5
1611,5
1612,5
1613,5
1614,5
1615,5
1616,5
1617,5
1618,5
1619,5
1620,5
1621,5
1622,5
1623,5
1624,5
1625,5
1626,5
1627,5
1628,5
1629,5
1630,5
1631,5
1632,5
1633,5
1634,5
1635,5
1636,5
1637,5
1638,5
1639,5
1640,5
1641,5
1642,5
1643,5
1644,5
1645,5
1646,5
1647,5
1648,5
1649,5
1650,5
1651,5
1652,5
1653,5
1654,5
1655,5
1656,4
1657,5
1658,5
1659,5
1660,5
1661,5
1662,5
1663,5
1664,5
1665,5
1666,5
1667,5
1668,5
1669,5
1670,5
1671,5
1672,5
1673,5
1674,5
1675,5
1676,5
1677,5
1678,5
1679,5
1680,5
1681,5
1682,5
1683,5
1684,5
1685,5
1686,5
1687,5
1688,5
1689,5
1690,5
1691,5
1692,5
1693,5
1694,5
1695,5
1696,5
1697,5
1698,5
1699,5
1700,5
1701,5
1702,5
1703,5
1704,5
1705,5
1706,5
1707,5
1708,5
1709,5
1710,5
1711,5
1712,5
1713,5
1714,5
1715,5
1716,5
1717,5
1718,5
1719,5
1720,5
1721,5
1722,5
1723,5
1724,5
1725,5
1726,5
1727,5
1728,5
1729,5
1730,5
1731,5
1732,5
1733,5
1734,5
1735,5
1736,5
1737,5
1738,5
1739,5
1740,5
1741,5
1742,5
1743,5
1744,5
1745,5
1746,5
1747,5
1748,5
1749,5
1750,5
1751,5
1752,5
1753,5
1754,5
1755,5
1756,5
1757,5
1758,5
1759,5
1760,5
1761,5
1762,5
1763,5
1764,5
1765,5
1766,5
1767,5
1768,5
1769,5
1770,5
1771,5
1772,5
1773,5
1774,5
1775,5
1776,5
1777,5
1778,5
1779,5
1780,5
1781,5
1782,5
1783,5
1784,5
1785,5
1786,5
1787,5
1788,5
1789,5
1790,5
1791,5
1792,5
1793,5
1794,5
1795,5
1796,5
1797,5
1798,5
1799,5
1800,5
1801,5
1802,5
1803,5
1804,5
1805,5
1806,5
1807,5
1808,5
1809,5
1810,5
1811,5
1812,5
1813,5
1814,5
1815,5
1816,5
1817,5
1818,5
1819,4
1820,5
1821,5
1822,5
1823,5
1824,5
1825,5
1826,5
1827,5
1828,5
1829,5
1830,5
1831,5
1832,5
1833,5
1834,5
1835,5
1836,5
1837,5
1838,5
1839,5
1840,5
1841,5
1842,5
1843,5
1844,5
1845,5
1846,5
1847,5
1848,5
1849,5
1850,5
1851,5
1852,5
1853,5
1854,5
1855,4
1856,5
1857,5
1858,5
1859,5
1860,5
1861,5
1862,5
1863,5
1864,5
1865,5
1866,5
1867,5
1868,5
1869,5
1870,5
1871,5
1872,4
1873,5
1874,5
1875,5
1876,5
1877,5
1878,5
1879,5
1880,5
1881,5
1882,5
1883,5
1884,5
1885,5
1886,5
1887,5
1888,5
1889,5
1890,5
1891,5
1892,5
1893,5
1894,5
1895,5
1896,5
1897,5
1898,5
1899,5
1900,5
1901,5
1902,5
1903,5
1904,5
1905,5
1906,5
1907,5
1908,5
1909,5
1910,5
1911,5
1912,5
1913,5
1914,5
1915,5
1916,5
1917,5
1918,5
1919,5
1920,5
1921,5
1922,5
1923,5
1924,5
1925,5
1926,5
1927,5
1928,5
1929,5
1930,5
1931,5
1932,5
1933,5
1934,5
1935,5
1936,5
1937,5
1938,5
1939,5
1940,5
1941,5
1942,5
1943,5
1944,5
1945,5
1946,5
1947,5
1948,5
1949,5
1950,5
1951,5
1952,5
1953,5
1954,5
1955,5
1956,5
1957,5
1958,5
1959,5
1960,5
1961,5
1962,5
1963,5
1964,5
1965,5
1966,5
1967,5
1968,5
1969,4
1970,4
1971,4
1972,4
1973,4
1974,4
1975,4
1976,4
1977,4
1978,4
1979,4
1980,5
1981,5
1982,5
1983,5
1984,5
1985,5
1986,5
1987,4
1988,5
1989,4
1990,5
1991,5
1992,4
1993,4
1994,4
1995,4
1996,5
1997,4
1998,5
1999,4
2000,4
2001,4
2002,4
2003,4
2004,4
2005,4
2006,4
2007,5
2008,4
2009,5
2010,4
2011,5
2012,4
2013,4
2014,5
2015,5
2016,5
2017,4
2018,5
2019,5
2020,5
2021,5
2022,5
2023,5
2024,5
2025,5
2026,5
2027,5
2028,5
2029,5
2030,5
2031,5
2032,5
2033,5
2034,5
2035,5
2036,5
2037,5
2038,5
2039,5
2040,5
2041,5
2042,5
2043,5
2044,5
2045,5
2046,5
2047,5
2048,5
2049,5
2050,5
2051,5
2052,5
2053,5
2054,5
2055,5
2056,5
2057,5
2058,5
2059,5
2060,5
2061,5
2062,5
2063,5
2064,5
2065,5
2066,5
2067,5
2068,5
2069,5
2070,5
2071,5
2072,5
2073,5
2074,4
2075,5
2076,4
2077,4
2078,4
2079,4
2080,4
2081,4
2082,4
2083,4
2084,4
2085,4
2086,4
2087,4
2088,4
2089,4
2090,4
2091,4
2092,4
2093,5
2094,5
2095,4
2096,4
2097,4
2098,4
2099,4
2100,4
2101,4
2102,4
2103,4
2104,4
2105,4
2106,4
2107,4
2108,4
2109,5
2110,4
2111,4
2112,5
2113,4
2114,4
2115,4
2116,4
2117,4
2118,4
2119,4
2120,4
2121,5
2122,5
2123,5
2124,5
2125,5
2126,5
2127,5
2128,5
2129,5
2130,5
2131,5
2132,5
2133,4
2134,4
2135,4
2136,4
2137,4
2138,4
2139,4
2140,4
2141,5
2142,5
2143,4
2144,5
2145,5
2146,5
2147,5
2148,5
2149,5
2150,5
2151,5
2152,5
2153,5
2154,4
2155,5
2156,5
2157,5
2158,5
2159,5
2160,5
2161,5
2162,5
2163,5
2164,5
2165,5
2166,5
2167,4
2168,5
2169,5
2170,5
2171,5
2172,5
2173,5
2174,4
2175,4
2176,5
2177,5
2178,5
2179,5
2180,5
2181,5
2182,5
2183,5
2184,5
2185,5
2186,5
2187,5
2188,5
2189,5
2190,5
2191,5
2192,5
2193,5
2194,5
2195,5
2196,5
2197,5
2198,5
2199,5
2200,5
2201,5
2202,5
2203,5
2204,5
2205,5
2206,5
2207,5
2208,5
2209,5
2210,5
2211,5
2212,5
2213,5
2214,5
2215,5
2216,5
2217,5
2218,5
2219,5
2220,5
2221,5
2222,5
2223,5
2224,5
2225,5
2226,5
2227,5
2228,5
2229,5
2230,5
2231,5
2232,5
2233,5
2234,5
2235,5
2236,4
2237,5
2238,5
2239,5
2240,5
2241,5
2242,5
2243,5
2244,5
2245,5
2246,5
2247,5
2248,5
2249,5
2250,5
2251,5
2252,5
2253,5
2254,5
2255,5
2256,5
2257,5
2258,5
2259,5
2260,4
2261,5
2262,4
2263,5
2264,5
2265,5
2266,5
2267,5
2268,5
2269,5
2270,5
2271,5
2272,5
2273,5
2274,5
2275,5
2276,5
2277,5
2278,5
2279,5
2280,5
2281,5
2282,4
2283,4
2284,4
2285,4
2286,4
2287,4
2288,4
2289,4
2290,4
2291,4
2292,4
2293,4
2294,4
2295,4
2296,4
2297,4
2298,4
2299,4
2300,4
2301,4
2302,4
2303,4
2304,4
2305,4
2306,4
2307,4
2308,4
2309,4
2310,4
2311,4
2312,4
2313,4
2314,4
2315,4
2316,4
2317,4
2318,4
2319,4
2320,4
2321,4
2322,4
2323,4
2324,4
2325,4
2326,4
2327,4
2328,4
2329,4
2330,4
2331,4
2332,4
2333,4
2334,4
2335,4
2336,4
2337,4
2338,4
2339,4
2340,4
2341,4
2342,4
2343,4
2344,4
2345,4
2346,4
2347,4
2348,4
2349,4
2350,4
2351,4
2352,4
2353,4
2354,4
2355,4
2356,4
2357,4
2358,4
2359,4
2360,4
2361,4
2362,4
2363,4
2364,4
2365,4
2366,5
2367,5
2368,4
2369,4
2370,4
2371,4
2372,4
2373,4
2374,4
2375,4
2376,4
2377,4
2378,4
2379,4
2380,4
2381,4
2382,4
2383,4
2384,4
2385,4
2386,4
2387,4
2388,4
2389,4
2390,4
2391,4
2392,4
2393,4
2394,4
2395,4
2396,4
2397,4
2398,4
2399,4
2400,4
2401,4
2402,4
2403,4
2404,4
2405,4
2406,4
2407,4
2408,4
2409,4
2410,5
2411,5
2412,4
2413,4
2414,4
2415,4
2416,5
2417,5
2418,4
2419,4
2420,4
2421,4
2422,4
2423,4
2424,4
2425,4
2426,4
2427,4
2428,4
2429,4
2430,4
2431,4
2432,4
2433,4
2434,4
2435,4
2436,4
2437,4
2438,4
2439,4
2440,4
2441,4
2442,4
2443,4
2444,4
2445,4
2446,4
2447,4
2448,4
2449,4
2450,4
2451,4
2452,4
2453,4
2454,4
2455,4
2456,4
2457,4
2458,4
2459,4
2460,4
2461,4
2462,4
2463,4
2464,4
2465,4
2466,4
2467,4
2468,4
2469,4
2470,4
2471,4
2472,4
2473,4
2474,4
2475,4
2476,4
2477,4
2478,4
2479,4
2480,4
2481,4
2482,4
2483,4
2484,4
2485,4
2486,4
2487,4
2488,4
2489,4
2490,4
2491,4
2492,4
2493,4
2494,4
2495,4
2496,4
2497,4
2498,4
2499,4
2500,4
2501,4
2502,4
2503,4
2504,4
2505,4
2506,4
2507,4
2508,4
2509,4
2510,4
2511,4
2512,4
2513,4
2514,4
2515,4
2516,4
2517,4
2518,4
2519,4
2520,4
2521,4
2522,4
2523,4
2524,5
2525,5
2526,5
2527,5
2528,5
2529,5
2530,5
2531,5
2532,5
2533,5
2534,5
2535,5
2536,5
2537,5
2538,5
2539,5
2540,5
2541,5
2542,5
2543,5
2544,5
2545,5
2546,3
2547,5
2548,5
2549,5
2550,5
2551,5
2552,5
2553,5
2554,5
2555,5
2556,5
2557,5
2558,5
2559,5
2560,5
2561,5
2562,5
2563,5
2564,5
2565,5
2566,5
2567,5
2568,5
2569,5
2570,5
2571,5
2572,5
2573,5
2574,5
2575,5
2576,5
2577,5
2578,5
2579,5
2580,5
2581,5
2582,5
2583,5
2584,5
2585,5
2586,5
2587,5
2588,5
2589,5
2590,5
2591,5
2592,5
2593,5
2594,5
2595,5
2596,5
2597,5
2598,5
2599,5
2600,5
2601,5
2602,5
2603,5
2604,5
2605,5
2606,5
2607,5
2608,5
2609,5
2610,5
2611,5
2612,5
2613,5
2614,5
2615,5
2616,5
2617,5
2618,5
2619,5
2620,5
2621,5
2622,5
2623,5
2624,5
2625,4
2626,5
2627,5
2628,5
2629,5
2630,5
2631,5
2632,5
2633,5
2634,5
2635,5
2636,5
2637,5
2638,5
2639,5
2640,5
2641,5
2642,5
2643,5
2644,5
2645,5
2646,5
2647,5
2648,5
2649,5
2650,4
2651,5
2652,5
2653,5
2654,5
2655,5
2656,5
2657,5
2658,5
2659,5
2660,5
2661,5
2662,5
2663,5
2664,5
2665,5
2666,5
2667,5
2668,5
2669,5
2670,4
2671,5
2672,5
2673,5
2674,5
2675,5
2676,5
2677,5
2678,5
2679,5
2680,5
2681,5
2682,5
2683,5
2684,5
2685,5
2686,5
2687,5
2688,5
2689,5
2690,5
2691,5
2692,5
2693,5
2694,5
2695,5
2696,5
2697,5
2698,5
2699,5
2700,5
2701,5
2702,5
2703,4
2704,5
2705,5
2706,5
2707,5
2708,5
2709,5
2710,5
2711,5
2712,5
2713,5
2714,5
2715,5
2716,5
2717,5
2718,5
2719,5
2720,5
2721,5
2722,5
2723,5
2724,5
2725,5
2726,5
2727,5
2728,5
2729,5
2730,5
2731,5
2732,5
2733,5
2734,5
2735,5
2736,5
2737,5
2738,5
2739,5
2740,5
2741,5
2742,5
2743,5
2744,5
2745,5
2746,5
2747,5
2748,5
2749,5
2750,5
2751,5
2752,5
2753,5
2754,5
2755,5
2756,5
2757,5
2758,5
2759,5
2760,5
2761,5
2762,5
2763,5
2764,5
2765,5
2766,5
2767,5
2768,5
2769,5
2770,5
2771,5
2772,5
2773,5
2774,5
2775,5
2776,5
2777,5
2778,5
2779,5
2780,5
2781,5
2782,5
2783,5
2784,5
2785,5
2786,5
2787,5
2788,5
2789,5
2790,5
2791,5
2792,4
2793,5
2794,5
2795,5
2796,5
2797,5
2798,5
2799,5
2800,5
2801,5
2802,5
2803,5
2804,5
2805,5
2806,5
2807,5
2808,5
2809,5
2810,5
2811,5
2812,5
2813,5
2814,5
2815,5
2816,5
2817,5
2818,5
2819,5
2820,5
2821,5
2822,5
2823,5
2824,5
2825,5
2826,5
2827,5
2828,5
2829,5
2830,5
2831,4
2832,5
2833,5
2834,5
2835,5
2836,5
2837,5
2838,5
2839,5
2840,5
2841,5
2842,5
2843,5
2844,5
2845,5
2846,5
2847,5
2848,5
2849,5
2850,5
2851,5
2852,5
2853,5
2854,5
2855,5
2856,5
2857,5
2858,5
2859,5
2860,5
2861,5
2862,5
2863,5
2864,5
2865,5
2866,5
2867,5
2868,5
2869,5
2870,5
2871,5
2872,4
2873,5
2874,5
2875,5
2876,5
2877,5
2878,5
2879,5
2880,5
2881,5
2882,5
2883,5
2884,5
2885,5
2886,5
2887,5
2888,5
2889,5
2890,5
2891,5
2892,5
2893,5
2894,5
2895,5
2896,5
2897,3
2898,5
2899,5
2900,5
2901,5
2902,5
2903,5
2904,5
2905,5
2906,5
2907,5
2908,5
2909,5
2910,5
2911,5
2912,5
2913,5
2914,5
2915,5
2916,5
2917,5
2918,5
2919,5
2920,5
2921,5
2922,4
2923,5
2924,5
2925,5
2926,5
2927,5
2928,5
2929,5
2930,5
2931,5
2932,5
2933,5
2934,5
2935,5
2936,5
2937,5
2938,5
2939,5
2940,5
2941,5
2942,5
2943,5
2944,5
2945,5
2946,5
2947,5
2948,5
2949,5
2950,5
2951,5
2952,5
2953,5
2954,5
2955,5
2956,5
2957,5
2958,5
2959,5
2960,5
2961,5
2962,5
2963,5
2964,5
2965,5
2966,5
2967,5
2968,5
2969,5
2970,5
2971,5
2972,5
2973,5
2974,5
2975,5
2976,5
2977,5
2978,5
2979,5
2980,5
2981,5
2982,5
2983,5
2984,5
2985,5
2986,5
2987,5
2988,5
2989,5
2990,5
2991,5
2992,5
2993,5
2994,5
2995,5
2996,5
2997,5
2998,5
2999,5
3000,5
3001,5
3002,5
3003,5
3004,5
3005,5
3006,5
3007,5
3008,5
3009,5
3010,5
3011,5
3012,5
3013,5
3014,5
3015,5
3016,5
3017,5
3018,5
3019,5
3020,5
3021,5
3022,5
3023,5
3024,5
3025,5
3026,5
3027,5
3028,5
3029,5
3030,5
3031,5
3032,5
3033,5
3034,5
3035,5
3036,5
3037,5
3038,5
3039,5
3040,5
3041,5
3042,5
3043,5
3044,5
3045,5
3046,5
3047,5
3048,5
3049,5
3050,5
3051,5
3052,5
3053,5
3054,5
3055,5
3056,5
3057,5
3058,5
3059,5
3060,5
3061,5
3062,5
3063,5
3064,5
3065,5
3066,5
3067,5
3068,5
3069,5
3070,5
3071,5
3072,5
3073,5
3074,5
3075,5
3076,5
3077,4
3078,5
3079,5
3080,5
3081,5
3082,5
3083,5
3084,5
3085,5
3086,5
3087,5
3088,5
3089,5
3090,5
3091,5
3092,5
3093,5
3094,5
3095,5
3096,5
3097,5
3098,5
3099,5
3100,5
3101,5
3102,5
3103,5
3104,5
3105,5
3106,5
3107,5
3108,5
3109,5
3110,5
3111,5
3112,5
3113,5
3114,5
3115,4
3116,4
3117,5
3118,5
3119,5
3120,5
3121,5
3122,5
3123,5
3124,5
3125,5
3126,5
3127,5
3128,5
3129,5
3130,5
3131,5
3132,5
3133,5
3134,5
3135,5
3136,5
3137,5
3138,5
3139,5
3140,5
3141,5
3142,5
3143,5
3144,5
3145,5
3146,5
3147,5
3148,5
3149,5
3150,5
3151,5
3152,5
3153,5
3154,5
3155,4
3156,5
3157,5
3158,5
3159,5
3160,5
3161,5
3162,5
3163,5
3164,5
3165,5
3166,5
3167,5
3168,5
3169,5
3170,4
3171,5
3172,5
3173,5
3174,5
3175,5
3176,5
3177,5
3178,5
3179,5
3180,5
3181,5
3182,5
3183,5
3184,3
3185,4
3186,5
3187,5
3188,5
3189,5
3190,5
3191,5
3192,5
3193,4
3194,5
3195,5
3196,5
3197,5
3198,5
3199,5
3200,5
3201,5
3202,5
3203,5
3204,5
3205,5
3206,5
3207,5
3208,5
3209,5
3210,5
3211,5
3212,5
3213,5
3214,5
3215,5
3216,5
3217,5
3218,5
3219,5
3220,5
3221,5
3222,5
3223,5
3224,5
3225,5
3226,5
3227,5
3228,5
3229,5
3230,5
3231,5
3232,5
3233,5
3234,5
3235,5
3236,5
3237,5
3238,5
3239,5
3240,5
3241,5
3242,5
3243,5
3244,5
3245,5
3246,5
3247,5
3248,5
3249,5
3250,5
3251,5
3252,5
3253,5
3254,5
3255,5
3256,5
3257,5
3258,5
3259,5
3260,5
3261,5
3262,5
3263,5
3264,4
3265,5
3266,5
3267,5
3268,5
3269,5
3270,5
3271,5
3272,5
3273,5
3274,5
3275,5
3276,5
3277,5
3278,5
3279,5
3280,5
3281,5
3282,5
3283,5
3284,5
3285,5
3286,5
3287,5
3288,5
3289,5
3290,5
3291,5
3292,5
3293,5
3294,5
3295,5
3296,5
3297,5
3298,5
3299,5
3300,5
3301,5
3302,5
3303,5
3304,5
3305,5
3306,5
3307,5
3308,4
3309,5
3310,5
3311,5
3312,5
3313,5
3314,5
3315,5
3316,5
3317,5
3318,5
3319,5
3320,5
3321,5
3322,5
3323,5
3324,5
3325,5
3326,5
3327,5
3328,5
3329,5
3330,4
3331,5
3332,5
3333,5
3334,5
3335,5
3336,5
3337,5
3338,5
3339,5
3340,4
3341,5
3342,5
3343,5
3344,4
3345,5
3346,5
3347,5
3348,5
3349,5
3350,5
3351,5
3352,4
3353,5
3354,5
3355,5
3356,5
3357,5
3358,5
3359,5
3360,4
3361,4
3362,5
3363,5
3364,5
3365,5
3366,4
3367,4
3368,4
3369,4
3370,4
3371,4
3372,4
3373,4
3374,4
3375,4
3376,4
3377,4
3378,4
3379,4
3380,4
3381,4
3382,5
3383,5
3384,5
3385,5
3386,5
3387,5
3388,4
3389,4
3390,4
3391,4
3392,4
3393,4
3394,4
3395,5
3396,5
3397,5
3398,5
3399,5
3400,5
3401,5
3402,5
3403,5
3404,4
3405,5
3406,5
3407,5
3408,5
3409,5
3410,5
3411,5
3412,5
3413,5
3414,5
3415,5
3416,5
3417,5
3418,5
3419,5
3420,5
3421,5
3422,5
3423,5
3424,5
3425,5
3426,5
3427,5
3428,5
3429,5
3430,5
3431,5
3432,5
3433,5
3434,5
3435,5
3436,5
3437,5
3438,5
3439,5
3440,5
3441,5
3442,4
3443,4
3444,4
3445,4
3446,4
3447,4
3448,4
3449,4
3450,4
3451,4
3452,4
3453,4
3454,4
3455,4
3456,4
3457,4
3458,4
3459,4
3460,4
3461,4
3462,4
3463,4
3464,5
3465,5
3466,5
3467,5
3468,5
3469,5
3470,5
3471,5
3472,5
3473,5
3474,5
3475,5
3476,5
3477,5
3478,5
3479,5
3480,5
3481,5
3482,5
3483,5
3484,4
3485,5
3486,4
3487,4
3488,4
3489,4
3490,5
3491,5
3492,5
3493,5
3494,5
3495,5
3496,5
3497,4
3498,4
3499,4
3500,4
3501,4
3502,5
3503,5
3504,5
3505,5
3506,4
3507,5
3508,5
3509,5
3510,5
3511,5
3512,5
3513,4
3514,5
3515,5
3516,5
3517,5
3518,5
3519,5
3520,5
3521,5
3522,5
3523,5
3524,5
3525,5
3526,5
3527,5
3528,5
3529,5
3530,5
3531,5
3532,5
3533,5
3534,3
3535,5
3536,5
3537,5
3538,5
3539,5
3540,5
3541,5
3542,4
3543,5
3544,4
3545,4
3546,4
3547,4
3548,4
3549,4
3550,5
3551,5
3552,5
3553,5
3554,5
3555,5
3556,5
3557,5
3558,4
3559,4
3560,4
3561,4
3562,4
3563,4
3564,4
3565,4
3566,4
3567,4
3568,4
3569,4
3570,4
3571,4
3572,4
3573,4
3574,4
3575,4
3576,4
3577,4
3578,4
3579,4
3580,4
3581,4
3582,4
3583,4
3584,4
3585,4
3586,4
3587,4
3588,4
3589,4
3590,4
3591,4
3592,4
3593,4
3594,4
3595,4
3596,4
3597,4
3598,4
3599,4
3600,4
3601,4
3602,4
3603,4
3604,4
3605,4
3606,4
3607,4
3608,4
3609,4
3610,4
3611,4
3612,4
3613,4
3614,4
3615,4
3616,4
3617,4
3618,4
3619,4
3620,4
3621,4
3622,4
3623,4
3624,4
3625,4
3626,4
3627,4
3628,4
3629,4
3630,4
3631,4
3632,4
3633,4
3634,4
3635,4
3636,4
3637,4
3638,4
3639,4
3640,4
3641,4
3642,4
3643,4
3644,4
3645,4
3646,4
3647,4
3648,4
3649,4
3650,4
3651,4
3652,4
3653,4
3654,4
3655,4
3656,4
3657,4
3658,5
3659,5
3660,4
3661,4
3662,4
3663,4
3664,4
3665,4
3666,4
3667,4
3668,4
3669,4
3670,4
3671,4
3672,4
3673,4
3674,4
3675,4
3676,4
3677,4
3678,4
3679,4
3680,4
3681,4
3682,4
3683,4
3684,4
3685,4
3686,4
3687,4
3688,4
3689,4
3690,4
3691,4
3692,4
3693,4
3694,4
3695,4
3696,4
3697,4
3698,4
3699,4
3700,4
3701,4
3702,4
3703,4
3704,4
3705,4
3706,4
3707,4
3708,4
3709,4
3710,4
3711,4
3712,4
3713,4
3714,4
3715,4
3716,4
3717,4
3718,4
3719,4
3720,4
3721,4
3722,4
3723,4
3724,4
3725,4
3726,4
3727,4
3728,4
3729,4
3730,4
3731,4
3732,4
3733,4
3734,4
3735,4
3736,4
3737,4
3738,4
3739,4
3740,4
3741,4
3742,4
3743,4
3744,4
3745,4
3746,4
3747,5
3748,5
3749,5
3750,5
3751,5
3752,5
3753,5
3754,5
3755,4
3756,4
3757,4
3758,4
3759,4
3760,4
3761,4
3762,4
3763,4
3764,4
3765,4
3766,4
3767,4
3768,4
3769,4
3770,4
3771,4
3772,4
3773,4
3774,4
3775,4
3776,4
3777,4
3778,4
3779,4
3780,4
3781,4
3782,4
3783,4
3784,4
3785,4
3786,4
3787,4
3788,4
3789,4
3790,4
3791,4
3792,4
3793,4
3794,4
3795,4
3796,4
3797,4
3798,4
3799,4
3800,4
3801,4
3802,4
3803,4
3804,4
3805,4
3806,4
3807,4
3808,4
3809,4
3810,4
3811,4
3812,4
3813,4
3814,4
3815,4
3816,4
3817,4
3818,4
3819,4
3820,4
3821,4
3822,4
3823,4
3824,4
3825,4
3826,4
3827,3
3828,4
3829,4
3830,4
3831,4
3832,4
3833,4
3834,4
3835,4
3836,4
3837,4
3838,4
3839,4
3840,4
3841,4
3842,4
3843,4
3844,4
3845,4
3846,4
3847,4
3848,4
3849,4
3850,4
3851,4
3852,4
3853,4
3854,4
3855,4
3856,4
3857,4
3858,4
3859,4
3860,4
3861,4
3862,4
3863,4
3864,4
3865,4
3866,4
3867,4
3868,4
3869,4
3870,4
3871,4
3872,4
3873,4
3874,4
3875,4
3876,4
3877,4
3878,4
3879,4
3880,4
3881,4
3882,4
3883,4
3884,4
3885,4
3886,4
3887,4
3888,4
3889,4
3890,4
3891,4
3892,4
3893,4
3894,4
3895,4
3896,4
3897,4
3898,4
3899,4
3900,4
3901,4
3902,4
3903,4
3904,4
3905,4
3906,4
3907,4
3908,4
3909,4
3910,4
3911,4
3912,4
3913,4
3914,4
3915,4
3916,4
3917,4
3918,4
3919,4
3920,4
3921,4
3922,4
3923,4
3924,4
3925,4
3926,4
3927,4
3928,4
3929,4
3930,4
3931,4
3932,4
3933,4
3934,4
3935,4
3936,4
3937,4
3938,4
3939,4
3940,4
3941,4
3942,4
3943,4
3944,4
3945,4
3946,4
3947,4
3948,4
3949,4
3950,4
3951,4
3952,4
3953,4
3954,4
3955,4
3956,4
3957,4
3958,4
3959,4
3960,4
3961,4
3962,4
3963,4
3964,4
3965,4
3966,4
3967,4
3968,4
3969,4
3970,4
3971,4
3972,4
3973,4
3974,4
3975,4
3976,4
3977,4
3978,4
3979,4
3980,4
3981,4
3982,4
3983,4
3984,4
3985,4
3986,4
3987,4
3988,4
3989,4
3990,4
3991,4
3992,4
3993,4
3994,4
3995,4
3996,4
3997,4
3998,4
3999,4
4000,4
4001,4
4002,4
4003,4
4004,4
4005,4
4006,4
4007,4
4008,4
4009,4
4010,4
4011,4
4012,4
4013,4
4014,4
4015,4
4016,4
4017,4
4018,4
4019,4
4020,4
4021,4
4022,4
4023,4
4024,4
4025,4
4026,4
4027,4
4028,4
4029,4
4030,4
4031,4
4032,4
4033,4
4034,4
4035,4
4036,4
4037,4
4038,4
4039,4
4040,4
4041,4
4042,4
4043,4
4044,4
4045,4
4046,4
4047,4
4048,4
4049,4
4050,4
4051,4
4052,4
4053,4
4054,4
4055,4
4056,4
4057,4
4058,4
4059,4
4060,4
4061,4
4062,4
4063,4
4064,4
4065,4
4066,4
4067,4
4068,4
4069,4
4070,4
4071,4
4072,4
4073,4
4074,4
4075,4
4076,4
4077,4
4078,4
4079,4
4080,4
4081,4
4082,4
4083,4
4084,4
4085,4
4086,4
4087,4
4088,4
4089,3
4090,4
4091,4
4092,4
4093,3
4094,4
4095,4
4096,4
4097,4
4098,4
4099,4
4100,4
4101,4
4102,4
4103,4
4104,4
4105,4
4106,4
4107,4
4108,4
4109,4
4110,4
4111,4
4112,4
4113,4
4114,4
4115,4
4116,4
4117,4
4118,4
4119,4
4120,4
4121,4
4122,4
4123,4
4124,4
4125,4
4126,4
4127,4
4128,4
4129,4
4130,4
4131,4
4132,4
4133,4
4134,4
4135,4
4136,5
4137,4
4138,5
4139,5
4140,5
4141,5
4142,5
4143,5
4144,5
4145,5
4146,5
4147,5
4148,4
4149,5
4150,5
4151,4
4152,4
4153,5
4154,5
4155,5
4156,4
4157,5
4158,4
4159,4
4160,5
4161,4
4162,4
4163,4
4164,4
4165,4
4166,4
4167,5
4168,4
4169,5
4170,5
4171,4
4172,4
4173,4
4174,5
4175,4
4176,4
4177,4
4178,4
4179,5
4180,4
4181,4
4182,5
4183,4
4184,5
4185,4
4186,4
4187,4
4188,4
4189,4
4190,4
4191,4
4192,4
4193,4
4194,4
4195,4
4196,4
4197,4
4198,4
4199,4
4200,4
4201,4
4202,4
4203,4
4204,4
4205,4
4206,4
4207,4
4208,4
4209,4
4210,4
4211,4
4212,4
4213,4
4214,4
4215,4
4216,4
4217,4
4218,4
4219,4
4220,4
4221,4
4222,4
4223,4
4224,4
4225,4
4226,4
4227,4
4228,4
4229,3
4230,4
4231,4
4232,4
4233,4
4234,4
4235,4
4236,4
4237,4
4238,5
4239,4
4240,5
4241,4
4242,5
4243,4
4244,5
4245,5
4246,5
4247,4
4248,4
4249,4
4250,4
4251,4
4252,4
4253,4
4254,4
4255,4
4256,4
4257,4
4258,4
4259,4
4260,4
4261,4
4262,4
4263,4
4264,4
4265,4
4266,4
4267,4
4268,4
4269,4
4270,4
4271,4
4272,4
4273,4
4274,4
4275,4
4276,4
4277,4
4278,4
4279,3
4280,4
4281,4
4282,4
4283,4
4284,4
4285,4
4286,4
4287,4
4288,4
4289,4
4290,4
4291,4
4292,4
4293,4
4294,4
4295,4
4296,4
4297,4
4298,4
4299,4
4300,4
4301,4
4302,4
4303,4
4304,4
4305,4
4306,4
4307,4
4308,4
4309,4
4310,4
4311,4
4312,4
4313,4
4314,4
4315,4
4316,4
4317,4
4318,4
4319,4
4320,4
4321,4
4322,4
4323,4
4324,4
4325,4
4326,4
4327,4
4328,4
4329,4
4330,4
4331,4
4332,4
4333,4
4334,4
4335,4
4336,4
4337,4
4338,4
4339,4
4340,4
4341,4
4342,5
4343,5
4344,5
4345,5
4346,5
4347,5
4348,5
4349,5
4350,5
4351,5
4352,5
4353,5
4354,5
4355,5
4356,5
4357,5
4358,5
4359,5
4360,5
4361,5
4362,5
4363,5
4364,5
4365,5
4366,5
4367,5
4368,5
4369,5
4370,3
4371,3
4372,5
4373,5
4374,5
4375,5
4376,5
4377,5
4378,5
4379,5
4380,5
4381,5
4382,4
4383,4
4384,4
4385,5
4386,5
4387,4
4388,4
4389,5
4390,5
4391,5
4392,4
4393,5
4394,5
4395,5
4396,4
4397,4
4398,4
4399,4
4400,4
4401,4
4402,4
4403,4
4404,4
4405,4
4406,4
4407,4
4408,4
4409,4
4410,4
4411,4
4412,4
4413,4
4414,5
4415,4
4416,5
4417,4
4418,4
4419,5
4420,5
4421,4
4422,4
4423,5
4424,5
4425,5
4426,4
4427,5
4428,5
4429,5
4430,5
4431,5
4432,5
4433,5
4434,5
4435,5
4436,4
4437,4
4438,5
4439,4
4440,4
4441,4
4442,4
4443,4
4444,4
4445,4
4446,4
4447,5
4448,5
4449,5
4450,4
4451,5
4452,5
4453,5
4454,5
4455,5
4456,4
4457,5
4458,5
4459,5
4460,5
4461,5
4462,4
4463,5
4464,4
4465,5
4466,4
4467,4
4468,4
4469,4
4470,4
4471,4
4472,4
4473,4
4474,4
4475,4
4476,4
4477,4
4478,3
4479,5
4480,5
4481,5
4482,5
4483,5
4484,4
4485,4
4486,5
4487,5
4488,5
4489,5
4490,5
4491,5
4492,5
4493,4
4494,4
4495,5
4496,4
4497,4
4498,4
4499,4
4500,4
4501,4
4502,4
4503,4
4504,5
4505,5
4506,5
4507,5
4508,4
4509,4
4510,4
4511,4
4512,4
4513,4
4514,4
4515,4
4516,4
4517,4
4518,4
4519,4
4520,4
4521,4
4522,4
4523,4
4524,4
4525,4
4526,4
4527,4
4528,4
4529,5
4530,5
4531,5
4532,5
4533,5
4534,5
4535,5
4536,5
4537,5
4538,5
4539,5
4540,5
4541,5
4542,4
4543,5
4544,5
4545,5
4546,5
4547,5
4548,3
4549,5
4550,5
4551,5
4552,5
4553,5
4554,5
4555,5
4556,5
4557,5
4558,5
4559,5
4560,5
4561,4
4562,4
4563,5
4564,5
4565,5
4566,5
4567,5
4568,5
4569,5
4570,5
4571,5
4572,5
4573,5
4574,5
4575,5
4576,5
4577,5
4578,4
4579,5
4580,5
4581,5
4582,5
4583,5
4584,3
4585,5
4586,4
4587,5
4588,4
4589,5
4590,5
4591,4
4592,4
4593,4
4594,4
4595,4
4596,5
4597,5
4598,5
4599,5
4600,5
4601,5
4602,5
4603,5
4604,4
4605,4
4606,5
4607,5
4608,5
4609,5
4610,5
4611,5
4612,5
4613,4
4614,5
4615,5
4616,5
4617,5
4618,5
4619,4
4620,4
4621,5
4622,4
4623,4
4624,4
4625,5
4626,4
4627,5
4628,5
4629,5
4630,4
4631,5
4632,5
4633,5
4634,5
4635,5
4636,4
4637,4
4638,5
4639,5
4640,5
4641,1
4642,5
4643,5
4644,5
4645,5
4646,5
4647,5
4648,5
4649,5
4650,5
4651,5
4652,5
4653,5
4654,5
4655,5
4656,5
4657,5
4658,5
4659,5
4660,5
4661,5
4662,5
4663,5
4664,5
4665,5
4666,5
4667,5
4668,5
4669,5
4670,5
4671,5
4672,5
4673,5
4674,5
4675,5
4676,5
4677,5
4678,5
4679,5
4680,5
4681,5
4682,5
4683,5
4684,5
4685,5
4686,5
4687,5
4688,5
4689,5
4690,5
4691,5
4692,5
4693,5
4694,5
4695,5
4696,5
4697,5
4698,5
4699,5
4700,5
4701,5
4702,5
4703,5
4704,5
4705,5
4706,5
4707,5
4708,5
4709,5
4710,5
4711,5
4712,5
4713,5
4714,5
4715,5
4716,5
4717,5
4718,5
4719,5
4720,5
4721,5
4722,5
4723,5
4724,5
4725,5
4726,5
4727,5
4728,5
4729,5
4730,5
4731,5
4732,5
4733,5
4734,5
4735,5
4736,5
4737,5
4738,5
4739,5
4740,5
4741,5
4742,5
4743,5
4744,5
4745,5
4746,5
4747,5
4748,4
4749,4
4750,4
4751,4
4752,4
4753,4
4754,4
4755,4
4756,4
4757,4
4758,4
4759,5
4760,4
4761,4
4762,4
4763,4
4764,4
4765,4
4766,4
4767,4
4768,4
4769,4
4770,4
4771,5
4772,5
4773,5
4774,5
4775,5
4776,5
4777,4
4778,5
4779,5
4780,5
4781,6
4782,6
4783,6
4784,6
4785,6
4786,6
4787,6
4788,6
4789,6
4790,6
4791,6
4792,6
4793,6
4794,6
4795,6
4796,6
4797,6
4798,6
4799,6
4800,6
4801,6
4802,6
4803,4
4804,4
4805,4
4806,4
4807,4
4808,4
4809,4
4810,4
4811,6
4812,6
4813,6
4814,6
4815,6
4816,6
4817,6
4818,6
4819,6
4820,4
4821,4
4822,6
4823,6
4824,6
4825,6
4826,6
4827,6
4828,6
4829,6
4830,6
4831,6
4832,6
4833,6
4834,6
4835,6
4836,6
4837,6
4838,6
4839,6
4840,6
4841,6
4842,6
4843,6
4844,6
4845,6
4846,6
4847,6
4848,6
4849,6
4850,6
4851,6
4852,6
4853,6
4854,6
4855,6
4856,6
4857,6
4858,6
4859,6
4860,6
4861,6
4862,6
4863,4
4864,4
4865,4
4866,6
4867,6
4868,6
4869,4
4870,6
4871,6
4872,6
4873,6
4874,6
4875,6
4876,6
4877,6
4878,6
4879,6
4880,6
4881,6
4882,6
4883,6
4884,6
4885,6
4886,6
4887,6
4888,6
4889,4
4890,6
4891,6
4892,6
4893,6
4894,6
4895,4
4896,6
4897,6
4898,6
4899,6
4900,4
4901,4
4902,6
4903,4
4904,4
4905,6
4906,6
4907,4
4908,6
4909,4
4910,6
4911,6
4912,6
4913,4
4914,6
4915,4
4916,6
4917,6
4918,6
4919,6
4920,6
4921,6
4922,6
4923,6
4924,4
4925,4
4926,6
4927,4
4928,6
4929,6
4930,4
4931,4
4932,6
4933,4
4934,4
4935,4
4936,4
4937,4
4938,4
4939,6
4940,6
4941,6
4942,4
4943,4
4944,6
4945,6
4946,6
4947,6
4948,6
4949,6
4950,6
4951,6
4952,6
4953,6
4954,4
4955,6
4956,6
4957,6
4958,6
4959,6
4960,6
4961,6
4962,6
4963,6
4964,6
4965,6
4966,6
4967,6
4968,4
4969,6
4970,6
4971,6
4972,4
4973,4
4974,6
4975,6
4976,6
4977,6
4978,6
4979,4
4980,6
4981,6
4982,6
4983,6
4984,6
4985,4
4986,6
4987,6
4988,6
4989,6
4990,6
4991,6
4992,6
4993,6
4994,4
4995,6
4996,6
4997,6
4998,6
4999,6
5000,6
5001,6
5002,6
5003,6
5004,6
5005,6
5006,6
5007,6
5008,6
5009,6
5010,6
5011,6
5012,6
5013,6
5014,6
5015,6
5016,6
5017,6
5018,6
5019,6
5020,6
5021,6
5022,6
5023,6
5024,6
5025,6
5026,4
5027,4
5028,4
5029,4
5030,4
5031,6
5032,6
5033,6
5034,6
5035,6
5036,6
5037,6
5038,6
5039,6
5040,6
5041,6
5042,6
5043,6
5044,6
5045,6
5046,6
5047,6
5048,6
5049,4
5050,4
5051,6
5052,6
5053,6
5054,6
5055,6
5056,6
5057,6
5058,6
5059,6
5060,4
5061,4
5062,4
5063,6
5064,4
5065,6
5066,4
5067,4
5068,4
5069,6
5070,6
5071,6
5072,4
5073,4
5074,6
5075,6
5076,4
5077,6
5078,6
5079,4
5080,4
5081,6
5082,6
5083,6
5084,6
5085,6
5086,6
5087,6
5088,6
5089,6
5090,6
5091,6
5092,6
5093,6
5094,6
5095,6
5096,6
5097,6
5098,6
5099,6
5100,6
5101,6
5102,6
5103,6
5104,6
5105,6
5106,6
5107,6
5108,6
5109,6
5110,6
5111,6
5112,6
5113,6
5114,6
5115,6
5116,6
5117,6
5118,4
5119,6
5120,6
5121,6
5122,6
5123,6
5124,6
5125,6
5126,6
5127,4
5128,6
5129,4
5130,4
5131,6
5132,6
5133,4
5134,6
5135,6
5136,6
5137,6
5138,4
5139,6
5140,6
5141,6
5142,6
5143,6
5144,4
5145,6
5146,6
5147,6
5148,6
5149,6
5150,6
5151,6
5152,6
5153,4
5154,4
5155,4
5156,4
5157,4
5158,4
5159,4
5160,4
5161,4
5162,4
5163,4
5164,4
5165,4
5166,4
5167,4
5168,4
5169,4
5170,4
5171,4
5172,4
5173,4
5174,4
5175,4
5176,4
5177,4
5178,4
5179,4
5180,4
5181,4
5182,4
5183,4
5184,4
5185,4
5186,4
5187,4
5188,4
5189,4
5190,4
5191,4
5192,4
5193,4
5194,4
5195,4
5196,4
5197,4
5198,4
5199,4
5200,4
5201,4
5202,4
5203,4
5204,4
5205,4
5206,4
5207,4
5208,4
5209,4
5210,4
5211,4
5212,4
5213,4
5214,4
5215,4
5216,4
5217,4
5218,4
5219,4
5220,4
5221,4
5222,4
5223,4
5224,4
5225,4
5226,4
5227,4
5228,4
5229,4
5230,4
5231,4
5232,4
5233,4
5234,4
5235,4
5236,4
5237,4
5238,4
5239,4
5240,4
5241,4
5242,6
5243,4
5244,4
5245,6
5246,6
5247,6
5248,6
5249,4
5250,6
5251,6
5252,6
5253,6
5254,6
5255,6
5256,6
5257,6
5258,6
5259,4
5260,4
5261,4
5262,4
5263,4
5264,4
5265,4
5266,4
5267,4
5268,4
5269,4
5270,6
5271,6
5272,6
5273,6
5274,6
5275,6
5276,6
5277,4
5278,4
5279,4
5280,4
5281,4
5282,4
5283,6
5284,6
5285,6
5286,6
5287,4
5288,6
5289,4
5290,6
5291,5
5292,5
5293,4
5294,5
5295,5
5296,6
5297,4
5298,4
5299,5
5300,6
5301,5
5302,4
5303,5
5304,5
5305,6
5306,4
5307,4
5308,4
5309,5
5310,4
5311,4
5312,4
5313,4
5314,4
5315,4
5316,6
5317,4
5318,5
5319,4
5320,4
5321,4
5322,4
5323,4
5324,4
5325,4
5326,4
5327,4
5328,4
5329,4
5330,4
5331,4
5332,4
5333,4
5334,4
5335,4
5336,4
5337,4
5338,4
5339,4
5340,4
5341,4
5342,4
5343,4
5344,4
5345,4
5346,4
5347,4
5348,4
5349,4
5350,4
5351,5
5352,4
5353,5
5354,5
5355,5
5356,5
5357,5
5358,5
5359,4
5360,5
5361,5
5362,5
5363,5
5364,5
5365,5
5366,5
5367,5
5368,5
5369,5
5370,4
5371,5
5372,5
5373,4
5374,4
5375,4
5376,4
5377,6
5378,4
5379,6
5380,4
5381,4
5382,6
5383,4
5384,4
5385,6
5386,4
5387,4
5388,4
5389,5
5390,5
5391,4
5392,4
5393,4
5394,4
5395,4
5396,5
5397,5
5398,4
5399,4
5400,4
5401,4
5402,4
5403,4
5404,5
5405,5
5406,5
5407,5
5408,5
5409,5
5410,5
5411,5
5412,5
5413,4
5414,5
5415,5
5416,5
5417,5
5418,5
5419,5
5420,5
5421,5
5422,5
5423,5
5424,5
5425,5
5426,5
5427,5
5428,5
5429,5
5430,5
5431,5
5432,5
5433,5
5434,5
5435,5
5436,5
5437,5
5438,5
5439,5
5440,5
5441,5
5442,5
5443,5
5444,5
5445,5
5446,5
5447,5
5448,4
5449,4
5450,4
5451,4
5452,4
5453,4
5454,5
5455,4
5456,4
5457,4
5458,4
5459,4
5460,4
5461,4
5462,4
5463,4
5464,4
5465,4
5466,4
5467,4
5468,4
5469,4
5470,4
5471,4
5472,4
5473,4
5474,4
5475,4
5476,4
5477,4
5478,4
5479,4
5480,4
5481,4
5482,4
5483,4
5484,4
5485,4
5486,4
5487,4
5488,4
5489,4
5490,4
5491,4
5492,4
5493,4
5494,4
5495,4
5496,4
5497,4
5498,3
5499,4
5500,4
5501,4
5502,4
5503,4
5504,4
5505,4
5506,4
5507,4
5508,4
5509,4
5510,4
5511,4
5512,5
5513,5
5514,4
5515,4
5516,4
5517,4
5518,4
5519,4
5520,4
5521,4
5522,4
5523,4
5524,4
5525,4
5526,4
5527,4
5528,4
5529,4
5530,4
5531,4
5532,4
5533,4
5534,4
5535,4
5536,4
5537,4
5538,4
5539,4
5540,4
5541,4
5542,4
5543,4
5544,4
5545,4
5546,4
5547,4
5548,4
5549,4
5550,4
5551,4
5552,4
5553,4
5554,4
5555,4
5556,4
5557,4
5558,4
5559,4
5560,4
5561,4
5562,4
5563,4
5564,4
5565,4
5566,4
5567,4
5568,4
5569,4
5570,4
5571,4
5572,4
5573,4
5574,4
5575,4
5576,4
5577,4
5578,4
5579,4
5580,4
5581,4
5582,4
5583,4
5584,4
5585,4
5586,4
5587,4
5588,4
5589,4
5590,4
5591,4
5592,4
5593,4
5594,4
5595,4
5596,4
5597,4
5598,4
5599,4
5600,4
5601,4
5602,4
5603,4
5604,4
5605,4
5606,4
5607,4
5608,4
5609,4
5610,4
5611,4
5612,4
5613,4
5614,4
5615,4
5616,4
5617,4
5618,4
5619,4
5620,4
5621,4
5622,4
5623,4
5624,3
5625,4
5626,4
5627,4
5628,4
5629,4
5630,4
5631,4
5632,4
5633,4
5634,4
5635,4
5636,4
5637,4
5638,4
5639,4
5640,4
5641,4
5642,4
5643,4
5644,4
5645,4
5646,4
5647,4
5648,4
5649,4
5650,4
5651,4
5652,4
5653,4
5654,4
5655,4
5656,4
5657,4
5658,4
5659,4
5660,4
5661,4
5662,4
5663,4
5664,4
5665,4
5666,4
5667,4
5668,4
5669,4
5670,4
5671,4
5672,4
5673,4
5674,4
5675,4
5676,4
5677,4
5678,4
5679,4
5680,4
5681,4
5682,4
5683,4
5684,4
5685,4
5686,4
5687,4
5688,4
5689,4
5690,4
5691,4
5692,4
5693,4
5694,4
5695,4
5696,4
5697,4
5698,4
5699,4
5700,4
5701,4
5702,4
5703,4
5704,4
5705,4
5706,4
5707,4
5708,4
5709,4
5710,4
5711,4
5712,4
5713,4
5714,4
5715,4
5716,4
5717,4
5718,4
5719,4
5720,4
5721,4
5722,4
5723,4
5724,4
5725,4
5726,4
5727,4
5728,4
5729,4
5730,4
5731,4
5732,4
5733,4
5734,4
5735,4
5736,4
5737,4
5738,4
5739,4
5740,4
5741,4
5742,4
5743,4
5744,4
5745,4
5746,4
5747,4
5748,4
5749,4
5750,4
5751,4
5752,4
5753,4
5754,4
5755,4
5756,4
5757,4
5758,4
5759,4
5760,4
5761,4
5762,4
5763,4
5764,4
5765,4
5766,4
5767,4
5768,4
5769,4
5770,4
5771,4
5772,4
5773,4
5774,4
5775,4
5776,4
5777,4
5778,4
5779,4
5780,4
5781,4
5782,4
5783,4
5784,4
5785,4
5786,4
5787,4
5788,3
5789,4
5790,4
5791,4
5792,4
5793,4
5794,4
5795,4
5796,4
5797,4
5798,4
5799,4
5800,4
5801,4
5802,4
5803,4
5804,4
5805,4
5806,4
5807,4
5808,4
5809,4
5810,4
5811,4
5812,4
5813,4
5814,4
5815,4
5816,4
5817,4
5818,4
5819,4
5820,4
5821,4
5822,4
5823,4
5824,4
5825,4
5826,4
5827,4
5828,4
5829,4
5830,4
5831,4
5832,4
5833,4
5834,4
5835,4
5836,4
5837,4
5838,4
5839,4
5840,4
5841,4
5842,4
5843,4
5844,4
5845,4
5846,4
5847,4
5848,4
5849,4
5850,4
5851,4
5852,4
5853,4
5854,4
5855,4
5856,4
5857,4
5858,5
5859,4
5860,4
5861,6
5862,6
5863,4
5864,4
5865,4
5866,4
5867,4
5868,4
5869,4
5870,4
5871,5
5872,5
5873,6
5874,4
5875,5
5876,5
5877,5
5878,5
5879,4
5880,5
5881,3
5882,4
5883,5
5884,4
5885,5
5886,4
5887,5
5888,4
5889,4
5890,4
5891,6
5892,4
5893,6
5894,6
5895,6
5896,6
5897,6
5898,6
5899,6
5900,6
5901,6
5902,6
5903,6
5904,6
5905,6
5906,6
5907,6
5908,6
5909,6
5910,6
5911,4
5912,4
5913,4
5914,4
5915,4
5916,4
5917,4
5918,4
5919,4
5920,4
5921,4
5922,4
5923,6
5924,6
5925,6
5926,4
5927,4
5928,4
5929,4
5930,6
5931,6
5932,6
5933,6
5934,6
5935,6
5936,6
5937,6
5938,6
5939,6
5940,6
5941,6
5942,6
5943,4
5944,6
5945,4
5946,6
5947,4
5948,4
5949,4
5950,4
5951,4
5952,4
5953,4
5954,4
5955,4
5956,4
5957,4
5958,4
5959,4
5960,4
5961,4
5962,6
5963,6
5964,1
5965,6
5966,6
5967,6
5968,6
5969,6
5970,6
5971,6
5972,6
5973,6
5974,6
5975,6
5976,6
5977,6
5978,6
5979,6
5980,6
5981,6
5982,4
5983,4
5984,4
5985,4
5986,4
5987,4
5988,4
5989,4
5990,6
5991,6
5992,6
5993,6
5994,4
5995,6
5996,6
5997,4
5998,4
5999,6
6000,4
6001,6
6002,6
6003,6
6004,6
6005,6
6006,6
6007,7
6008,6
6009,6
6010,6
6011,6
6012,6
6013,6
6014,6
6015,6
6016,6
6017,6
6018,6
6019,6
6020,6
6021,6
6022,6
6023,6
6024,6
6025,6
6026,6
6027,6
6028,6
6029,6
6030,6
6031,6
6032,6
6033,6
6034,6
6035,6
6036,6
6037,6
6038,6
6039,6
6040,6
6041,6
6042,6
6043,6
6044,6
6045,6
6046,6
6047,6
6048,6
6049,6
6050,6
6051,6
6052,6
6053,6
6054,6
6055,6
6056,6
6057,6
6058,6
6059,6
6060,6
6061,6
6062,6
6063,6
6064,6
6065,6
6066,6
6067,6
6068,6
6069,6
6070,6
6071,6
6072,6
6073,4
6074,4
6075,4
6076,4
6077,4
6078,4
6079,4
6080,4
6081,4
6082,4
6083,4
6084,6
6085,6
6086,6
6087,4
6088,6
6089,4
6090,6
6091,6
6092,6
6093,6
6094,4
6095,4
6096,4
6097,4
6098,4
6099,4
6100,4
6101,4
6102,6
6103,6
6104,6
6105,4
6106,6
6107,6
6108,6
6109,6
6110,6
6111,6
6112,6
6113,6
6114,6
6115,6
6116,4
6117,4
6118,6
6119,6
6120,6
6121,6
6122,4
6123,6
6124,6
6125,6
6126,6
6127,6
6128,6
6129,6
6130,6
6131,6
6132,6
6133,6
6134,6
6135,4
6136,6
6137,4
6138,6
6139,6
6140,6
6141,6
6142,6
6143,6
6144,6
6145,6
6146,6
6147,4
6148,6
6149,6
6150,6
6151,6
6152,6
6153,4
6154,4
6155,6
6156,6
6157,6
6158,6
6159,6
6160,6
6161,6
6162,6
6163,4
6164,6
6165,6
6166,6
6167,6
6168,6
6169,6
6170,6
6171,6
6172,6
6173,6
6174,6
6175,6
6176,6
6177,6
6178,6
6179,6
6180,6
6181,6
6182,6
6183,6
6184,6
6185,6
6186,6
6187,6
6188,6
6189,6
6190,6
6191,6
6192,6
6193,6
6194,6
6195,6
6196,6
6197,6
6198,6
6199,6
6200,6
6201,6
6202,6
6203,6
6204,6
6205,4
6206,6
6207,6
6208,6
6209,6
6210,6
6211,6
6212,6
6213,6
6214,6
6215,6
6216,6
6217,4
6218,4
6219,6
6220,4
6221,4
6222,4
6223,6
6224,4
6225,6
6226,6
6227,4
6228,4
6229,4
6230,4
6231,4
6232,4
6233,4
6234,4
6235,6
6236,4
6237,6
6238,4
6239,6
6240,6
6241,6
6242,4
6243,6
6244,6
6245,6
6246,6
6247,6
6248,6
6249,6
6250,6
6251,6
6252,6
6253,6
6254,4
6255,4
6256,4
6257,4
6258,4
6259,4
6260,4
6261,4
6262,4
6263,4
6264,4
6265,4
6266,4
6267,6
6268,4
6269,6
6270,6
6271,6
6272,6
6273,6
6274,6
6275,6
6276,6
6277,6
6278,6
6279,4
6280,4
6281,4
6282,4
6283,4
6284,6
6285,6
6286,6
6287,6
6288,6
6289,6
6290,6
6291,6
6292,6
6293,6
6294,6
6295,6
6296,6
6297,6
6298,6
6299,6
6300,6
6301,6
6302,6
6303,6
6304,6
6305,6
6306,6
6307,6
6308,6
6309,6
6310,6
6311,6
6312,6
6313,6
6314,6
6315,6
6316,6
6317,6
6318,6
6319,6
6320,6
6321,6
6322,6
6323,4
6324,6
6325,6
6326,6
6327,4
6328,6
6329,4
6330,4
6331,6
6332,6
6333,4
6334,6
6335,4
6336,4
6337,4
6338,4
6339,6
6340,6
6341,6
6342,6
6343,4
6344,4
6345,4
6346,4
6347,4
6348,4
6349,4
6350,4
6351,4
6352,4
6353,4
6354,6
6355,6
6356,4
6357,4
6358,4
6359,4
6360,6
6361,6
6362,6
6363,6
6364,4
6365,6
6366,6
6367,6
6368,6
6369,6
6370,6
6371,4
6372,4
6373,4
6374,4
6375,4
6376,4
6377,4
6378,4
6379,4
6380,4
6381,4
6382,4
6383,4
6384,4
6385,6
6386,6
6387,6
6388,6
6389,6
6390,4
6391,4
6392,4
6393,4
6394,4
6395,4
6396,4
6397,4
6398,4
6399,4
6400,4
6401,4
6402,6
6403,6
6404,6
6405,4
6406,4
6407,4
6408,4
6409,4
6410,4
6411,4
6412,4
6413,4
6414,4
6415,4
6416,4
6417,6
6418,6
6419,6
6420,6
6421,4
6422,5
6423,5
6424,5
6425,4
6426,5
6427,4
6428,4
6429,5
6430,4
6431,4
6432,4
6433,4
6434,4
6435,4
6436,4
6437,4
6438,6
6439,6
6440,6
6441,6
6442,6
6443,6
6444,6
6445,6
6446,6
6447,6
6448,6
6449,6
6450,6
6451,6
6452,6
6453,6
6454,6
6455,6
6456,6
6457,6
6458,4
6459,4
6460,4
6461,4
6462,4
6463,5
6464,4
6465,4
6466,4
6467,4
6468,5
6469,5
6470,5
6471,5
6472,4
6473,4
6474,5
6475,5
6476,4
6477,4
6478,5
6479,6
6480,4
6481,4
6482,5
6483,5
6484,5
6485,5
6486,4
6487,5
6488,5
6489,5
6490,4
6491,4
6492,4
6493,4
6494,5
6495,5
6496,5
6497,5
6498,5
6499,5
6500,5
6501,4
6502,5
6503,5
6504,5
6505,5
6506,5
6507,4
6508,4
6509,4
6510,4
6511,4
6512,4
6513,4
6514,4
6515,4
6516,4
6517,4
6518,4
6519,5
6520,4
6521,4
6522,4
6523,4
6524,4
6525,4
6526,5
6527,5
6528,5
6529,4
6530,4
6531,4
6532,4
6533,5
6534,4
6535,4
6536,5
6537,4
6538,4
6539,4
6540,4
6541,4
6542,4
6543,4
6544,4
6545,4
6546,4
6547,4
6548,4
6549,4
6550,4
6551,4
6552,4
6553,4
6554,4
6555,4
6556,4
6557,4
6558,4
6559,4
6560,4
6561,4
6562,4
6563,4
6564,4
6565,4
6566,4
6567,4
6568,4
6569,4
6570,4
6571,4
6572,4
6573,4
6574,4
6575,4
6576,4
6577,4
6578,4
6579,4
6580,4
6581,4
6582,4
6583,4
6584,4
6585,4
6586,4
6587,4
6588,4
6589,4
6590,4
6591,4
6592,4
6593,4
6594,4
6595,4
6596,4
6597,4
6598,4
6599,4
6600,4
6601,4
6602,4
6603,4
6604,4
6605,4
6606,4
6607,4
6608,4
6609,3
6610,4
6611,4
6612,4
6613,4
6614,4
6615,4
6616,4
6617,4
6618,4
6619,4
6620,4
6621,4
6622,4
6623,4
6624,4
6625,4
6626,4
6627,4
6628,4
6629,4
6630,4
6631,4
6632,4
6633,4
6634,4
6635,4
6636,4
6637,4
6638,4
6639,4
6640,4
6641,4
6642,4
6643,4
6644,4
6645,4
6646,4
6647,4
6648,4
6649,4
6650,4
6651,4
6652,4
6653,4
6654,4
6655,4
6656,4
6657,4
6658,4
6659,4
6660,4
6661,4
6662,4
6663,4
6664,4
6665,4
6666,4
6667,4
6668,4
6669,4
6670,4
6671,4
6672,4
6673,4
6674,4
6675,4
6676,4
6677,4
6678,4
6679,4
6680,4
6681,4
6682,4
6683,4
6684,4
6685,4
6686,4
6687,4
6688,4
6689,4
6690,4
6691,4
6692,4
6693,4
6694,4
6695,4
6696,4
6697,4
6698,4
6699,4
6700,4
6701,4
6702,4
6703,4
6704,1
6705,4
6706,4
6707,4
6708,4
6709,4
6710,4
6711,4
6712,4
6713,4
6714,4
6715,4
6716,4
6717,4
6718,4
6719,4
6720,4
6721,4
6722,4
6723,4
6724,4
6725,4
6726,4
6727,4
6728,4
6729,4
6730,4
6731,4
6732,4
6733,4
6734,4
6735,4
6736,4
6737,4
6738,4
6739,4
6740,4
6741,4
6742,4
6743,4
6744,4
6745,4
6746,4
6747,4
6748,4
6749,4
6750,4
6751,4
6752,4
6753,4
6754,4
6755,4
6756,4
6757,4
6758,4
6759,4
6760,4
6761,4
6762,4
6763,4
6764,4
6765,4
6766,4
6767,4
6768,4
6769,4
6770,4
6771,4
6772,4
6773,4
6774,4
6775,4
6776,4
6777,4
6778,4
6779,4
6780,4
6781,4
6782,4
6783,4
6784,4
6785,4
6786,4
6787,4
6788,4
6789,4
6790,3
6791,4
6792,4
6793,4
6794,4
6795,4
6796,4
6797,4
6798,4
6799,4
6800,4
6801,4
6802,4
6803,4
6804,4
6805,4
6806,4
6807,4
6808,4
6809,4
6810,4
6811,4
6812,4
6813,4
6814,4
6815,4
6816,4
6817,4
6818,4
6819,4
6820,4
6821,4
6822,4
6823,4
6824,4
6825,4
6826,4
6827,4
6828,4
6829,4
6830,4
6831,4
6832,4
6833,4
6834,4
6835,4
6836,4
6837,4
6838,4
6839,4
6840,4
6841,4
6842,4
6843,4
6844,4
6845,4
6846,4
6847,4
6848,4
6849,4
6850,4
6851,4
6852,4
6853,4
6854,4
6855,4
6856,4
6857,4
6858,4
6859,4
6860,4
6861,4
6862,4
6863,4
6864,4
6865,4
6866,4
6867,4
6868,4
6869,4
6870,4
6871,4
6872,4
6873,4
6874,4
6875,4
6876,4
6877,4
6878,4
6879,4
6880,4
6881,4
6882,4
6883,4
6884,4
6885,4
6886,4
6887,4
6888,4
6889,4
6890,4
6891,4
6892,4
6893,4
6894,4
6895,4
6896,4
6897,4
6898,4
6899,4
6900,4
6901,4
6902,4
6903,4
6904,4
6905,4
6906,4
6907,4
6908,4
6909,4
6910,4
6911,4
6912,4
6913,4
6914,4
6915,4
6916,3
6917,4
6918,4
6919,4
6920,4
6921,4
6922,4
6923,4
6924,4
6925,4
6926,4
6927,4
6928,4
6929,4
6930,4
6931,4
6932,4
6933,4
6934,4
6935,4
6936,4
6937,4
6938,4
6939,4
6940,4
6941,4
6942,4
6943,4
6944,4
6945,4
6946,4
6947,4
6948,4
6949,4
6950,4
6951,4
6952,4
6953,4
6954,4
6955,4
6956,4
6957,4
6958,4
6959,4
6960,4
6961,4
6962,4
6963,4
6964,4
6965,4
6966,4
6967,4
6968,4
6969,4
6970,4
6971,4
6972,4
6973,4
6974,4
6975,4
6976,4
6977,4
6978,4
6979,4
6980,4
6981,4
6982,4
6983,4
6984,5
6985,4
6986,5
6987,4
6988,4
6989,4
6990,3
6991,6
6992,6
6993,6
6994,6
6995,6
6996,6
6997,6
6998,6
6999,6
7000,6
7001,6
7002,6
7003,6
7004,6
7005,4
7006,6
7007,6
7008,6
7009,6
7010,6
7011,6
7012,6
7013,6
7014,4
7015,5
7016,4
7017,4
7018,4
7019,4
7020,5
7021,5
7022,5
7023,5
7024,5
7025,5
7026,5
7027,5
7028,5
7029,5
7030,5
7031,5
7032,5
7033,5
7034,5
7035,5
7036,5
7037,5
7038,5
7039,4
7040,5
7041,5
7042,5
7043,5
7044,5
7045,5
7046,5
7047,5
7048,5
7049,5
7050,5
7051,5
7052,5
7053,5
7054,5
7055,5
7056,5
7057,5
7058,5
7059,5
7060,5
7061,5
7062,5
7063,5
7064,5
7065,5
7066,5
7067,5
7068,5
7069,5
7070,5
7071,5
7072,5
7073,5
7074,5
7075,5
7076,5
7077,5
7078,5
7079,5
7080,5
7081,5
7082,5
7083,5
7084,5
7085,5
7086,5
7087,5
7088,5
7089,5
7090,5
7091,5
7092,5
7093,5
7094,5
7095,5
7096,5
7097,5
7098,5
7099,5
7100,5
7101,5
7102,5
7103,5
7104,5
7105,5
7106,5
7107,5
7108,5
7109,5
7110,5
7111,5
7112,5
7113,5
7114,5
7115,5
7116,5
7117,5
7118,5
7119,5
7120,5
7121,5
7122,5
7123,5
7124,5
7125,5
7126,5
7127,5
7128,5
7129,5
7130,5
7131,5
7132,5
7133,5
7134,5
7135,5
7136,5
7137,5
7138,5
7139,5
7140,5
7141,5
7142,5
7143,5
7144,5
7145,5
7146,5
7147,5
7148,5
7149,5
7150,5
7151,5
7152,5
7153,5
7154,5
7155,5
7156,5
7157,5
7158,5
7159,5
7160,5
7161,5
7162,5
7163,5
7164,5
7165,5
7166,5
7167,5
7168,5
7169,5
7170,5
7171,5
7172,5
7173,5
7174,5
7175,5
7176,5
7177,5
7178,5
7179,5
7180,5
7181,5
7182,5
7183,5
7184,5
7185,5
7186,5
7187,5
7188,5
7189,5
7190,5
7191,5
7192,5
7193,5
7194,5
7195,5
7196,5
7197,5
7198,5
7199,5
7200,5
7201,5
7202,5
7203,5
7204,5
7205,5
7206,5
7207,5
7208,5
7209,5
7210,5
7211,5
7212,5
7213,5
7214,5
7215,5
7216,5
7217,5
7218,5
7219,5
7220,5
7221,5
7222,5
7223,5
7224,5
7225,5
7226,5
7227,5
7228,5
7229,5
7230,5
7231,5
7232,5
7233,5
7234,5
7235,5
7236,5
7237,5
7238,5
7239,5
7240,5
7241,5
7242,5
7243,5
7244,5
7245,5
7246,5
7247,5
7248,5
7249,5
7250,5
7251,5
7252,5
7253,5
7254,5
7255,5
7256,5
7257,5
7258,5
7259,5
7260,5
7261,5
7262,5
7263,5
7264,5
7265,5
7266,5
7267,5
7268,5
7269,5
7270,5
7271,5
7272,5
7273,5
7274,5
7275,5
7276,5
7277,5
7278,5
7279,5
7280,5
7281,5
7282,5
7283,5
7284,5
7285,5
7286,5
7287,5
7288,5
7289,5
7290,5
7291,5
7292,5
7293,5
7294,5
7295,5
7296,5
7297,5
7298,5
7299,5
7300,5
7301,5
7302,5
7303,5
7304,5
7305,5
7306,5
7307,5
7308,5
7309,5
7310,5
7311,5
7312,5
7313,5
7314,5
7315,5
7316,5
7317,5
7318,5
7319,5
7320,5
7321,5
7322,5
7323,5
7324,4
7325,5
7326,5
7327,5
7328,5
7329,5
7330,5
7331,5
7332,5
7333,5
7334,5
7335,5
7336,5
7337,5
7338,5
7339,5
7340,5
7341,5
7342,5
7343,5
7344,5
7345,5
7346,5
7347,5
7348,5
7349,5
7350,5
7351,5
7352,5
7353,5
7354,5
7355,5
7356,5
7357,5
7358,5
7359,5
7360,5
7361,5
7362,5
7363,5
7364,5
7365,5
7366,5
7367,5
7368,5
7369,5
7370,5
7371,5
7372,5
7373,5
7374,5
7375,5
7376,5
7377,5
7378,5
7379,5
7380,5
7381,5
7382,5
7383,5
7384,5
7385,5
7386,5
7387,5
7388,5
7389,5
7390,5
7391,5
7392,5
7393,5
7394,5
7395,5
7396,5
7397,5
7398,5
7399,5
7400,5
7401,5
7402,5
7403,5
7404,5
7405,5
7406,5
7407,5
7408,4
7409,4
7410,4
7411,4
7412,4
7413,4
7414,4
7415,4
7416,4
7417,4
7418,6
7419,5
7420,6
7421,4
7422,4
7423,4
7424,4
7425,4
7426,4
7427,4
7428,4
7429,4
7430,4
7431,4
7432,4
7433,4
7434,4
7435,5
7436,6
7437,5
7438,5
7439,5
7440,5
7441,5
7442,4
7443,4
7444,5
7445,4
7446,5
7447,4
7448,5
7449,4
7450,4
7451,4
7452,6
7453,5
7454,5
7455,5
7456,6
7457,4
7458,6
7459,5
7460,5
7461,5
7462,5
7463,5
7464,5
7465,4
7466,5
7467,4
7468,4
7469,4
7470,4
7471,5
7472,4
7473,4
7474,4
7475,5
7476,6
7477,4
7478,5
7479,5
7480,5
7481,5
7482,5
7483,5
7484,5
7485,5
7486,5
7487,5
7488,5
7489,5
7490,5
7491,5
7492,5
7493,5
7494,5
7495,5
7496,5
7497,5
7498,5
7499,5
7500,5
7501,5
7502,5
7503,5
7504,5
7505,5
7506,5
7507,5
7508,5
7509,5
7510,5
7511,5
7512,5
7513,5
7514,5
7515,5
7516,5
7517,5
7518,5
7519,5
7520,5
7521,5
7522,5
7523,5
7524,5
7525,5
7526,5
7527,5
7528,5
7529,5
7530,5
7531,5
7532,5
7533,5
7534,5
7535,5
7536,5
7537,5
7538,5
7539,5
7540,5
7541,5
7542,5
7543,5
7544,5
7545,5
7546,5
7547,5
7548,4
7549,5
7550,5
7551,5
7552,5
7553,5
7554,5
7555,5
7556,5
7557,5
7558,5
7559,5
7560,5
7561,5
7562,5
7563,5
7564,4
7565,5
7566,5
7567,4
7568,4
7569,5
7570,5
7571,5
7572,5
7573,5
7574,5
7575,6
7576,3
7577,5
7578,6
7579,4
7580,6
7581,5
7582,5
7583,5
7584,4
7585,6
7586,5
7587,4
7588,5
7589,4
7590,5
7591,5
7592,5
7593,5
7594,4
7595,4
7596,4
7597,4
7598,4
7599,4
7600,4
7601,4
7602,4
7603,4
7604,4
7605,4
7606,4
7607,4
7608,4
7609,4
7610,4
7611,4
7612,4
7613,4
7614,4
7615,4
7616,4
7617,3
7618,4
7619,4
7620,4
7621,4
7622,4
7623,4
7624,4
7625,4
7626,4
7627,4
7628,4
7629,4
7630,4
7631,4
7632,4
7633,4
7634,4
7635,4
7636,4
7637,4
7638,4
7639,4
7640,4
7641,4
7642,4
7643,4
7644,4
7645,4
7646,4
7647,4
7648,4
7649,4
7650,5
7651,5
7652,5
7653,4
7654,4
7655,5
7656,4
7657,4
7658,4
7659,4
7660,5
7661,5
7662,5
7663,4
7664,4
7665,4
7666,4
7667,4
7668,5
7669,5
7670,5
7671,6
7672,4
7673,5
7674,5
7675,6
7676,4
7677,5
7678,5
7679,6
7680,4
7681,3
7682,4
7683,4
7684,4
7685,4
7686,4
7687,4
7688,4
7689,4
7690,4
7691,4
7692,4
7693,4
7694,5
7695,4
7696,4
7697,4
7698,4
7699,4
7700,5
7701,4
7702,4
7703,4
7704,4
7705,4
7706,6
7707,5
7708,6
7709,5
7710,5
7711,5
7712,5
7713,5
7714,4
7715,5
7716,6
7717,5
7718,4
7719,5
7720,5
7721,4
7722,4
7723,5
7724,5
7725,5
7726,5
7727,5
7728,6
7729,5
7730,5
7731,6
7732,4
7733,5
7734,5
7735,4
7736,6
7737,4
7738,4
7739,4
7740,5
7741,5
7742,4
7743,4
7744,5
7745,5
7746,5
7747,4
7748,4
7749,4
7750,4
7751,5
7752,4
7753,4
7754,5
7755,5
7756,5
7757,4
7758,4
7759,4
7760,4
7761,4
7762,4
7763,4
7764,4
7765,4
7766,4
7767,4
7768,4
7769,4
7770,4
7771,4
7772,4
7773,4
7774,4
7775,4
7776,4
7777,4
7778,4
7779,4
7780,4
7781,4
7782,4
7783,4
7784,4
7785,4
7786,4
7787,4
7788,4
7789,4
7790,5
7791,5
7792,5
7793,5
7794,5
7795,4
7796,5
7797,5
7798,5
7799,5
7800,5
7801,5
7802,5
7803,5
7804,5
7805,4
7806,5
7807,5
7808,5
7809,5
7810,5
7811,4
7812,4
7813,4
7814,4
7815,4
7816,5
7817,5
7818,5
7819,5
7820,5
7821,5
7822,5
7823,5
7824,5
7825,5
7826,5
7827,5
7828,5
7829,5
7830,5
7831,5
7832,5
7833,5
7834,5
7835,5
7836,5
7837,5
7838,5
7839,5
7840,5
7841,5
7842,5
7843,5
7844,5
7845,5
7846,5
7847,5
7848,5
7849,5
7850,5
7851,5
7852,5
7853,5
7854,5
7855,5
7856,5
7857,5
7858,4
7859,5
7860,5
7861,5
7862,5
7863,5
7864,4
7865,4
7866,4
7867,5
7868,4
7869,4
7870,5
7871,5
7872,5
7873,5
7874,5
7875,4
7876,6
7877,6
7878,4
7879,4
7880,6
7881,5
7882,4
7883,4
7884,4
7885,4
7886,5
7887,5
7888,4
7889,5
7890,5
7891,4
7892,5
7893,3
7894,4
7895,5
7896,4
7897,5
7898,5
7899,6
7900,4
7901,6
7902,5
7903,4
7904,4
7905,5
7906,4
7907,4
7908,5
7909,4
7910,5
7911,5
7912,5
7913,5
7914,4
7915,5
7916,5
7917,4
7918,4
7919,4
7920,4
7921,4
7922,4
7923,4
7924,5
7925,4
7926,6
7927,4
7928,4
7929,5
7930,4
7931,5
7932,5
7933,4
7934,5
7935,5
7936,4
7937,5
7938,4
7939,5
7940,4
7941,4
7942,5
7943,6
7944,4
7945,6
7946,4
7947,5
7948,6
7949,5
7950,4
7951,5
7952,4
7953,5
7954,6
7955,5
7956,5
7957,5
7958,5
7959,5
7960,5
7961,5
7962,5
7963,5
7964,5
7965,5
7966,5
7967,5
7968,5
7969,4
7970,5
7971,5
7972,5
7973,5
7974,5
7975,5
7976,5
7977,5
7978,5
7979,5
7980,5
7981,5
7982,5
7983,5
7984,5
7985,5
7986,6
7987,5
7988,5
7989,4
7990,4
7991,5
7992,4
7993,4
7994,5
7995,5
7996,5
7997,5
7998,5
7999,5
8000,5
8001,5
8002,4
8003,4
8004,4
8005,4
8006,6
8007,6
8008,6
8009,6
8010,5
8011,4
8012,6
8013,4
8014,5
8015,4
8016,4
8017,4
8018,5
8019,4
8020,5
8021,5
8022,4
8023,4
8024,6
8025,4
8026,5
8027,5
8028,5
8029,6
8030,5
8031,5
8032,5
8033,5
8034,5
8035,4
8036,6
8037,5
8038,4
8039,5
8040,5
8041,5
8042,5
8043,5
8044,5
8045,6
8046,5
8047,6
8048,6
8049,5
8050,5
8051,5
8052,5
8053,4
8054,5
8055,4
8056,4
8057,5
8058,6
8059,4
8060,4
8061,6
8062,5
8063,5
8064,5
8065,5
8066,5
8067,5
8068,5
8069,5
8070,4
8071,4
8072,5
8073,5
8074,4
8075,4
8076,4
8077,5
8078,5
8079,4
8080,5
8081,5
8082,5
8083,4
8084,4
8085,5
8086,5
8087,4
8088,5
8089,4
8090,5
8091,4
8092,5
8093,4
8094,5
8095,4
8096,3
8097,4
8098,5
8099,4
8100,4
8101,4
8102,5
8103,5
8104,5
8105,4
8106,5
8107,5
8108,5
8109,4
8110,5
8111,5
8112,5
8113,4
8114,4
8115,5
8116,5
8117,4
8118,5
8119,5
8120,5
8121,4
8122,5
8123,5
8124,6
8125,4
8126,4
8127,5
8128,4
8129,4
8130,4
8131,4
8132,4
8133,5
8134,6
8135,5
8136,6
8137,5
8138,6
8139,4
8140,4
8141,4
8142,5
8143,5
8144,5
8145,5
8146,6
8147,5
8148,5
8149,5
8150,5
8151,5
8152,4
8153,5
8154,5
8155,5
8156,5
8157,5
8158,3
8159,5
8160,5
8161,5
8162,5
8163,5
8164,5
8165,5
8166,5
8167,5
8168,5
8169,5
8170,5
8171,5
8172,5
8173,4
8174,5
8175,5
8176,5
8177,4
8178,5
8179,4
8180,6
8181,5
8182,5
8183,5
8184,4
8185,5
8186,5
8187,6
8188,4
8189,5
8190,4
8191,6
8192,6
8193,6
8194,6
8195,6
8196,6
8197,5
8198,5
8199,5
8200,6
8201,5
8202,5
8203,4
8204,3
8205,5
8206,5
8207,6
8208,5
8209,4
8210,4
8211,5
8212,5
8213,4
8214,4
8215,5
8216,5
8217,4
8218,5
8219,4
8220,4
8221,6
8222,5
8223,5
8224,5
8225,5
8226,5
8227,5
8228,5
8229,5
8230,5
8231,4
8232,5
8233,5
8234,5
8235,5
8236,4
8237,4
8238,4
8239,5
8240,5
8241,5
8242,6
8243,6
8244,6
8245,6
8246,6
8247,5
8248,6
8249,4
8250,4
8251,5
8252,4
8253,4
8254,4
8255,5
8256,5
8257,5
8258,4
8259,5
8260,5
8261,5
8262,5
8263,4
8264,5
8265,5
8266,5
8267,5
8268,5
8269,5
8270,5
8271,5
8272,5
8273,4
8274,5
8275,4
8276,4
8277,5
8278,5
8279,5
8280,4
8281,5
8282,4
8283,5
8284,5
8285,5
8286,5
8287,5
8288,4
8289,4
8290,5
8291,4
8292,5
8293,5
8294,5
8295,5
8296,5
8297,5
8298,5
8299,5
8300,5
8301,5
8302,5
8303,5
8304,4
8305,5
8306,5
8307,5
8308,5
8309,5
8310,5
8311,5
8312,5
8313,5
8314,5
8315,5
8316,5
8317,5
8318,5
8319,5
8320,5
8321,5
8322,5
8323,4
8324,6
8325,5
8326,5
8327,5
8328,5
8329,5
8330,5
8331,5
8332,5
8333,5
8334,6
8335,4
8336,5
8337,4
8338,5
8339,5
8340,5
8341,5
8342,5
8343,5
8344,5
8345,5
8346,5
8347,5
8348,5
8349,5
8350,5
8351,5
8352,5
8353,5
8354,5
8355,5
8356,5
8357,5
8358,5
8359,5
8360,5
8361,5
8362,5
8363,5
8364,5
8365,5
8366,5
8367,5
8368,5
8369,5
8370,5
8371,5
8372,5
8373,5
8374,5
8375,5
8376,5
8377,5
8378,5
8379,5
8380,5
8381,5
8382,5
8383,5
8384,5
8385,5
8386,4
8387,5
8388,5
8389,5
8390,5
8391,5
8392,5
8393,5
8394,5
8395,5
8396,5
8397,5
8398,5
8399,5
8400,5
8401,5
8402,5
8403,4
8404,4
8405,5
8406,6
8407,5
8408,5
8409,5
8410,5
8411,4
8412,5
8413,4
8414,5
8415,5
8416,5
8417,4
8418,5
8419,5
8420,5
8421,5
8422,5
8423,4
8424,5
8425,4
8426,4
8427,5
8428,5
8429,5
8430,5
8431,5
8432,5
8433,5
8434,5
8435,4
8436,5
8437,5
8438,5
8439,5
8440,5
8441,5
8442,5
8443,5
8444,5
8445,5
8446,5
8447,5
8448,5
8449,5
8450,5
8451,5
8452,5
8453,5
8454,5
8455,5
8456,5
8457,5
8458,5
8459,5
8460,5
8461,5
8462,4
8463,4
8464,4
8465,5
8466,5
8467,4
8468,7
8469,4
8470,5
8471,5
8472,5
8473,4
8474,5
8475,5
8476,5
8477,5
8478,4
8479,5
8480,5
8481,5
8482,4
8483,5
8484,5
8485,5
8486,4
8487,4
8488,5
8489,5
8490,5
8491,4
8492,5
8493,5
8494,5
8495,5
8496,5
8497,4
8498,4
8499,4
8500,4
8501,4
8502,6
8503,4
8504,5
8505,5
8506,5
8507,5
8508,5
8509,5
8510,5
8511,5
8512,5
8513,5
8514,5
8515,5
8516,5
8517,5
8518,5
8519,5
8520,5
8521,5
8522,5
8523,5
8524,5
8525,5
8526,5
8527,5
8528,5
8529,5
8530,5
8531,5
8532,5
8533,5
8534,5
8535,5
8536,5
8537,5
8538,5
8539,5
8540,5
8541,5
8542,5
8543,5
8544,5
8545,5
8546,5
8547,5
8548,5
8549,5
8550,5
8551,5
8552,5
8553,5
8554,5
8555,5
8556,5
8557,5
8558,5
8559,5
8560,5
8561,5
8562,5
8563,5
8564,5
8565,5
8566,5
8567,5
8568,5
8569,5
8570,5
8571,5
8572,4
8573,4
8574,4
8575,4
8576,5
8577,5
8578,5
8579,5
8580,5
8581,4
8582,4
8583,5
8584,4
8585,5
8586,4
8587,5
8588,5
8589,5
8590,5
8591,5
8592,5
8593,5
8594,5
8595,5
8596,4
8597,5
8598,5
8599,5
8600,5
8601,4
8602,5
8603,5
8604,5
8605,5
8606,5
8607,5
8608,5
8609,5
8610,4
8611,5
8612,4
8613,5
8614,5
8615,4
8616,5
8617,5
8618,4
8619,4
8620,5
8621,5
8622,4
8623,5
8624,5
8625,5
8626,5
8627,5
8628,5
8629,5
8630,5
8631,5
8632,4
8633,5
8634,5
8635,5
8636,4
8637,4
8638,5
8639,5
8640,5
8641,5
8642,5
8643,5
8644,5
8645,4
8646,5
8647,4
8648,5
8649,5
8650,5
8651,6
8652,4
8653,6
8654,4
8655,5
8656,5
8657,4
8658,5
8659,4
8660,4
8661,5
8662,5
8663,5
8664,5
8665,5
8666,5
8667,5
8668,5
8669,5
8670,5
8671,5
8672,5
8673,5
8674,4
8675,5
8676,5
8677,5
8678,5
8679,5
8680,4
8681,5
8682,6
8683,6
8684,4
8685,5
8686,5
8687,5
8688,5
8689,5
8690,5
8691,6
8692,5
8693,5
8694,5
8695,5
8696,5
8697,5
8698,5
8699,5
8700,5
8701,6
8702,4
8703,4
8704,6
8705,5
8706,5
8707,4
8708,4
8709,5
8710,5
8711,5
8712,5
8713,5
8714,5
8715,5
8716,5
8717,6
8718,4
8719,5
8720,4
8721,5
8722,5
8723,5
8724,4
8725,5
8726,6
8727,6
8728,5
8729,5
8730,5
8731,5
8732,5
8733,5
8734,5
8735,4
8736,5
8737,4
8738,6
8739,5
8740,5
8741,5
8742,4
8743,5
8744,6
8745,5
8746,4
8747,5
8748,5
8749,4
8750,5
8751,5
8752,4
8753,6
8754,4
8755,4
8756,4
8757,5
8758,5
8759,5
8760,5
8761,5
8762,4
8763,5
8764,5
8765,5
8766,5
8767,5
8768,5
8769,5
8770,5
8771,5
8772,5
8773,5
8774,5
8775,5
8776,6
8777,4
8778,5
8779,5
8780,5
8781,5
8782,5
8783,5
8784,0
8785,0
8786,0
8787,0
8788,0
8789,0
8790,0
8791,0
8792,0
8793,0
8794,0
8795,0
8796,0
8797,0
8798,0
8799,0
8800,0
8801,0
8802,0
8803,0
8804,0
8805,0
8806,0
8807,0
8808,0
8809,0
8810,5
8811,6
8812,5
8813,4
8814,4
8815,4
8816,5
8817,5
8818,4
8819,5
8820,5
8821,4
8822,5
8823,4
8824,5
8825,5
8826,5
8827,5
8828,5
8829,5
8830,5
8831,5
8832,5
8833,5
8834,5
8835,5
8836,5
8837,5
8838,5
8839,5
8840,5
8841,5
8842,5
8843,5
8844,5
8845,5
8846,5
8847,5
8848,5
8849,5
8850,5
8851,5
8852,5
8853,5
8854,5
8855,5
8856,5
8857,4
8858,5
8859,5
8860,5
8861,5
8862,5
8863,4
8864,4
8865,5
8866,4
8867,4
8868,5
8869,4
8870,5
8871,4
8872,5
8873,4
8874,5
8875,5
8876,4
8877,5
8878,4
8879,5
8880,4
8881,5
8882,5
8883,5
8884,5
8885,5
8886,5
8887,5
8888,5
8889,5
8890,5
8891,5
8892,5
8893,5
8894,5
8895,5
8896,5
8897,5
8898,5
8899,5
8900,5
8901,4
8902,5
8903,5
8904,5
8905,5
8906,5
8907,5
8908,5
8909,5
8910,5
8911,5
8912,5
8913,5
8914,5
8915,5
8916,5
8917,4
8918,5
8919,5
8920,5
8921,5
8922,5
8923,5
8924,5
8925,5
8926,5
8927,5
8928,5
8929,5
8930,5
8931,5
8932,4
8933,5
8934,5
8935,5
8936,5
8937,5
8938,5
8939,5
8940,5
8941,5
8942,5
8943,5
8944,5
8945,5
8946,5
8947,4
8948,5
8949,5
8950,5
8951,5
8952,5
8953,5
8954,5
8955,5
8956,5
8957,5
8958,5
8959,5
8960,5
8961,5
8962,5
8963,5
8964,5
8965,5
8966,4
8967,4
8968,5
8969,5
8970,5
8971,5
8972,5
8973,5
8974,4
8975,5
8976,5
8977,5
8978,5
8979,5
8980,5
8981,5
8982,5
8983,5
8984,5
8985,5
8986,5
8987,5
8988,5
8989,4
8990,5
8991,5
8992,4
8993,4
8994,5
8995,5
8996,5
8997,5
8998,4
8999,5
9000,5
9001,5
9002,4
9003,5
9004,5
9005,5
9006,5
9007,5
9008,5
9009,5
9010,4
9011,5
9012,5
9013,4
9014,5
9015,5
9016,4
9017,5
9018,5
9019,5
9020,4
9021,5
9022,3
9023,5
9024,5
9025,5
9026,5
9027,5
9028,5
9029,5
9030,5
9031,5
9032,4
9033,5
9034,5
9035,4
9036,5
9037,5
9038,5
9039,5
9040,5
9041,5
9042,5
9043,5
9044,5
9045,5
9046,5
9047,5
9048,5
9049,5
9050,5
9051,5
9052,4
9053,5
9054,5
9055,5
9056,5
9057,5
9058,5
9059,5
9060,5
9061,5
9062,5
9063,5
9064,5
9065,5
9066,5
9067,5
9068,5
9069,5
9070,5
9071,5
9072,5
9073,4
9074,5
9075,5
9076,5
9077,5
9078,5
9079,1
9080,5
9081,5
9082,5
9083,5
9084,5
9085,5
9086,5
9087,5
9088,5
9089,5
9090,5
9091,5
9092,5
9093,5
9094,4
9095,5
9096,5
9097,5
9098,5
9099,5
9100,5
9101,5
9102,5
9103,5
9104,5
9105,5
9106,5
9107,5
9108,5
9109,5
9110,5
9111,5
9112,5
9113,5
9114,5
9115,4
9116,5
9117,5
9118,5
9119,5
9120,5
9121,5
9122,4
9123,5
9124,5
9125,5
9126,5
9127,5
9128,5
9129,5
9130,5
9131,5
9132,5
9133,5
9134,4
9135,5
9136,5
9137,4
9138,5
9139,5
9140,4
9141,5
9142,5
9143,4
9144,5
9145,5
9146,5
9147,5
9148,5
9149,5
9150,5
9151,4
9152,4
9153,3
9154,5
9155,5
9156,5
9157,4
9158,5
9159,5
9160,5
9161,4
9162,5
9163,5
9164,4
9165,5
9166,5
9167,5
9168,5
9169,5
9170,5
9171,5
9172,5
9173,5
9174,5
9175,5
9176,5
9177,5
9178,5
9179,4
9180,5
9181,4
9182,5
9183,4
9184,5
9185,5
9186,5
9187,4
9188,4
9189,5
9190,5
9191,5
9192,5
9193,5
9194,5
9195,5
9196,5
9197,4
9198,4
9199,4
9200,5
9201,5
9202,5
9203,5
9204,5
9205,5
9206,5
9207,5
9208,5
9209,5
9210,5
9211,4
9212,4
9213,5
9214,4
9215,5
9216,4
9217,4
9218,5
9219,5
9220,5
9221,5
9222,4
9223,4
9224,5
9225,4
9226,5
9227,4
9228,4
9229,4
9230,5
9231,5
9232,5
9233,4
9234,4
9235,5
9236,4
9237,5
9238,4
9239,5
9240,5
9241,4
9242,5
9243,5
9244,4
9245,5
9246,4
9247,5
9248,4
9249,5
9250,5
9251,4
9252,5
9253,5
9254,5
9255,4
9256,5
9257,5
9258,5
9259,5
9260,4
9261,5
9262,5
9263,5
9264,5
9265,4
9266,5
9267,5
9268,4
9269,4
9270,4
9271,5
9272,4
9273,4
9274,5
9275,4
9276,4
9277,5
9278,4
9279,4
9280,5
9281,4
9282,5
9283,4
9284,5
9285,4
9286,5
9287,4
9288,4
9289,5
9290,4
9291,4
9292,4
9293,4
9294,5
9295,4
9296,4
9297,5
9298,5
9299,4
9300,4
9301,4
9302,4
9303,4
9304,5
9305,4
9306,5
9307,4
9308,5
9309,4
9310,5
9311,4
9312,5
9313,5
9314,5
9315,4
9316,4
9317,5
9318,5
9319,4
9320,5
9321,4
9322,5
9323,5
9324,5
9325,5
9326,6
9327,5
9328,5
9329,4
9330,5
9331,5
9332,5
9333,5
9334,5
9335,5
9336,5
9337,5
9338,5
9339,4
9340,5
9341,5
9342,5
9343,5
9344,5
9345,5
9346,5
9347,5
9348,5
9349,5
9350,5
9351,5
9352,5
9353,4
9354,6
9355,5
9356,5
9357,5
9358,5
9359,5
9360,5
9361,5
9362,5
9363,5
9364,4
9365,5
9366,5
9367,5
9368,4
9369,5
9370,5
9371,4
9372,4
9373,5
9374,5
9375,5
9376,5
9377,5
9378,5
9379,5
9380,5
9381,5
9382,5
9383,4
9384,5
9385,4
9386,6
9387,5
9388,4
9389,6
9390,6
9391,4
9392,4
9393,5
9394,5
9395,4
9396,5
9397,4
9398,5
9399,4
9400,5
9401,4
9402,6
9403,5
9404,5
9405,4
9406,5
9407,5
9408,5
9409,5
9410,5
9411,5
9412,5
9413,4
9414,4
9415,4
9416,4
9417,4
9418,4
9419,4
9420,4
9421,4
9422,4
9423,4
9424,4
9425,5
9426,4
9427,5
9428,5
9429,5
9430,4
9431,4
9432,5
9433,5
9434,5
9435,4
9436,4
9437,4
9438,5
9439,5
9440,5
9441,5
9442,5
9443,5
9444,5
9445,5
9446,5
9447,5
9448,5
9449,5
9450,4
9451,5
9452,5
9453,5
9454,5
9455,5
9456,5
9457,5
9458,4
9459,5
9460,4
9461,4
9462,5
9463,5
9464,5
9465,5
9466,4
9467,5
9468,4
9469,5
9470,6
9471,5
9472,5
9473,5
9474,4
9475,4
9476,4
9477,4
9478,4
9479,4
9480,4
9481,4
9482,4
9483,4
9484,4
9485,4
9486,4
9487,4
9488,4
9489,4
9490,4
9491,4
9492,4
9493,4
9494,4
9495,4
9496,4
9497,4
9498,4
9499,4
9500,4
9501,4
9502,4
9503,4
9504,4
9505,4
9506,4
9507,4
9508,4
9509,4
9510,4
9511,5
9512,5
9513,6
9514,5
9515,6
9516,5
9517,5
9518,5
9519,5
9520,5
9521,5
9522,5
9523,4
9524,5
9525,5
9526,5
9527,5
9528,5
9529,5
9530,5
9531,5
9532,5
9533,5
9534,5
9535,5
9536,5
9537,5
9538,5
9539,5
9540,5
9541,5
9542,5
9543,5
9544,5
9545,5
9546,5
9547,5
9548,5
9549,5
9550,5
9551,5
9552,5
9553,5
9554,5
9555,5
9556,5
9557,5
9558,5
9559,5
9560,5
9561,5
9562,4
9563,5
9564,5
9565,5
9566,5
9567,5
9568,5
9569,5
9570,5
9571,6
9572,6
9573,5
9574,5
9575,5
9576,4
9577,4
9578,4
9579,4
9580,4
9581,5
9582,4
9583,4
9584,5
9585,5
9586,6
9587,5
9588,5
9589,6
9590,5
9591,5
9592,5
9593,5
9594,5
9595,5
9596,4
9597,5
9598,5
9599,5
9600,5
9601,4
9602,5
9603,5
9604,5
9605,5
9606,4
9607,4
9608,5
9609,3
9610,5
9611,4
9612,5
9613,5
9614,5
9615,5
9616,5
9617,5
9618,5
9619,5
9620,5
9621,5
9622,5
9623,5
9624,5
9625,4
9626,3
9627,5
9628,5
9629,5
9630,5
9631,5
9632,5
9633,5
9634,5
9635,5
9636,4
9637,5
9638,5
9639,5
9640,5
9641,5
9642,5
9643,5
9644,5
9645,5
9646,5
9647,5
9648,5
9649,5
9650,5
9651,5
9652,5
9653,6
9654,4
9655,5
9656,5
9657,5
9658,4
9659,4
9660,5
9661,5
9662,5
9663,5
9664,5
9665,5
9666,4
9667,4
9668,4
9669,4
9670,4
9671,4
9672,4
9673,4
9674,4
9675,4
9676,4
9677,4
9678,4
9679,4
9680,4
9681,4
9682,4
9683,4
9684,4
9685,4
9686,4
9687,4
9688,4
9689,4
9690,4
9691,4
9692,4
9693,4
9694,4
9695,4
9696,4
9697,4
9698,4
9699,4
9700,4
9701,4
9702,4
9703,5
9704,5
9705,4
9706,4
9707,5
9708,5
9709,5
9710,5
9711,4
9712,4
9713,5
9714,6
9715,5
9716,5
9717,5
9718,5
9719,4
9720,6
9721,5
9722,6
9723,4
9724,4
9725,5
9726,6
9727,5
9728,6
9729,4
9730,5
9731,4
9732,5
9733,4
9734,5
9735,6
9736,5
9737,5
9738,5
9739,4
9740,4
9741,5
9742,0
9743,4
9744,5
9745,5
9746,5
9747,5
9748,5
9749,5
9750,4
9751,5
9752,4
9753,5
9754,5
9755,5
9756,5
9757,5
9758,5
9759,4
9760,5
9761,5
9762,5
9763,5
9764,5
9765,6
9766,5
9767,5
9768,5
9769,4
9770,5
9771,5
9772,6
9773,5
9774,5
9775,5
9776,5
9777,5
9778,5
9779,5
9780,4
9781,5
9782,4
9783,0
9784,4
9785,5
9786,5
9787,5
9788,4
9789,5
9790,6
9791,5
9792,5
9793,4
9794,4
9795,5
9796,5
9797,4
9798,5
9799,5
9800,5
9801,5
9802,4
9803,5
9804,5
9805,5
9806,5
9807,5
9808,5
9809,4
9810,6
9811,5
9812,5
9813,5
9814,5
9815,6
9816,5
9817,4
9818,5
9819,5
9820,5
9821,4
9822,5
9823,5
9824,4
9825,0
9826,5
9827,0
9828,4
9829,4
9830,5
9831,4
9832,5
9833,4
9834,5
9835,5
9836,0
9837,5
9838,5
9839,5
9840,5
9841,5
9842,5
9843,5
9844,5
9845,5
9846,5
9847,5
9848,5
9849,5
9850,5
9851,5
9852,5
9853,5
9854,5
9855,5
9856,5
9857,5
9858,5
9859,5
9860,5
9861,5
9862,5
9863,5
9864,5
9865,5
9866,5
9867,5
9868,5
9869,5
9870,5
9871,5
9872,5
9873,5
9874,5
9875,5
9876,5
9877,5
9878,5
9879,5
9880,0
9881,5
9882,5
9883,5
9884,0
9885,0
9886,5
9887,4
9888,4
9889,5
9890,5
9891,5
9892,5
9893,5
9894,6
9895,6
9896,5
9897,4
9898,4
9899,5
9900,6
9901,4
9902,4
9903,4
9904,4
9905,5
9906,4
9907,5
9908,4
9909,5
9910,6
9911,5
9912,5
9913,5
9914,5
9915,5
9916,5
9917,5
9918,5
9919,5
9920,4
9921,4
9922,5
9923,5
9924,4
9925,5
9926,4
9927,5
9928,4
9929,4
9930,5
9931,4
9932,5
9933,6
9934,5
9935,5
9936,5
9937,4
9938,5
9939,4
9940,5
9941,5
9942,5
9943,5
9944,5
9945,5
9946,4
9947,5
9948,5
9949,5
9950,4
9951,5
9952,4
9953,5
9954,5
9955,4
9956,6
9957,4
9958,6
9959,4
9960,6
9961,5
9962,4
9963,6
9964,5
9965,4
9966,5
9967,5
9968,5
9969,5
9970,5
9971,5
9972,6
9973,5
9974,4
9975,6
9976,5
9977,4
9978,4
9979,5
9980,4
9981,5
9982,5
9983,0
9984,5
9985,5
9986,5
9987,5
9988,5
9989,5
9990,5
9991,6
9992,5
9993,5
9994,5
9995,4
9996,5
9997,4
9998,5
9999,5
10000,5
10001,5
10002,5
10003,5
10004,5
10005,5
10006,5
10007,5
10008,5
10009,4
10010,0
10011,4
10012,4
10013,4
10014,5
10015,5
10016,4
10017,5
10018,5
10019,5
10020,5
10021,4
10022,4
10023,5
10024,4
10025,5
10026,5
10027,5
10028,4
10029,4
10030,4
10031,5
10032,0
10033,4
10034,5
10035,5
10036,5
10037,5
10038,5
10039,5
10040,5
10041,5
10042,5
10043,5
10044,5
10045,6
10046,4
10047,5
10048,5
10049,4
10050,6
10051,5
10052,3
10053,5
10054,5
10055,5
10056,5
10057,5
10058,5
10059,5
10060,5
10061,4
10062,5
10063,4
10064,5
10065,4
10066,5
10067,5
10068,5
10069,5
10070,5
10071,5
10072,5
10073,5
10074,5
10075,5
10076,5
10077,5
10078,5
10079,6
10080,5
10081,5
10082,5
10083,5
10084,5
10085,5
10086,5
10087,5
10088,5
10089,3
10090,5
10091,5
10092,5
10093,6
10094,5
10095,5
10096,5
10097,5
10098,4
10099,5
10100,5
10101,5
10102,4
10103,5
10104,5
10105,4
10106,4
10107,5
10108,5
10109,4
10110,4
10111,5
10112,4
10113,5
10114,5
10115,6
10116,6
10117,5
10118,5
10119,5
10120,6
10121,6
10122,5
10123,5
10124,5
10125,6
10126,5
10127,5
10128,5
10129,4
10130,4
10131,4
10132,5
10133,6
10134,5
10135,5
10136,6
10137,5
10138,5
10139,5
10140,4
10141,5
10142,4
10143,5
10144,5
10145,5
10146,5
10147,5
10148,5
10149,5
10150,4
10151,5
10152,5
10153,5
10154,5
10155,5
10156,4
10157,4
10158,5
10159,5
10160,4
10161,5
10162,5
10163,5
10164,5
10165,5
10166,6
10167,4
10168,5
10169,5
10170,6
10171,4
10172,5
10173,5
10174,6
10175,5
10176,4
10177,4
10178,5
10179,5
10180,5
10181,6
10182,5
10183,0
10184,5
10185,0
10186,4
10187,2
10188,5
10189,4
10190,5
10191,5
10192,5
10193,5
10194,5
10195,5
10196,5
10197,5
10198,5
10199,4
10200,5
10201,5
10202,5
10203,5
10204,5
10205,5
10206,5
10207,5
10208,5
10209,5
10210,5
10211,4
10212,4
10213,5
10214,5
10215,5
10216,6
10217,5
10218,5
10219,0
10220,0
10221,0
10222,0
10223,5
10224,5
10225,4
10226,6
10227,5
10228,6
10229,5
10230,5
10231,7
10232,5
10233,5
10234,5
10235,5
10236,5
10237,4
10238,5
10239,5
10240,6
10241,6
10242,6
10243,5
10244,5
10245,0
10246,0
10247,0
10248,5
10249,0
10250,0
10251,0
10252,0
10253,0
10254,0
10255,0
10256,0
10257,0
10258,0
10259,0
10260,5
10261,0
10262,0
10263,0
10264,0
10265,0
10266,0
10267,0
10268,4
10269,5
10270,5
10271,0
10272,0
10273,0
10274,0
10275,0
10276,0
10277,0
10278,0
10279,0
10280,0
10281,0
10282,0
10283,0
10284,0
10285,0
10286,5
10287,5
10288,6
10289,5
10290,5
10291,5
10292,5
10293,4
10294,4
10295,4
10296,4
10297,5
10298,4
10299,5
10300,5
10301,5
10302,5
10303,4
10304,5
10305,5
10306,5
10307,5
10308,5
10309,5
10310,4
10311,5
10312,5
10313,5
10314,4
10315,5
10316,5
10317,4
10318,5
10319,5
10320,5
10321,4
10322,4
10323,5
10324,5
10325,5
10326,5
10327,6
10328,6
10329,5
10330,5
10331,6
10332,4
10333,4
10334,4
10335,6
10336,5
10337,6
10338,4
10339,6
10340,4
10341,4
10342,5
10343,5
10344,5
10345,6
10346,5
10347,5
10348,5
10349,5
10350,5
10351,5
10352,5
10353,5
10354,1
10355,5
10356,4
10357,4
10358,4
10359,5
10360,5
10361,4
10362,5
10363,4
10364,4
10365,5
10366,5
10367,6
10368,5
10369,5
10370,5
10371,5
10372,4
10373,0
10374,5
10375,4
10376,5
10377,5
10378,5
10379,4
10380,5
10381,5
10382,4
10383,5
10384,5
10385,5
10386,5
10387,5
10388,5
10389,5
10390,5
10391,6
10392,6
10393,4
10394,4
10395,5
10396,6
10397,5
10398,5
10399,5
10400,4
10401,6
10402,5
10403,5
10404,0
10405,0
10406,0
10407,0
10408,0
10409,0
10410,0
10411,5
10412,5
10413,4
10414,4
10415,5
10416,5
10417,5
10418,5
10419,5
10420,6
10421,5
10422,6
10423,5
10424,5
10425,5
10426,5
10427,5
10428,5
10429,4
10430,4
10431,5
10432,5
10433,6
10434,5
10435,5
10436,5
10437,4
10438,5
10439,4
10440,4
10441,4
10442,5
10443,5
10444,5
10445,5
10446,5
10447,5
10448,5
10449,5
10450,5
10451,5
10452,5
10453,5
10454,5
10455,5
10456,4
10457,5
10458,4
10459,4
10460,5
10461,5
10462,5
10463,6
10464,5
10465,6
10466,5
10467,4
10468,6
10469,5
10470,5
10471,5
10472,5
10473,5
10474,5
10475,5
10476,5
10477,5
10478,5
10479,5
10480,5
10481,4
10482,5
10483,5
10484,5
10485,5
10486,5
10487,5
10488,5
10489,5
10490,5
10491,5
10492,5
10493,5
10494,5
10495,6
10496,5
10497,5
10498,4
10499,6
10500,5
10501,5
10502,6
10503,4
10504,5
10505,5
10506,4
10507,5
10508,5
10509,5
10510,4
10511,6
10512,5
10513,4
10514,5
10515,5
10516,5
10517,5
10518,5
10519,5
10520,5
10521,5
10522,5
10523,5
10524,5
10525,4
10526,4
10527,5
10528,4
10529,6
10530,5
10531,6
10532,4
10533,5
10534,4
10535,5
10536,5
10537,6
10538,5
10539,5
10540,6
10541,4
10542,5
10543,5
10544,5
10545,6
10546,5
10547,4
10548,5
10549,4
10550,0
10551,0
10552,0
10553,0
10554,0
10555,0
10556,0
10557,0
10558,0
10559,0
10560,0
10561,5
10562,0
10563,0
10564,0
10565,0
10566,0
10567,0
10568,0
10569,0
10570,0
10571,5
10572,4
10573,6
10574,5
10575,5
10576,4
10577,5
10578,5
10579,5
10580,4
10581,4
10582,5
10583,5
10584,4
10585,6
10586,5
10587,5
10588,4
10589,5
10590,6
10591,4
10592,6
10593,5
10594,6
10595,5
10596,5
10597,5
10598,4
10599,4
10600,5
10601,5
10602,6
10603,5
10604,4
10605,5
10606,4
10607,4
10608,5
10609,5
10610,0
10611,6
10612,5
10613,6
10614,6
10615,5
10616,5
10617,5
10618,5
10619,5
10620,4
10621,4
10622,5
10623,0
10624,5
10625,5
10626,4
10627,4
10628,5
10629,3
10630,5
10631,4
10632,5
10633,6
10634,4
10635,5
10636,0
10637,6
10638,5
10639,5
10640,5
10641,5
10642,5
10643,5
10644,5
10645,0
10646,5
10647,0
10648,5
10649,0
10650,5
10651,4
10652,5
10653,5
10654,4
10655,5
10656,4
10657,4
10658,0
10659,4
10660,5
10661,5
10662,5
10663,5
10664,4
10665,5
10666,4
10667,4
10668,4
10669,5
10670,6
10671,6
10672,5
10673,4
10674,5
10675,5
10676,5
10677,4
10678,4
10679,5
10680,6
10681,5
10682,6
10683,5
10684,5
10685,4
10686,5
10687,5
10688,5
10689,5
10690,5
10691,6
10692,5
10693,5
10694,5
10695,5
10696,5
10697,5
10698,5
10699,4
10700,5
10701,5
10702,5
10703,4
10704,5
10705,4
10706,4
10707,5
10708,6
10709,5
10710,5
10711,4
10712,5
10713,4
10714,4
10715,4
10716,4
10717,4
10718,5
10719,5
10720,5
10721,5
10722,4
10723,5
10724,4
10725,4
10726,5
10727,5
10728,5
10729,5
10730,3
10731,5
10732,5
10733,5
10734,5
10735,5
10736,5
10737,5
10738,5
10739,5
10740,5
10741,6
10742,4
10743,5
10744,5
10745,5
10746,5
10747,5
10748,4
10749,6
10750,5
10751,5
10752,5
10753,5
10754,5
10755,5
10756,5
10757,5
10758,5
10759,5
10760,5
10761,5
10762,5
10763,5
10764,5
10765,5
10766,5
10767,5
10768,5
10769,6
10770,5
10771,6
10772,5
10773,5
10774,5
10775,5
10776,5
10777,5
10778,5
10779,5
10780,5
10781,5
10782,5
10783,5
10784,6
10785,6
10786,5
10787,5
10788,5
10789,0
10790,5
10791,5
10792,5
10793,4
10794,5
10795,5
10796,4
10797,5
10798,5
10799,5
10800,6
10801,5
10802,5
10803,5
10804,5
10805,5
10806,5
10807,5
10808,4
10809,5
10810,5
10811,5
10812,5
10813,5
10814,5
10815,5
10816,5
10817,5
10818,5
10819,5
10820,5
10821,5
10822,5
10823,4
10824,5
10825,5
10826,5
10827,5
10828,5
10829,5
10830,4
10831,4
10832,4
10833,5
10834,5
10835,5
10836,5
10837,5
10838,5
10839,5
10840,4
10841,5
10842,5
10843,5
10844,5
10845,5
10846,5
10847,4
10848,5
10849,4
10850,5
10851,5
10852,4
10853,5
10854,4
10855,4
10856,5
10857,5
10858,4
10859,5
10860,5
10861,5
10862,5
10863,5
10864,7
10865,6
10866,5
10867,5
10868,4
10869,5
10870,4
10871,4
10872,5
10873,6
10874,5
10875,5
10876,4
10877,6
10878,4
10879,5
10880,5
10881,5
10882,5
10883,4
10884,5
10885,5
10886,5
10887,5
10888,4
10889,6
10890,4
10891,5
10892,5
10893,5
10894,0
10895,0
10896,5
10897,5
10898,5
10899,4
10900,5
10901,5
10902,5
10903,5
10904,5
10905,5
10906,5
10907,5
10908,4
10909,5
10910,0
10911,4
10912,6
10913,0
10914,5
10915,5
10916,5
10917,4
10918,0
10919,4
10920,5
10921,4
10922,5
10923,6
10924,5
10925,5
10926,5
10927,6
10928,5
10929,5
10930,5
10931,5
10932,5
10933,6
10934,4
10935,5
10936,5
10937,5
10938,5
10939,5
10940,5
10941,5
10942,5
10943,5
10944,5
10945,5
10946,5
10947,5
10948,5
10949,4
10950,5
10951,5
10952,5
10953,5
10954,5
10955,5
10956,5
10957,5
10958,5
10959,5
10960,5
10961,6
10962,5
10963,5
10964,5
10965,5
10966,5
10967,5
10968,5
10969,5
10970,5
10971,4
10972,5
10973,4
10974,5
10975,5
10976,4
10977,4
10978,5
10979,5
10980,4
10981,5
10982,5
10983,5
10984,5
10985,5
10986,5
10987,5
10988,5
10989,0
10990,5
10991,5
10992,5
10993,5
10994,5
10995,5
10996,5
10997,4
10998,4
10999,5
11000,5
11001,4
11002,4
11003,4
11004,5
11005,5
11006,5
11007,0
11008,6
11009,5
11010,4
11011,5
11012,5
11013,4
11014,6
11015,5
11016,4
11017,5
11018,5
11019,4
11020,4
11021,5
11022,4
11023,5
11024,4
11025,4
11026,4
11027,5
11028,5
11029,4
11030,5
11031,4
11032,4
11033,5
11034,5
11035,5
11036,5
11037,5
11038,6
11039,4
11040,4
11041,5
11042,5
11043,5
11044,6
11045,5
11046,5
11047,4
11048,6
11049,5
11050,6
11051,6
11052,4
11053,5
11054,6
11055,6
11056,6
11057,6
11058,6
11059,6
11060,6
11061,6
11062,6
11063,5
11064,6
11065,6
11066,6
11067,6
11068,6
11069,6
11070,6
11071,6
11072,6
11073,6
11074,6
11075,6
11076,6
11077,6
11078,6
11079,4
11080,6
11081,5
11082,6
11083,6
11084,6
11085,6
11086,6
11087,6
11088,6
11089,5
11090,4
11091,6
11092,6
11093,5
11094,5
11095,6
11096,4
11097,6
11098,6
11099,4
11100,5
11101,5
11102,4
11103,6
11104,5
11105,5
11106,6
11107,5
11108,5
11109,4
11110,6
11111,5
11112,5
11113,5
11114,5
11115,5
11116,5
11117,5
11118,5
11119,5
11120,5
11121,5
11122,5
11123,5
11124,5
11125,5
11126,5
11127,5
11128,5
11129,5
11130,5
11131,5
11132,5
11133,5
11134,5
11135,5
11136,5
11137,5
11138,5
11139,5
11140,5
11141,5
11142,5
11143,5
11144,5
11145,5
11146,5
11147,5
11148,5
11149,5
11150,5
11151,5
11152,5
11153,5
11154,5
11155,5
11156,5
11157,5
11158,5
11159,5
11160,5
11161,5
11162,5
11163,5
11164,5
11165,5
11166,5
11167,5
11168,5
11169,5
11170,5
11171,5
11172,5
11173,5
11174,5
11175,5
11176,5
11177,5
11178,5
11179,5
11180,5
11181,5
11182,5
11183,5
11184,5
11185,5
11186,5
11187,5
11188,5
11189,5
11190,5
11191,5
11192,5
11193,5
11194,5
11195,5
11196,5
11197,5
11198,5
11199,5
11200,5
11201,5
11202,5
11203,5
11204,5
11205,5
11206,5
11207,5
11208,5
11209,5
11210,5
11211,5
11212,5
11213,5
11214,5
11215,5
11216,5
11217,5
11218,5
11219,5
11220,5
11221,5
11222,5
11223,5
11224,5
11225,5
11226,5
11227,4
11228,5
11229,5
11230,5
11231,5
11232,5
11233,5
11234,5
11235,5
11236,5
11237,5
11238,5
11239,5
11240,5
11241,5
11242,5
11243,5
11244,5
11245,4
11246,5
11247,5
11248,5
11249,5
11250,5
11251,5
11252,5
11253,5
11254,5
11255,5
11256,5
11257,5
11258,5
11259,5
11260,5
11261,5
11262,5
11263,5
11264,5
11265,5
11266,5
11267,5
11268,5
11269,5
11270,5
11271,5
11272,5
11273,5
11274,5
11275,5
11276,5
11277,5
11278,5
11279,5
11280,5
11281,5
11282,5
11283,5
11284,5
11285,5
11286,5
11287,5
11288,5
11289,5
11290,5
11291,5
11292,5
11293,5
11294,5
11295,5
11296,5
11297,5
11298,5
11299,5
11300,5
11301,5
11302,5
11303,5
11304,5
11305,5
11306,5
11307,5
11308,5
11309,5
11310,5
11311,5
11312,5
11313,5
11314,5
11315,5
11316,5
11317,5
11318,5
11319,5
11320,5
11321,5
11322,5
11323,5
11324,5
11325,5
11326,5
11327,5
11328,5
11329,5
11330,5
11331,5
11332,5
11333,5
11334,5
11335,5
11336,5
11337,5
11338,5
11339,5
11340,5
11341,5
11342,5
11343,5
11344,5
11345,5
11346,5
11347,5
11348,5
11349,5
11350,5
11351,5
11352,5
11353,5
11354,5
11355,4
11356,4
11357,5
11358,5
11359,5
11360,6
11361,5
11362,5
11363,5
11364,5
11365,5
11366,4
11367,5
11368,5
11369,4
11370,5
11371,5
11372,0
11373,5
11374,6
11375,5
11376,5
11377,5
11378,4
11379,5
11380,4
11381,5
11382,5
11383,5
11384,5
11385,5
11386,5
11387,5
11388,5
11389,5
11390,5
11391,5
11392,5
11393,5
11394,5
11395,5
11396,5
11397,5
11398,5
11399,5
11400,5
11401,5
11402,5
11403,5
11404,5
11405,5
11406,5
11407,5
11408,5
11409,5
11410,5
11411,5
11412,5
11413,5
11414,5
11415,5
11416,5
11417,5
11418,5
11419,5
11420,5
11421,5
11422,5
11423,5
11424,5
11425,5
11426,5
11427,5
11428,5
11429,5
11430,5
11431,5
11432,5
11433,5
11434,5
11435,5
11436,5
11437,5
11438,5
11439,5
11440,5
11441,5
11442,5
11443,5
11444,5
11445,5
11446,5
11447,5
11448,5
11449,5
11450,5
11451,5
11452,5
11453,5
11454,5
11455,5
11456,5
11457,5
11458,5
11459,5
11460,5
11461,5
11462,5
11463,5
11464,5
11465,5
11466,5
11467,5
11468,5
11469,5
11470,5
11471,5
11472,5
11473,5
11474,5
11475,5
11476,5
11477,5
11478,5
11479,5
11480,5
11481,5
11482,5
11483,5
11484,5
11485,5
11486,5
11487,5
11488,5
11489,5
11490,5
11491,5
11492,5
11493,5
11494,5
11495,5
11496,5
11497,5
11498,5
11499,5
11500,5
11501,5
11502,5
11503,5
11504,5
11505,5
11506,5
11507,5
11508,5
11509,5
11510,5
11511,5
11512,5
11513,5
11514,5
11515,5
11516,5
11517,5
11518,5
11519,5
11520,5
11521,5
11522,5
11523,5
11524,5
11525,5
11526,5
11527,5
11528,5
11529,5
11530,5
11531,5
11532,5
11533,5
11534,5
11535,5
11536,5
11537,5
11538,5
11539,5
11540,5
11541,5
11542,5
11543,5
11544,5
11545,5
11546,5
11547,5
11548,5
11549,5
11550,5
11551,5
11552,5
11553,5
11554,5
11555,5
11556,5
11557,5
11558,5
11559,5
11560,5
11561,5
11562,5
11563,5
11564,5
11565,5
11566,5
11567,5
11568,5
11569,5
11570,5
11571,5
11572,5
11573,5
11574,5
11575,5
11576,5
11577,5
11578,5
11579,5
11580,5
11581,5
11582,5
11583,5
11584,5
11585,5
11586,5
11587,5
11588,5
11589,5
11590,5
11591,5
11592,5
11593,5
11594,5
11595,5
11596,5
11597,5
11598,5
11599,5
11600,5
11601,4
11602,5
11603,6
11604,6
11605,4
11606,6
11607,6
11608,4
11609,6
11610,5
11611,5
11612,6
11613,5
11614,5
11615,5
11616,4
11617,4
11618,4
11619,6
11620,5
11621,5
11622,5
11623,5
11624,5
11625,5
11626,5
11627,5
11628,5
11629,5
11630,6
11631,5
11632,4
11633,5
11634,5
11635,5
11636,5
11637,9
11638,9
11639,9
11640,9
11641,9
11642,9
11643,9
11644,9
11645,9
11646,9
11647,9
11648,9
11649,9
11650,9
11651,9
11652,9
11653,9
11654,9
11655,9
11656,9
11657,9
11658,9
11659,9
11660,9
11661,9
11662,9
11663,9
11664,9
11665,9
11666,9
11667,9
11668,9
11669,9
11670,9
11671,9
11672,9
11673,9
11674,9
11675,9
11676,9
11677,9
11678,9
11679,9
11680,9
11681,9
11682,9
11683,9
11684,9
11685,9
11686,9
11687,9
11688,9
11689,9
11690,9
11691,9
11692,9
11693,9
11694,9
11695,9
11696,9
11697,9
11698,9
11699,9
11700,9
11701,9
11702,9
11703,9
11704,9
11705,9
11706,9
11707,9
11708,9
11709,9
11710,9
11711,9
11712,9
11713,9
11714,9
11715,9
11716,9
11717,9
11718,9
11719,9
11720,9
11721,9
11722,9
11723,9
11724,9
11725,9
11726,9
11727,9
11728,9
11729,9
11730,9
11731,9
11732,9
11733,9
11734,9
11735,9
11736,9
11737,9
11738,9
11739,9
11740,9
11741,9
11742,9
11743,9
11744,9
11745,9
11746,9
11747,9
11748,9
11749,9
11750,9
11751,9
11752,9
11753,9
11754,9
11755,9
11756,9
11757,9
11758,9
11759,9
11760,9
11761,9
11762,9
11763,9
11764,9
11765,9
11766,9
11767,9
11768,9
11769,9
11770,9
11771,9
11772,5
11773,5
11774,9
11775,9
11776,9
11777,9
11778,9
11779,9
11780,9
11781,9
11782,9
11783,9
11784,9
11785,9
11786,9
11787,9
11788,9
11789,9
11790,9
11791,9
11792,9
11793,9
11794,9
11795,9
11796,9
11797,9
11798,9
11799,9
11800,9
11801,9
11802,9
11803,9
11804,9
11805,9
11806,9
11807,9
11808,9
11809,9
11810,9
11811,9
11812,9
11813,9
11814,9
11815,9
11816,9
11817,9
11818,9
11819,9
11820,9
11821,9
11822,9
11823,9
11824,9
11825,9
11826,9
11827,9
11828,9
11829,9
11830,9
11831,9
11832,9
11833,9
11834,9
11835,9
11836,9
11837,9
11838,9
11839,9
11840,9
11841,8
11842,9
11843,9
11844,9
11845,9
11846,9
11847,9
11848,9
11849,9
11850,9
11851,9
11852,9
11853,9
11854,9
11855,9
11856,9
11857,9
11858,9
11859,9
11860,9
11861,9
11862,9
11863,9
11864,9
11865,9
11866,9
11867,9
11868,9
11869,9
11870,9
11871,9
11872,9
11873,9
11874,9
11875,9
11876,9
11877,9
11878,9
11879,9
11880,9
11881,9
11882,9
11883,9
11884,9
11885,9
11886,9
11887,9
11888,9
11889,9
11890,9
11891,9
11892,9
11893,9
11894,9
11895,9
11896,9
11897,9
11898,9
11899,9
11900,9
11901,9
11902,9
11903,9
11904,9
11905,9
11906,9
11907,9
11908,9
11909,9
11910,9
11911,9
11912,9
11913,9
11914,9
11915,9
11916,9
11917,9
11918,9
11919,9
11920,9
11921,9
11922,9
11923,9
11924,9
11925,9
11926,9
11927,9
11928,9
11929,9
11930,9
11931,9
11932,9
11933,9
11934,9
11935,9
11936,9
11937,9
11938,9
11939,9
11940,9
11941,9
11942,9
11943,9
11944,9
11945,9
11946,9
11947,9
11948,9
11949,9
11950,9
11951,9
11952,9
11953,9
11954,9
11955,9
11956,9
11957,9
11958,9
11959,9
11960,9
11961,9
11962,9
11963,9
11964,9
11965,9
11966,9
11967,9
11968,9
11969,9
11970,9
11971,9
11972,9
11973,9
11974,9
11975,9
11976,9
11977,9
11978,9
11979,9
11980,9
11981,9
11982,9
11983,9
11984,8
11985,9
11986,9
11987,9
11988,9
11989,9
11990,9
11991,9
11992,9
11993,9
11994,9
11995,9
11996,9
11997,9
11998,9
11999,9
12000,9
12001,9
12002,9
12003,9
12004,9
12005,9
12006,9
12007,9
12008,9
12009,9
12010,9
12011,9
12012,9
12013,9
12014,9
12015,9
12016,9
12017,9
12018,9
12019,9
12020,9
12021,9
12022,9
12023,9
12024,9
12025,9
12026,9
12027,9
12028,9
12029,9
12030,9
12031,9
12032,9
12033,9
12034,9
12035,9
12036,9
12037,9
12038,9
12039,9
12040,9
12041,9
12042,9
12043,9
12044,9
12045,9
12046,9
12047,9
12048,9
12049,9
12050,9
12051,9
12052,9
12053,9
12054,9
12055,9
12056,9
12057,9
12058,9
12059,9
12060,9
12061,9
12062,9
12063,9
12064,9
12065,9
12066,9
12067,9
12068,9
12069,9
12070,9
12071,9
12072,9
12073,9
12074,9
12075,9
12076,9
12077,9
12078,9
12079,9
12080,9
12081,9
12082,9
12083,9
12084,9
12085,9
12086,9
12087,9
12088,9
12089,9
12090,9
12091,9
12092,9
12093,9
12094,9
12095,9
12096,9
12097,9
12098,9
12099,9
12100,9
12101,9
12102,9
12103,9
12104,9
12105,9
12106,9
12107,9
12108,9
12109,9
12110,9
12111,9
12112,9
12113,9
12114,9
12115,9
12116,9
12117,9
12118,9
12119,9
12120,9
12121,9
12122,9
12123,9
12124,9
12125,9
12126,9
12127,9
12128,9
12129,9
12130,9
12131,9
12132,9
12133,9
12134,9
12135,9
12136,9
12137,9
12138,9
12139,9
12140,9
12141,9
12142,9
12143,9
12144,9
12145,9
12146,9
12147,9
12148,9
12149,9
12150,9
12151,9
12152,9
12153,9
12154,9
12155,9
12156,9
12157,9
12158,9
12159,9
12160,9
12161,9
12162,9
12163,9
12164,9
12165,9
12166,9
12167,9
12168,9
12169,9
12170,9
12171,9
12172,9
12173,9
12174,9
12175,9
12176,9
12177,9
12178,9
12179,9
12180,9
12181,9
12182,9
12183,9
12184,9
12185,9
12186,9
12187,9
12188,9
12189,9
12190,9
12191,9
12192,9
12193,9
12194,9
12195,9
12196,9
12197,9
12198,9
12199,9
12200,9
12201,9
12202,9
12203,9
12204,9
12205,9
12206,9
12207,9
12208,9
12209,9
12210,9
12211,9
12212,9
12213,9
12214,9
12215,9
12216,9
12217,9
12218,9
12219,9
12220,9
12221,9
12222,9
12223,9
12224,9
12225,9
12226,9
12227,9
12228,9
12229,9
12230,9
12231,9
12232,9
12233,9
12234,9
12235,9
12236,9
12237,9
12238,9
12239,9
12240,9
12241,9
12242,9
12243,9
12244,9
12245,9
12246,9
12247,9
12248,9
12249,9
12250,9
12251,9
12252,9
12253,9
12254,9
12255,9
12256,9
12257,9
12258,9
12259,9
12260,9
12261,9
12262,9
12263,9
12264,9
12265,9
12266,9
12267,9
12268,9
12269,9
12270,9
12271,9
12272,9
12273,9
12274,9
12275,9
12276,9
12277,9
12278,9
12279,9
12280,9
12281,9
12282,9
12283,9
12284,9
12285,9
12286,9
12287,9
12288,9
12289,9
12290,9
12291,9
12292,9
12293,9
12294,9
12295,9
12296,9
12297,9
12298,9
12299,9
12300,9
12301,9
12302,9
12303,9
12304,9
12305,9
12306,9
12307,9
12308,9
12309,9
12310,9
12311,9
12312,9
12313,9
12314,9
12315,9
12316,9
12317,9
12318,9
12319,9
12320,9
12321,9
12322,9
12323,8
12324,9
12325,9
12326,9
12327,9
12328,9
12329,9
12330,9
12331,9
12332,9
12333,9
12334,9
12335,9
12336,9
12337,9
12338,9
12339,9
12340,9
12341,9
12342,9
12343,9
12344,9
12345,9
12346,9
12347,9
12348,9
12349,9
12350,5
12351,9
12352,9
12353,9
12354,9
12355,9
12356,5
12357,5
12358,9
12359,5
12360,5
12361,9
12362,5
12363,9
12364,9
12365,9
12366,9
12367,9
12368,9
12369,9
12370,9
12371,9
12372,9
12373,9
12374,9
12375,9
12376,9
12377,9
12378,9
12379,9
12380,9
12381,9
12382,9
12383,9
12384,9
12385,5
12386,4
12387,5
12388,9
12389,5
12390,5
12391,5
12392,9
12393,4
12394,5
12395,9
12396,9
12397,9
12398,9
12399,9
12400,9
12401,9
12402,9
12403,9
12404,9
12405,9
12406,9
12407,9
12408,9
12409,9
12410,9
12411,9
12412,9
12413,9
12414,9
12415,9
12416,9
12417,9
12418,9
12419,9
12420,9
12421,9
12422,9
12423,4
12424,5
12425,4
12426,5
12427,5
12428,6
12429,4
12430,5
12431,9
12432,5
12433,5
12434,9
12435,9
12436,9
12437,9
12438,5
12439,9
12440,9
12441,9
12442,5
12443,9
12444,9
12445,4
12446,4
12447,4
12448,5
12449,5
12450,9
12451,9
12452,4
12453,5
12454,6
12455,5
12456,5
12457,5
12458,5
12459,9
12460,5
12461,4
12462,5
12463,4
12464,9
12465,5
12466,6
12467,5
12468,4
12469,5
12470,5
12471,9
12472,5
12473,5
12474,6
12475,5
12476,5
12477,5
12478,5
12479,5
12480,9
12481,5
12482,4
12483,5
12484,5
12485,4
12486,4
12487,4
12488,4
12489,4
12490,4
12491,4
12492,9
12493,4
12494,4
12495,5
12496,5
12497,5
12498,5
12499,5
12500,5
12501,5
12502,4
12503,5
12504,4
12505,5
12506,4
12507,5
12508,5
12509,9
12510,5
12511,5
12512,9
12513,5
12514,5
12515,4
12516,5
12517,9
12518,9
12519,9
12520,5
12521,4
12522,5
12523,4
12524,4
12525,5
12526,5
12527,9
12528,9
12529,5
12530,5
12531,9
12532,4
12533,5
12534,5
12535,4
12536,5
12537,5
12538,4
12539,9
12540,6
12541,5
12542,5
12543,5
12544,6
12545,5
12546,4
12547,5
12548,5
12549,4
12550,4
12551,5
12552,4
12553,4
12554,5
