%!PS-Adobe-3.0 EPSF-3.0
%%DocumentNeededResources: font Helvetica
%%+ font Helvetica-Bold
%%+ font Helvetica-Oblique
%%+ font Helvetica-BoldOblique
%%+ font Symbol
%%Title: R Graphics Output
%%Creator: R Software
%%Pages: (atend)
%%BoundingBox: 0 0 662 526
%%EndComments
%%BeginProlog
/bp  { gs sRGB gs } def
% begin .ps.prolog
/gs  { gsave } bind def
/gr  { grestore } bind def
/ep  { showpage gr gr } bind def
/m   { moveto } bind def
/l  { rlineto } bind def
/np  { newpath } bind def
/cp  { closepath } bind def
/f   { fill } bind def
/o   { stroke } bind def
/c   { newpath 0 360 arc } bind def
/r   { 4 2 roll moveto 1 copy 3 -1 roll exch 0 exch rlineto 0 rlineto -1 mul 0 exch rlineto closepath } bind def
/p1  { stroke } bind def
/p2  { gsave bg fill grestore newpath } bind def
/p3  { gsave bg fill grestore stroke } bind def
/p6  { gsave bg eofill grestore newpath } bind def
/p7  { gsave bg eofill grestore stroke } bind def
/t   { 5 -2 roll moveto gsave rotate
       1 index stringwidth pop
       mul neg 0 rmoveto show grestore } bind def
/ta  { 4 -2 roll moveto gsave rotate show } bind def
/tb  { 2 -1 roll 0 rmoveto show } bind def
/cl  { grestore gsave newpath 3 index 3 index moveto 1 index
       4 -1 roll lineto  exch 1 index lineto lineto
       closepath clip newpath } bind def
/rgb { setrgbcolor } bind def
/s   { scalefont setfont } bind def
% end   .ps.prolog
/sRGB { [ /CIEBasedABC
          << /DecodeLMN
               [ { dup 0.03928 le
                        {12.92321 div}
                        {0.055 add 1.055 div 2.4 exp }
                     ifelse
                 } bind dup dup
               ]
             /MatrixLMN [0.412457 0.212673 0.019334
                         0.357576 0.715152 0.119192
                         0.180437 0.072175 0.950301]
             /WhitePoint [0.9505 1.0 1.0890]
           >>
         ] setcolorspace } bind def
/srgb { setcolor } bind def
%%IncludeResource: font Helvetica
/Helvetica findfont
dup length dict begin
  {1 index /FID ne {def} {pop pop} ifelse} forall
  /Encoding ISOLatin1Encoding def
  currentdict
  end
/Font1 exch definefont pop
%%IncludeResource: font Helvetica-Bold
/Helvetica-Bold findfont
dup length dict begin
  {1 index /FID ne {def} {pop pop} ifelse} forall
  /Encoding ISOLatin1Encoding def
  currentdict
  end
/Font2 exch definefont pop
%%IncludeResource: font Helvetica-Oblique
/Helvetica-Oblique findfont
dup length dict begin
  {1 index /FID ne {def} {pop pop} ifelse} forall
  /Encoding ISOLatin1Encoding def
  currentdict
  end
/Font3 exch definefont pop
%%IncludeResource: font Helvetica-BoldOblique
/Helvetica-BoldOblique findfont
dup length dict begin
  {1 index /FID ne {def} {pop pop} ifelse} forall
  /Encoding ISOLatin1Encoding def
  currentdict
  end
/Font4 exch definefont pop
%%IncludeResource: font Symbol
/Symbol findfont
dup length dict begin
  {1 index /FID ne {def} {pop pop} ifelse} forall
  currentdict
  end
/Font5 exch definefont pop
%%EndProlog
%%Page: 1 1
bp
0.00 0.00 662.00 526.00 cl
0.00 0.00 662.00 526.00 cl
0.00 0.00 662.00 526.00 cl
/bg { 1 1 1 srgb } def
1 1 1 srgb
1.06 setlinewidth
[] 0 setdash
1 setlinecap
1 setlinejoin
10.00 setmiterlimit
0.00 -0.00 662.00 526.00 r p3
0.00 0.00 662.00 526.00 cl
35.66 276.24 518.35 497.22 cl
/bg { 0.8980 0.8980 0.8980 srgb } def
35.66 276.24 482.68 220.98 r p2
0.9490 0.9490 0.9490 srgb
0.53 setlinewidth
[] 0 setdash
0 setlinecap
1 setlinejoin
10.00 setmiterlimit
np
35.66 306.37 m
482.69 0 l
o
np
35.66 346.55 m
482.69 0 l
o
np
35.66 386.73 m
482.69 0 l
o
np
35.66 426.91 m
482.69 0 l
o
np
35.66 467.09 m
482.69 0 l
o
np
57.60 276.24 m
0 220.98 l
o
np
203.87 276.24 m
0 220.98 l
o
np
350.14 276.24 m
0 220.98 l
o
np
496.41 276.24 m
0 220.98 l
o
1 1 1 srgb
1.06 setlinewidth
[] 0 setdash
np
35.66 286.29 m
482.69 0 l
o
np
35.66 326.46 m
482.69 0 l
o
np
35.66 366.64 m
482.69 0 l
o
np
35.66 406.82 m
482.69 0 l
o
np
35.66 447.00 m
482.69 0 l
o
np
35.66 487.18 m
482.69 0 l
o
np
130.74 276.24 m
0 220.98 l
o
np
277.00 276.24 m
0 220.98 l
o
np
423.27 276.24 m
0 220.98 l
o
/bg { 0.9725 0.4627 0.4275 srgb } def
57.60 326.46 2.13 c p2
130.74 366.64 2.13 c p2
203.87 406.82 2.13 c p2
277.00 406.82 2.13 c p2
350.14 366.64 2.13 c p2
423.27 326.46 2.13 c p2
57.60 326.46 2.13 c p2
130.74 366.64 2.13 c p2
203.87 406.82 2.13 c p2
277.00 406.82 2.13 c p2
350.14 366.64 2.13 c p2
423.27 326.46 2.13 c p2
57.60 326.46 4.25 c p2
130.74 366.64 4.25 c p2
203.87 406.82 4.25 c p2
277.00 406.82 4.25 c p2
350.14 366.64 4.25 c p2
423.27 326.46 4.25 c p2
57.60 326.46 4.25 c p2
130.74 366.64 4.25 c p2
203.87 406.82 4.25 c p2
277.00 406.82 4.25 c p2
350.14 366.64 4.25 c p2
423.27 326.46 4.25 c p2
0.00 0.00 662.00 526.00 cl
35.66 37.28 518.35 258.26 cl
/bg { 0.8980 0.8980 0.8980 srgb } def
35.66 37.28 482.68 220.98 r p2
0.9490 0.9490 0.9490 srgb
0.53 setlinewidth
[] 0 setdash
0 setlinecap
1 setlinejoin
10.00 setmiterlimit
np
35.66 67.42 m
482.69 0 l
o
np
35.66 107.59 m
482.69 0 l
o
np
35.66 147.77 m
482.69 0 l
o
np
35.66 187.95 m
482.69 0 l
o
np
35.66 228.13 m
482.69 0 l
o
np
57.60 37.28 m
0 220.98 l
o
np
203.87 37.28 m
0 220.98 l
o
np
350.14 37.28 m
0 220.98 l
o
np
496.41 37.28 m
0 220.98 l
o
1 1 1 srgb
1.06 setlinewidth
[] 0 setdash
np
35.66 47.33 m
482.69 0 l
o
np
35.66 87.51 m
482.69 0 l
o
np
35.66 127.68 m
482.69 0 l
o
np
35.66 167.86 m
482.69 0 l
o
np
35.66 208.04 m
482.69 0 l
o
np
35.66 248.22 m
482.69 0 l
o
np
130.74 37.28 m
0 220.98 l
o
np
277.00 37.28 m
0 220.98 l
o
np
423.27 37.28 m
0 220.98 l
o
/bg { 0 0.7490 0.7686 srgb } def
57.60 87.51 2.13 c p2
130.74 127.68 2.13 c p2
203.87 87.51 2.13 c p2
203.87 167.86 2.13 c p2
277.00 208.04 2.13 c p2
350.14 87.51 2.13 c p2
350.14 167.86 2.13 c p2
423.27 127.68 2.13 c p2
496.41 87.51 2.13 c p2
57.60 87.51 4.25 c p2
130.74 127.68 4.25 c p2
203.87 87.51 4.25 c p2
203.87 167.86 4.25 c p2
277.00 208.04 4.25 c p2
350.14 87.51 4.25 c p2
350.14 167.86 4.25 c p2
423.27 127.68 4.25 c p2
496.41 87.51 4.25 c p2
0.00 0.00 662.00 526.00 cl
0.00 0.00 662.00 526.00 cl
/bg { 0.8000 0.8000 0.8000 srgb } def
35.66 497.22 482.68 14.38 r p2
/Font1 findfont 10 s
0 0 0 srgb
277.00 500.82 (7) .5 0 t
0.00 0.00 662.00 526.00 cl
0.00 0.00 662.00 526.00 cl
/bg { 0.8000 0.8000 0.8000 srgb } def
35.66 258.26 482.68 14.38 r p2
/Font1 findfont 10 s
0 0 0 srgb
277.00 261.86 (8) .5 0 t
0.00 0.00 662.00 526.00 cl
0.00 0.00 662.00 526.00 cl
0.00 0.00 662.00 526.00 cl
/Font1 findfont 10 s
0.4980 0.4980 0.4980 srgb
28.58 282.70 (0) 1 0 t
28.58 322.87 (1) 1 0 t
28.58 363.05 (2) 1 0 t
28.58 403.23 (3) 1 0 t
28.58 443.41 (4) 1 0 t
28.58 483.59 (5) 1 0 t
0.00 0.00 662.00 526.00 cl
0.00 0.00 662.00 526.00 cl
0.4980 0.4980 0.4980 srgb
1.06 setlinewidth
[] 0 setdash
0 setlinecap
1 setlinejoin
10.00 setmiterlimit
np
31.41 286.29 m
4.25 0 l
o
np
31.41 326.46 m
4.25 0 l
o
np
31.41 366.64 m
4.25 0 l
o
np
31.41 406.82 m
4.25 0 l
o
np
31.41 447.00 m
4.25 0 l
o
np
31.41 487.18 m
4.25 0 l
o
0.00 0.00 662.00 526.00 cl
0.00 0.00 662.00 526.00 cl
0.00 0.00 662.00 526.00 cl
0.00 0.00 662.00 526.00 cl
0.00 0.00 662.00 526.00 cl
0.00 0.00 662.00 526.00 cl
/Font1 findfont 10 s
0.4980 0.4980 0.4980 srgb
28.58 43.74 (0) 1 0 t
28.58 83.92 (1) 1 0 t
28.58 124.09 (2) 1 0 t
28.58 164.27 (3) 1 0 t
28.58 204.45 (4) 1 0 t
28.58 244.63 (5) 1 0 t
0.00 0.00 662.00 526.00 cl
0.00 0.00 662.00 526.00 cl
0.4980 0.4980 0.4980 srgb
1.06 setlinewidth
[] 0 setdash
0 setlinecap
1 setlinejoin
10.00 setmiterlimit
np
31.41 47.33 m
4.25 0 l
o
np
31.41 87.51 m
4.25 0 l
o
np
31.41 127.68 m
4.25 0 l
o
np
31.41 167.86 m
4.25 0 l
o
np
31.41 208.04 m
4.25 0 l
o
np
31.41 248.22 m
4.25 0 l
o
0.00 0.00 662.00 526.00 cl
0.00 0.00 662.00 526.00 cl
0.00 0.00 662.00 526.00 cl
0.00 0.00 662.00 526.00 cl
0.00 0.00 662.00 526.00 cl
0.00 0.00 662.00 526.00 cl
0.00 0.00 662.00 526.00 cl
0.00 0.00 662.00 526.00 cl
0.4980 0.4980 0.4980 srgb
1.06 setlinewidth
[] 0 setdash
0 setlinecap
1 setlinejoin
10.00 setmiterlimit
np
130.74 33.03 m
0 4.25 l
o
np
277.00 33.03 m
0 4.25 l
o
np
423.27 33.03 m
0 4.25 l
o
0.00 0.00 662.00 526.00 cl
0.00 0.00 662.00 526.00 cl
/Font1 findfont 10 s
0.4980 0.4980 0.4980 srgb
130.74 23.02 (2) .5 0 t
277.00 23.02 (4) .5 0 t
423.27 23.02 (6) .5 0 t
0.00 0.00 662.00 526.00 cl
0.00 0.00 662.00 526.00 cl
0.00 0.00 662.00 526.00 cl
0.00 0.00 662.00 526.00 cl
0.00 0.00 662.00 526.00 cl
/Font1 findfont 12 s
0 0 0 srgb
277.00 10.80 (State) .5 0 t
0.00 0.00 662.00 526.00 cl
0.00 0.00 662.00 526.00 cl
/Font1 findfont 12 s
0 0 0 srgb
19.42 267.25 (Action) .5 90 t
0.00 0.00 662.00 526.00 cl
0.00 0.00 662.00 526.00 cl
0.00 0.00 662.00 526.00 cl
0.00 0.00 662.00 526.00 cl
0.00 0.00 662.00 526.00 cl
0.00 0.00 662.00 526.00 cl
/bg { 1 1 1 srgb } def
528.38 239.97 109.18 54.56 r p2
0.00 0.00 662.00 526.00 cl
0.00 0.00 662.00 526.00 cl
/Font2 findfont 10 s
0 0 0 srgb
532.63 283.10 (factor\(T) 0 ta
-0.800 (ar) tb
-0.150 (g) tb
0.100 (et.Dollar) tb
-0.150 (s\)) tb gr
0.00 0.00 662.00 526.00 cl
0.00 0.00 662.00 526.00 cl
/bg { 0.9490 0.9490 0.9490 srgb } def
1 1 1 srgb
1.06 setlinewidth
[] 0 setdash
1 setlinecap
1 setlinejoin
10.00 setmiterlimit
532.63 261.50 17.28 17.28 r p3
0.00 0.00 662.00 526.00 cl
0.00 0.00 662.00 526.00 cl
/bg { 0.9725 0.4627 0.4275 srgb } def
541.27 270.14 2.13 c p2
0.00 0.00 662.00 526.00 cl
0.00 0.00 662.00 526.00 cl
/bg { 0.9725 0.4627 0.4275 srgb } def
541.27 270.14 4.25 c p2
0.00 0.00 662.00 526.00 cl
0.00 0.00 662.00 526.00 cl
/bg { 0.9490 0.9490 0.9490 srgb } def
1 1 1 srgb
1.06 setlinewidth
[] 0 setdash
1 setlinecap
1 setlinejoin
10.00 setmiterlimit
532.63 244.22 17.28 17.28 r p3
0.00 0.00 662.00 526.00 cl
0.00 0.00 662.00 526.00 cl
/bg { 0 0.7490 0.7686 srgb } def
541.27 252.86 2.13 c p2
0.00 0.00 662.00 526.00 cl
0.00 0.00 662.00 526.00 cl
/bg { 0 0.7490 0.7686 srgb } def
541.27 252.86 4.25 c p2
0.00 0.00 662.00 526.00 cl
0.00 0.00 662.00 526.00 cl
/Font1 findfont 10 s
0 0 0 srgb
552.07 266.55 (7) 0 0 t
0.00 0.00 662.00 526.00 cl
0.00 0.00 662.00 526.00 cl
/Font1 findfont 10 s
0 0 0 srgb
552.07 249.27 (8) 0 0 t
0.00 0.00 662.00 526.00 cl
0.00 0.00 662.00 526.00 cl
0.00 0.00 662.00 526.00 cl
0.00 0.00 662.00 526.00 cl
0.00 0.00 662.00 526.00 cl
0.00 0.00 662.00 526.00 cl
0.00 0.00 662.00 526.00 cl
0.00 0.00 662.00 526.00 cl
0.00 0.00 662.00 526.00 cl
0.00 0.00 662.00 526.00 cl
0.00 0.00 662.00 526.00 cl
0.00 0.00 662.00 526.00 cl
ep
%%Trailer
%%Pages: 1
%%EOF
