"LambdaPoint","NumberOfAutomata","Rule","Fitness"
"0.00","149","GKLRule","1.00"
"0.00","149","DasRule","1.00"
"0.00","149","DavisRule","1.00"
"0.00","149","BestKozaRule","1.00"
"0.00","499","GKLRule","1.00"
"0.00","499","DasRule","1.00"
"0.00","499","DavisRule","1.00"
"0.00","499","BestKozaRule","1.00"
"0.00","999","GKLRule","1.00"
"0.00","999","DasRule","1.00"
"0.00","999","DavisRule","1.00"
"0.00","999","BestKozaRule","1.00"
"0.01","149","GKLRule","1.00"
"0.01","149","DasRule","1.00"
"0.01","149","DavisRule","1.00"
"0.01","149","BestKozaRule","1.00"
"0.01","499","GKLRule","1.00"
"0.01","499","DasRule","1.00"
"0.01","499","DavisRule","1.00"
"0.01","499","BestKozaRule","1.00"
"0.01","999","GKLRule","1.00"
"0.01","999","DasRule","1.00"
"0.01","999","DavisRule","1.00"
"0.01","999","BestKozaRule","1.00"
"0.02","149","GKLRule","1.00"
"0.02","149","DasRule","1.00"
"0.02","149","DavisRule","1.00"
"0.02","149","BestKozaRule","1.00"
"0.02","499","GKLRule","1.00"
"0.02","499","DasRule","1.00"
"0.02","499","DavisRule","1.00"
"0.02","499","BestKozaRule","1.00"
"0.02","999","GKLRule","1.00"
"0.02","999","DasRule","1.00"
"0.02","999","DavisRule","1.00"
"0.02","999","BestKozaRule","1.00"
"0.03","149","GKLRule","1.00"
"0.03","149","DasRule","1.00"
"0.03","149","DavisRule","1.00"
"0.03","149","BestKozaRule","1.00"
"0.03","499","GKLRule","1.00"
"0.03","499","DasRule","1.00"
"0.03","499","DavisRule","1.00"
"0.03","499","BestKozaRule","1.00"
"0.03","999","GKLRule","1.00"
"0.03","999","DasRule","1.00"
"0.03","999","DavisRule","1.00"
"0.03","999","BestKozaRule","1.00"
"0.04","149","GKLRule","1.00"
"0.04","149","DasRule","1.00"
"0.04","149","DavisRule","1.00"
"0.04","149","BestKozaRule","1.00"
"0.04","499","GKLRule","1.00"
"0.04","499","DasRule","1.00"
"0.04","499","DavisRule","1.00"
"0.04","499","BestKozaRule","1.00"
"0.04","999","GKLRule","1.00"
"0.04","999","DasRule","1.00"
"0.04","999","DavisRule","1.00"
"0.04","999","BestKozaRule","1.00"
"0.05","149","GKLRule","1.00"
"0.05","149","DasRule","1.00"
"0.05","149","DavisRule","1.00"
"0.05","149","BestKozaRule","1.00"
"0.05","499","GKLRule","1.00"
"0.05","499","DasRule","1.00"
"0.05","499","DavisRule","1.00"
"0.05","499","BestKozaRule","1.00"
"0.05","999","GKLRule","1.00"
"0.05","999","DasRule","1.00"
"0.05","999","DavisRule","1.00"
"0.05","999","BestKozaRule","1.00"
"0.06","149","GKLRule","1.00"
"0.06","149","DasRule","1.00"
"0.06","149","DavisRule","1.00"
"0.06","149","BestKozaRule","1.00"
"0.06","499","GKLRule","1.00"
"0.06","499","DasRule","1.00"
"0.06","499","DavisRule","1.00"
"0.06","499","BestKozaRule","1.00"
"0.06","999","GKLRule","1.00"
"0.06","999","DasRule","1.00"
"0.06","999","DavisRule","1.00"
"0.06","999","BestKozaRule","1.00"
"0.07","149","GKLRule","1.00"
"0.07","149","DasRule","1.00"
"0.07","149","DavisRule","1.00"
"0.07","149","BestKozaRule","1.00"
"0.07","499","GKLRule","1.00"
"0.07","499","DasRule","1.00"
"0.07","499","DavisRule","1.00"
"0.07","499","BestKozaRule","1.00"
"0.07","999","GKLRule","1.00"
"0.07","999","DasRule","1.00"
"0.07","999","DavisRule","1.00"
"0.07","999","BestKozaRule","1.00"
"0.08","149","GKLRule","1.00"
"0.08","149","DasRule","1.00"
"0.08","149","DavisRule","1.00"
"0.08","149","BestKozaRule","1.00"
"0.08","499","GKLRule","1.00"
"0.08","499","DasRule","1.00"
"0.08","499","DavisRule","1.00"
"0.08","499","BestKozaRule","1.00"
"0.08","999","GKLRule","1.00"
"0.08","999","DasRule","1.00"
"0.08","999","DavisRule","1.00"
"0.08","999","BestKozaRule","1.00"
"0.09","149","GKLRule","1.00"
"0.09","149","DasRule","1.00"
"0.09","149","DavisRule","1.00"
"0.09","149","BestKozaRule","1.00"
"0.09","499","GKLRule","1.00"
"0.09","499","DasRule","1.00"
"0.09","499","DavisRule","1.00"
"0.09","499","BestKozaRule","1.00"
"0.09","999","GKLRule","1.00"
"0.09","999","DasRule","1.00"
"0.09","999","DavisRule","1.00"
"0.09","999","BestKozaRule","1.00"
"0.10","149","GKLRule","1.00"
"0.10","149","DasRule","1.00"
"0.10","149","DavisRule","1.00"
"0.10","149","BestKozaRule","1.00"
"0.10","499","GKLRule","1.00"
"0.10","499","DasRule","1.00"
"0.10","499","DavisRule","1.00"
"0.10","499","BestKozaRule","1.00"
"0.10","999","GKLRule","1.00"
"0.10","999","DasRule","1.00"
"0.10","999","DavisRule","1.00"
"0.10","999","BestKozaRule","1.00"
"0.11","149","GKLRule","1.00"
"0.11","149","DasRule","1.00"
"0.11","149","DavisRule","1.00"
"0.11","149","BestKozaRule","1.00"
"0.11","499","GKLRule","1.00"
"0.11","499","DasRule","1.00"
"0.11","499","DavisRule","1.00"
"0.11","499","BestKozaRule","1.00"
"0.11","999","GKLRule","1.00"
"0.11","999","DasRule","1.00"
"0.11","999","DavisRule","1.00"
"0.11","999","BestKozaRule","1.00"
"0.12","149","GKLRule","1.00"
"0.12","149","DasRule","1.00"
"0.12","149","DavisRule","1.00"
"0.12","149","BestKozaRule","1.00"
"0.12","499","GKLRule","1.00"
"0.12","499","DasRule","1.00"
"0.12","499","DavisRule","1.00"
"0.12","499","BestKozaRule","1.00"
"0.12","999","GKLRule","1.00"
"0.12","999","DasRule","1.00"
"0.12","999","DavisRule","1.00"
"0.12","999","BestKozaRule","1.00"
"0.13","149","GKLRule","1.00"
"0.13","149","DasRule","1.00"
"0.13","149","DavisRule","1.00"
"0.13","149","BestKozaRule","1.00"
"0.13","499","GKLRule","1.00"
"0.13","499","DasRule","1.00"
"0.13","499","DavisRule","1.00"
"0.13","499","BestKozaRule","1.00"
"0.13","999","GKLRule","1.00"
"0.13","999","DasRule","1.00"
"0.13","999","DavisRule","1.00"
"0.13","999","BestKozaRule","1.00"
"0.14","149","GKLRule","1.00"
"0.14","149","DasRule","1.00"
"0.14","149","DavisRule","1.00"
"0.14","149","BestKozaRule","1.00"
"0.14","499","GKLRule","1.00"
"0.14","499","DasRule","1.00"
"0.14","499","DavisRule","1.00"
"0.14","499","BestKozaRule","1.00"
"0.14","999","GKLRule","1.00"
"0.14","999","DasRule","1.00"
"0.14","999","DavisRule","1.00"
"0.14","999","BestKozaRule","1.00"
"0.15","149","GKLRule","1.00"
"0.15","149","DasRule","1.00"
"0.15","149","DavisRule","1.00"
"0.15","149","BestKozaRule","1.00"
"0.15","499","GKLRule","1.00"
"0.15","499","DasRule","1.00"
"0.15","499","DavisRule","1.00"
"0.15","499","BestKozaRule","1.00"
"0.15","999","GKLRule","1.00"
"0.15","999","DasRule","1.00"
"0.15","999","DavisRule","1.00"
"0.15","999","BestKozaRule","1.00"
"0.16","149","GKLRule","1.00"
"0.16","149","DasRule","1.00"
"0.16","149","DavisRule","1.00"
"0.16","149","BestKozaRule","1.00"
"0.16","499","GKLRule","1.00"
"0.16","499","DasRule","1.00"
"0.16","499","DavisRule","1.00"
"0.16","499","BestKozaRule","1.00"
"0.16","999","GKLRule","1.00"
"0.16","999","DasRule","1.00"
"0.16","999","DavisRule","1.00"
"0.16","999","BestKozaRule","1.00"
"0.17","149","GKLRule","1.00"
"0.17","149","DasRule","1.00"
"0.17","149","DavisRule","1.00"
"0.17","149","BestKozaRule","1.00"
"0.17","499","GKLRule","1.00"
"0.17","499","DasRule","1.00"
"0.17","499","DavisRule","1.00"
"0.17","499","BestKozaRule","1.00"
"0.17","999","GKLRule","1.00"
"0.17","999","DasRule","1.00"
"0.17","999","DavisRule","1.00"
"0.17","999","BestKozaRule","1.00"
"0.18","149","GKLRule","1.00"
"0.18","149","DasRule","1.00"
"0.18","149","DavisRule","1.00"
"0.18","149","BestKozaRule","1.00"
"0.18","499","GKLRule","1.00"
"0.18","499","DasRule","1.00"
"0.18","499","DavisRule","1.00"
"0.18","499","BestKozaRule","1.00"
"0.18","999","GKLRule","1.00"
"0.18","999","DasRule","1.00"
"0.18","999","DavisRule","1.00"
"0.18","999","BestKozaRule","1.00"
"0.19","149","GKLRule","1.00"
"0.19","149","DasRule","1.00"
"0.19","149","DavisRule","1.00"
"0.19","149","BestKozaRule","1.00"
"0.19","499","GKLRule","1.00"
"0.19","499","DasRule","1.00"
"0.19","499","DavisRule","1.00"
"0.19","499","BestKozaRule","1.00"
"0.19","999","GKLRule","1.00"
"0.19","999","DasRule","1.00"
"0.19","999","DavisRule","1.00"
"0.19","999","BestKozaRule","1.00"
"0.20","149","GKLRule","1.00"
"0.20","149","DasRule","1.00"
"0.20","149","DavisRule","1.00"
"0.20","149","BestKozaRule","1.00"
"0.20","499","GKLRule","1.00"
"0.20","499","DasRule","1.00"
"0.20","499","DavisRule","1.00"
"0.20","499","BestKozaRule","1.00"
"0.20","999","GKLRule","1.00"
"0.20","999","DasRule","1.00"
"0.20","999","DavisRule","1.00"
"0.20","999","BestKozaRule","1.00"
"0.21","149","GKLRule","1.00"
"0.21","149","DasRule","1.00"
"0.21","149","DavisRule","1.00"
"0.21","149","BestKozaRule","1.00"
"0.21","499","GKLRule","1.00"
"0.21","499","DasRule","1.00"
"0.21","499","DavisRule","1.00"
"0.21","499","BestKozaRule","1.00"
"0.21","999","GKLRule","1.00"
"0.21","999","DasRule","1.00"
"0.21","999","DavisRule","1.00"
"0.21","999","BestKozaRule","1.00"
"0.22","149","GKLRule","1.00"
"0.22","149","DasRule","1.00"
"0.22","149","DavisRule","1.00"
"0.22","149","BestKozaRule","1.00"
"0.22","499","GKLRule","1.00"
"0.22","499","DasRule","1.00"
"0.22","499","DavisRule","1.00"
"0.22","499","BestKozaRule","1.00"
"0.22","999","GKLRule","1.00"
"0.22","999","DasRule","1.00"
"0.22","999","DavisRule","1.00"
"0.22","999","BestKozaRule","1.00"
"0.23","149","GKLRule","1.00"
"0.23","149","DasRule","1.00"
"0.23","149","DavisRule","1.00"
"0.23","149","BestKozaRule","1.00"
"0.23","499","GKLRule","1.00"
"0.23","499","DasRule","1.00"
"0.23","499","DavisRule","1.00"
"0.23","499","BestKozaRule","1.00"
"0.23","999","GKLRule","1.00"
"0.23","999","DasRule","1.00"
"0.23","999","DavisRule","1.00"
"0.23","999","BestKozaRule","1.00"
"0.24","149","GKLRule","1.00"
"0.24","149","DasRule","1.00"
"0.24","149","DavisRule","1.00"
"0.24","149","BestKozaRule","1.00"
"0.24","499","GKLRule","1.00"
"0.24","499","DasRule","1.00"
"0.24","499","DavisRule","1.00"
"0.24","499","BestKozaRule","1.00"
"0.24","999","GKLRule","1.00"
"0.24","999","DasRule","1.00"
"0.24","999","DavisRule","1.00"
"0.24","999","BestKozaRule","1.00"
"0.25","149","GKLRule","1.00"
"0.25","149","DasRule","1.00"
"0.25","149","DavisRule","1.00"
"0.25","149","BestKozaRule","1.00"
"0.25","499","GKLRule","1.00"
"0.25","499","DasRule","1.00"
"0.25","499","DavisRule","1.00"
"0.25","499","BestKozaRule","1.00"
"0.25","999","GKLRule","1.00"
"0.25","999","DasRule","1.00"
"0.25","999","DavisRule","1.00"
"0.25","999","BestKozaRule","1.00"
"0.26","149","GKLRule","1.00"
"0.26","149","DasRule","1.00"
"0.26","149","DavisRule","1.00"
"0.26","149","BestKozaRule","1.00"
"0.26","499","GKLRule","1.00"
"0.26","499","DasRule","1.00"
"0.26","499","DavisRule","1.00"
"0.26","499","BestKozaRule","1.00"
"0.26","999","GKLRule","1.00"
"0.26","999","DasRule","1.00"
"0.26","999","DavisRule","1.00"
"0.26","999","BestKozaRule","1.00"
"0.27","149","GKLRule","1.00"
"0.27","149","DasRule","1.00"
"0.27","149","DavisRule","1.00"
"0.27","149","BestKozaRule","1.00"
"0.27","499","GKLRule","1.00"
"0.27","499","DasRule","1.00"
"0.27","499","DavisRule","1.00"
"0.27","499","BestKozaRule","1.00"
"0.27","999","GKLRule","1.00"
"0.27","999","DasRule","1.00"
"0.27","999","DavisRule","1.00"
"0.27","999","BestKozaRule","1.00"
"0.28","149","GKLRule","1.00"
"0.28","149","DasRule","1.00"
"0.28","149","DavisRule","1.00"
"0.28","149","BestKozaRule","1.00"
"0.28","499","GKLRule","1.00"
"0.28","499","DasRule","1.00"
"0.28","499","DavisRule","1.00"
"0.28","499","BestKozaRule","1.00"
"0.28","999","GKLRule","1.00"
"0.28","999","DasRule","1.00"
"0.28","999","DavisRule","1.00"
"0.28","999","BestKozaRule","1.00"
"0.29","149","GKLRule","1.00"
"0.29","149","DasRule","1.00"
"0.29","149","DavisRule","1.00"
"0.29","149","BestKozaRule","1.00"
"0.29","499","GKLRule","1.00"
"0.29","499","DasRule","1.00"
"0.29","499","DavisRule","1.00"
"0.29","499","BestKozaRule","1.00"
"0.29","999","GKLRule","1.00"
"0.29","999","DasRule","1.00"
"0.29","999","DavisRule","1.00"
"0.29","999","BestKozaRule","1.00"
"0.30","149","GKLRule","1.00"
"0.30","149","DasRule","1.00"
"0.30","149","DavisRule","1.00"
"0.30","149","BestKozaRule","1.00"
"0.30","499","GKLRule","1.00"
"0.30","499","DasRule","1.00"
"0.30","499","DavisRule","1.00"
"0.30","499","BestKozaRule","1.00"
"0.30","999","GKLRule","1.00"
"0.30","999","DasRule","1.00"
"0.30","999","DavisRule","1.00"
"0.30","999","BestKozaRule","1.00"
"0.31","149","GKLRule","1.00"
"0.31","149","DasRule","1.00"
"0.31","149","DavisRule","1.00"
"0.31","149","BestKozaRule","1.00"
"0.31","499","GKLRule","1.00"
"0.31","499","DasRule","1.00"
"0.31","499","DavisRule","1.00"
"0.31","499","BestKozaRule","1.00"
"0.31","999","GKLRule","1.00"
"0.31","999","DasRule","1.00"
"0.31","999","DavisRule","1.00"
"0.31","999","BestKozaRule","1.00"
"0.32","149","GKLRule","1.00"
"0.32","149","DasRule","1.00"
"0.32","149","DavisRule","1.00"
"0.32","149","BestKozaRule","1.00"
"0.32","499","GKLRule","1.00"
"0.32","499","DasRule","1.00"
"0.32","499","DavisRule","1.00"
"0.32","499","BestKozaRule","1.00"
"0.32","999","GKLRule","1.00"
"0.32","999","DasRule","1.00"
"0.32","999","DavisRule","1.00"
"0.32","999","BestKozaRule","1.00"
"0.33","149","GKLRule","1.00"
"0.33","149","DasRule","1.00"
"0.33","149","DavisRule","1.00"
"0.33","149","BestKozaRule","1.00"
"0.33","499","GKLRule","1.00"
"0.33","499","DasRule","1.00"
"0.33","499","DavisRule","1.00"
"0.33","499","BestKozaRule","1.00"
"0.33","999","GKLRule","1.00"
"0.33","999","DasRule","1.00"
"0.33","999","DavisRule","1.00"
"0.33","999","BestKozaRule","1.00"
"0.34","149","GKLRule","1.00"
"0.34","149","DasRule","1.00"
"0.34","149","DavisRule","1.00"
"0.34","149","BestKozaRule","1.00"
"0.34","499","GKLRule","1.00"
"0.34","499","DasRule","1.00"
"0.34","499","DavisRule","1.00"
"0.34","499","BestKozaRule","1.00"
"0.34","999","GKLRule","1.00"
"0.34","999","DasRule","1.00"
"0.34","999","DavisRule","1.00"
"0.34","999","BestKozaRule","1.00"
"0.35","149","GKLRule","1.00"
"0.35","149","DasRule","1.00"
"0.35","149","DavisRule","1.00"
"0.35","149","BestKozaRule","1.00"
"0.35","499","GKLRule","1.00"
"0.35","499","DasRule","1.00"
"0.35","499","DavisRule","1.00"
"0.35","499","BestKozaRule","1.00"
"0.35","999","GKLRule","1.00"
"0.35","999","DasRule","1.00"
"0.35","999","DavisRule","1.00"
"0.35","999","BestKozaRule","1.00"
"0.36","149","GKLRule","1.00"
"0.36","149","DasRule","1.00"
"0.36","149","DavisRule","1.00"
"0.36","149","BestKozaRule","1.00"
"0.36","499","GKLRule","1.00"
"0.36","499","DasRule","1.00"
"0.36","499","DavisRule","1.00"
"0.36","499","BestKozaRule","1.00"
"0.36","999","GKLRule","1.00"
"0.36","999","DasRule","1.00"
"0.36","999","DavisRule","1.00"
"0.36","999","BestKozaRule","1.00"
"0.37","149","GKLRule","1.00"
"0.37","149","DasRule","1.00"
"0.37","149","DavisRule","1.00"
"0.37","149","BestKozaRule","1.00"
"0.37","499","GKLRule","1.00"
"0.37","499","DasRule","1.00"
"0.37","499","DavisRule","1.00"
"0.37","499","BestKozaRule","1.00"
"0.37","999","GKLRule","1.00"
"0.37","999","DasRule","1.00"
"0.37","999","DavisRule","1.00"
"0.37","999","BestKozaRule","1.00"
"0.38","149","GKLRule","1.00"
"0.38","149","DasRule","1.00"
"0.38","149","DavisRule","1.00"
"0.38","149","BestKozaRule","1.00"
"0.38","499","GKLRule","1.00"
"0.38","499","DasRule","1.00"
"0.38","499","DavisRule","1.00"
"0.38","499","BestKozaRule","1.00"
"0.38","999","GKLRule","1.00"
"0.38","999","DasRule","1.00"
"0.38","999","DavisRule","1.00"
"0.38","999","BestKozaRule","1.00"
"0.39","149","GKLRule","1.00"
"0.39","149","DasRule","1.00"
"0.39","149","DavisRule","1.00"
"0.39","149","BestKozaRule","1.00"
"0.39","499","GKLRule","1.00"
"0.39","499","DasRule","1.00"
"0.39","499","DavisRule","1.00"
"0.39","499","BestKozaRule","0.99"
"0.39","999","GKLRule","1.00"
"0.39","999","DasRule","1.00"
"0.39","999","DavisRule","1.00"
"0.39","999","BestKozaRule","1.00"
"0.40","149","GKLRule","1.00"
"0.40","149","DasRule","1.00"
"0.40","149","DavisRule","1.00"
"0.40","149","BestKozaRule","1.00"
"0.40","499","GKLRule","1.00"
"0.40","499","DasRule","1.00"
"0.40","499","DavisRule","1.00"
"0.40","499","BestKozaRule","0.99"
"0.40","999","GKLRule","1.00"
"0.40","999","DasRule","1.00"
"0.40","999","DavisRule","1.00"
"0.40","999","BestKozaRule","0.99"
"0.41","149","GKLRule","0.99"
"0.41","149","DasRule","0.99"
"0.41","149","DavisRule","0.99"
"0.41","149","BestKozaRule","1.00"
"0.41","499","GKLRule","1.00"
"0.41","499","DasRule","1.00"
"0.41","499","DavisRule","1.00"
"0.41","499","BestKozaRule","0.99"
"0.41","999","GKLRule","0.99"
"0.41","999","DasRule","0.99"
"0.41","999","DavisRule","0.99"
"0.41","999","BestKozaRule","0.98"
"0.42","149","GKLRule","0.99"
"0.42","149","DasRule","0.99"
"0.42","149","DavisRule","0.99"
"0.42","149","BestKozaRule","0.99"
"0.42","499","GKLRule","0.99"
"0.42","499","DasRule","1.00"
"0.42","499","DavisRule","0.99"
"0.42","499","BestKozaRule","0.98"
"0.42","999","GKLRule","0.98"
"0.42","999","DasRule","0.98"
"0.42","999","DavisRule","0.98"
"0.42","999","BestKozaRule","0.97"
"0.43","149","GKLRule","0.97"
"0.43","149","DasRule","0.97"
"0.43","149","DavisRule","0.97"
"0.43","149","BestKozaRule","0.97"
"0.43","499","GKLRule","0.99"
"0.43","499","DasRule","0.99"
"0.43","499","DavisRule","0.99"
"0.43","499","BestKozaRule","0.99"
"0.43","999","GKLRule","0.94"
"0.43","999","DasRule","0.94"
"0.43","999","DavisRule","0.96"
"0.43","999","BestKozaRule","0.95"
"0.44","149","GKLRule","0.96"
"0.44","149","DasRule","0.96"
"0.44","149","DavisRule","0.95"
"0.44","149","BestKozaRule","0.95"
"0.44","499","GKLRule","0.95"
"0.44","499","DasRule","0.96"
"0.44","499","DavisRule","0.97"
"0.44","499","BestKozaRule","0.96"
"0.44","999","GKLRule","0.89"
"0.44","999","DasRule","0.90"
"0.44","999","DavisRule","0.91"
"0.44","999","BestKozaRule","0.89"
"0.45","149","GKLRule","0.93"
"0.45","149","DasRule","0.94"
"0.45","149","DavisRule","0.93"
"0.45","149","BestKozaRule","0.92"
"0.45","499","GKLRule","0.90"
"0.45","499","DasRule","0.93"
"0.45","499","DavisRule","0.92"
"0.45","499","BestKozaRule","0.92"
"0.45","999","GKLRule","0.79"
"0.45","999","DasRule","0.80"
"0.45","999","DavisRule","0.81"
"0.45","999","BestKozaRule","0.78"
"0.46","149","GKLRule","0.89"
"0.46","149","DasRule","0.89"
"0.46","149","DavisRule","0.90"
"0.46","149","BestKozaRule","0.88"
"0.46","499","GKLRule","0.87"
"0.46","499","DasRule","0.87"
"0.46","499","DavisRule","0.87"
"0.46","499","BestKozaRule","0.86"
"0.46","999","GKLRule","0.61"
"0.46","999","DasRule","0.66"
"0.46","999","DavisRule","0.67"
"0.46","999","BestKozaRule","0.66"
"0.47","149","GKLRule","0.85"
"0.47","149","DasRule","0.84"
"0.47","149","DavisRule","0.85"
"0.47","149","BestKozaRule","0.85"
"0.47","499","GKLRule","0.75"
"0.47","499","DasRule","0.76"
"0.47","499","DavisRule","0.74"
"0.47","499","BestKozaRule","0.76"
"0.47","999","GKLRule","0.46"
"0.47","999","DasRule","0.47"
"0.47","999","DavisRule","0.50"
"0.47","999","BestKozaRule","0.48"
"0.48","149","GKLRule","0.80"
"0.48","149","DasRule","0.83"
"0.48","149","DavisRule","0.82"
"0.48","149","BestKozaRule","0.80"
"0.48","499","GKLRule","0.61"
"0.48","499","DasRule","0.59"
"0.48","499","DavisRule","0.61"
"0.48","499","BestKozaRule","0.61"
"0.48","999","GKLRule","0.30"
"0.48","999","DasRule","0.33"
"0.48","999","DavisRule","0.32"
"0.48","999","BestKozaRule","0.28"
"0.49","149","GKLRule","0.77"
"0.49","149","DasRule","0.80"
"0.49","149","DavisRule","0.79"
"0.49","149","BestKozaRule","0.76"
"0.49","499","GKLRule","0.47"
"0.49","499","DasRule","0.48"
"0.49","499","DavisRule","0.48"
"0.49","499","BestKozaRule","0.51"
"0.49","999","GKLRule","0.15"
"0.49","999","DasRule","0.14"
"0.49","999","DavisRule","0.14"
"0.49","999","BestKozaRule","0.16"
"0.50","149","GKLRule","0.76"
"0.50","149","DasRule","0.77"
"0.50","149","DavisRule","0.76"
"0.50","149","BestKozaRule","0.76"
"0.50","499","GKLRule","0.44"
"0.50","499","DasRule","0.48"
"0.50","499","DavisRule","0.47"
"0.50","499","BestKozaRule","0.46"
"0.50","999","GKLRule","0.10"
"0.50","999","DasRule","0.12"
"0.50","999","DavisRule","0.12"
"0.50","999","BestKozaRule","0.12"
"0.51","149","GKLRule","0.76"
"0.51","149","DasRule","0.77"
"0.51","149","DavisRule","0.76"
"0.51","149","BestKozaRule","0.77"
"0.51","499","GKLRule","0.45"
"0.51","499","DasRule","0.47"
"0.51","499","DavisRule","0.45"
"0.51","499","BestKozaRule","0.44"
"0.51","999","GKLRule","0.14"
"0.51","999","DasRule","0.14"
"0.51","999","DavisRule","0.14"
"0.51","999","BestKozaRule","0.14"
"0.52","149","GKLRule","0.77"
"0.52","149","DasRule","0.81"
"0.52","149","DavisRule","0.79"
"0.52","149","BestKozaRule","0.79"
"0.52","499","GKLRule","0.53"
"0.52","499","DasRule","0.57"
"0.52","499","DavisRule","0.59"
"0.52","499","BestKozaRule","0.58"
"0.52","999","GKLRule","0.28"
"0.52","999","DasRule","0.28"
"0.52","999","DavisRule","0.29"
"0.52","999","BestKozaRule","0.28"
"0.53","149","GKLRule","0.82"
"0.53","149","DasRule","0.81"
"0.53","149","DavisRule","0.80"
"0.53","149","BestKozaRule","0.83"
"0.53","499","GKLRule","0.70"
"0.53","499","DasRule","0.74"
"0.53","499","DavisRule","0.75"
"0.53","499","BestKozaRule","0.75"
"0.53","999","GKLRule","0.44"
"0.53","999","DasRule","0.47"
"0.53","999","DavisRule","0.46"
"0.53","999","BestKozaRule","0.46"
"0.54","149","GKLRule","0.84"
"0.54","149","DasRule","0.86"
"0.54","149","DavisRule","0.85"
"0.54","149","BestKozaRule","0.87"
"0.54","499","GKLRule","0.82"
"0.54","499","DasRule","0.82"
"0.54","499","DavisRule","0.83"
"0.54","499","BestKozaRule","0.83"
"0.54","999","GKLRule","0.62"
"0.54","999","DasRule","0.66"
"0.54","999","DavisRule","0.68"
"0.54","999","BestKozaRule","0.65"
"0.55","149","GKLRule","0.91"
"0.55","149","DasRule","0.91"
"0.55","149","DavisRule","0.91"
"0.55","149","BestKozaRule","0.92"
"0.55","499","GKLRule","0.90"
"0.55","499","DasRule","0.90"
"0.55","499","DavisRule","0.91"
"0.55","499","BestKozaRule","0.91"
"0.55","999","GKLRule","0.75"
"0.55","999","DasRule","0.77"
"0.55","999","DavisRule","0.78"
"0.55","999","BestKozaRule","0.77"
"0.56","149","GKLRule","0.95"
"0.56","149","DasRule","0.95"
"0.56","149","DavisRule","0.94"
"0.56","149","BestKozaRule","0.94"
"0.56","499","GKLRule","0.96"
"0.56","499","DasRule","0.95"
"0.56","499","DavisRule","0.96"
"0.56","499","BestKozaRule","0.96"
"0.56","999","GKLRule","0.86"
"0.56","999","DasRule","0.88"
"0.56","999","DavisRule","0.89"
"0.56","999","BestKozaRule","0.86"
"0.57","149","GKLRule","0.95"
"0.57","149","DasRule","0.95"
"0.57","149","DavisRule","0.96"
"0.57","149","BestKozaRule","0.96"
"0.57","499","GKLRule","0.98"
"0.57","499","DasRule","0.98"
"0.57","499","DavisRule","0.98"
"0.57","499","BestKozaRule","0.97"
"0.57","999","GKLRule","0.94"
"0.57","999","DasRule","0.95"
"0.57","999","DavisRule","0.96"
"0.57","999","BestKozaRule","0.94"
"0.58","149","GKLRule","0.98"
"0.58","149","DasRule","0.99"
"0.58","149","DavisRule","0.98"
"0.58","149","BestKozaRule","0.98"
"0.58","499","GKLRule","0.99"
"0.58","499","DasRule","0.99"
"0.58","499","DavisRule","0.99"
"0.58","499","BestKozaRule","0.98"
"0.58","999","GKLRule","0.97"
"0.58","999","DasRule","0.98"
"0.58","999","DavisRule","0.98"
"0.58","999","BestKozaRule","0.97"
"0.59","149","GKLRule","0.99"
"0.59","149","DasRule","0.99"
"0.59","149","DavisRule","1.00"
"0.59","149","BestKozaRule","0.99"
"0.59","499","GKLRule","1.00"
"0.59","499","DasRule","1.00"
"0.59","499","DavisRule","1.00"
"0.59","499","BestKozaRule","0.99"
"0.59","999","GKLRule","0.98"
"0.59","999","DasRule","0.99"
"0.59","999","DavisRule","0.99"
"0.59","999","BestKozaRule","0.99"
"0.60","149","GKLRule","0.99"
"0.60","149","DasRule","1.00"
"0.60","149","DavisRule","0.99"
"0.60","149","BestKozaRule","0.99"
"0.60","499","GKLRule","1.00"
"0.60","499","DasRule","1.00"
"0.60","499","DavisRule","1.00"
"0.60","499","BestKozaRule","1.00"
"0.60","999","GKLRule","1.00"
"0.60","999","DasRule","1.00"
"0.60","999","DavisRule","1.00"
"0.60","999","BestKozaRule","0.99"
"0.61","149","GKLRule","1.00"
"0.61","149","DasRule","0.99"
"0.61","149","DavisRule","1.00"
"0.61","149","BestKozaRule","1.00"
"0.61","499","GKLRule","1.00"
"0.61","499","DasRule","1.00"
"0.61","499","DavisRule","1.00"
"0.61","499","BestKozaRule","1.00"
"0.61","999","GKLRule","1.00"
"0.61","999","DasRule","1.00"
"0.61","999","DavisRule","1.00"
"0.61","999","BestKozaRule","1.00"
"0.62","149","GKLRule","1.00"
"0.62","149","DasRule","1.00"
"0.62","149","DavisRule","1.00"
"0.62","149","BestKozaRule","1.00"
"0.62","499","GKLRule","1.00"
"0.62","499","DasRule","1.00"
"0.62","499","DavisRule","1.00"
"0.62","499","BestKozaRule","1.00"
"0.62","999","GKLRule","1.00"
"0.62","999","DasRule","1.00"
"0.62","999","DavisRule","1.00"
"0.62","999","BestKozaRule","1.00"
"0.63","149","GKLRule","1.00"
"0.63","149","DasRule","1.00"
"0.63","149","DavisRule","1.00"
"0.63","149","BestKozaRule","1.00"
"0.63","499","GKLRule","1.00"
"0.63","499","DasRule","1.00"
"0.63","499","DavisRule","1.00"
"0.63","499","BestKozaRule","1.00"
"0.63","999","GKLRule","1.00"
"0.63","999","DasRule","1.00"
"0.63","999","DavisRule","1.00"
"0.63","999","BestKozaRule","1.00"
"0.64","149","GKLRule","1.00"
"0.64","149","DasRule","1.00"
"0.64","149","DavisRule","1.00"
"0.64","149","BestKozaRule","1.00"
"0.64","499","GKLRule","1.00"
"0.64","499","DasRule","1.00"
"0.64","499","DavisRule","1.00"
"0.64","499","BestKozaRule","1.00"
"0.64","999","GKLRule","1.00"
"0.64","999","DasRule","1.00"
"0.64","999","DavisRule","1.00"
"0.64","999","BestKozaRule","1.00"
"0.65","149","GKLRule","1.00"
"0.65","149","DasRule","1.00"
"0.65","149","DavisRule","1.00"
"0.65","149","BestKozaRule","1.00"
"0.65","499","GKLRule","1.00"
"0.65","499","DasRule","1.00"
"0.65","499","DavisRule","1.00"
"0.65","499","BestKozaRule","1.00"
"0.65","999","GKLRule","1.00"
"0.65","999","DasRule","1.00"
"0.65","999","DavisRule","1.00"
"0.65","999","BestKozaRule","1.00"
"0.66","149","GKLRule","1.00"
"0.66","149","DasRule","1.00"
"0.66","149","DavisRule","1.00"
"0.66","149","BestKozaRule","1.00"
"0.66","499","GKLRule","1.00"
"0.66","499","DasRule","1.00"
"0.66","499","DavisRule","1.00"
"0.66","499","BestKozaRule","1.00"
"0.66","999","GKLRule","1.00"
"0.66","999","DasRule","1.00"
"0.66","999","DavisRule","1.00"
"0.66","999","BestKozaRule","1.00"
"0.67","149","GKLRule","1.00"
"0.67","149","DasRule","1.00"
"0.67","149","DavisRule","1.00"
"0.67","149","BestKozaRule","1.00"
"0.67","499","GKLRule","1.00"
"0.67","499","DasRule","1.00"
"0.67","499","DavisRule","1.00"
"0.67","499","BestKozaRule","1.00"
"0.67","999","GKLRule","1.00"
"0.67","999","DasRule","1.00"
"0.67","999","DavisRule","1.00"
"0.67","999","BestKozaRule","1.00"
"0.68","149","GKLRule","1.00"
"0.68","149","DasRule","1.00"
"0.68","149","DavisRule","1.00"
"0.68","149","BestKozaRule","1.00"
"0.68","499","GKLRule","1.00"
"0.68","499","DasRule","1.00"
"0.68","499","DavisRule","1.00"
"0.68","499","BestKozaRule","1.00"
"0.68","999","GKLRule","1.00"
"0.68","999","DasRule","1.00"
"0.68","999","DavisRule","1.00"
"0.68","999","BestKozaRule","1.00"
"0.69","149","GKLRule","1.00"
"0.69","149","DasRule","1.00"
"0.69","149","DavisRule","1.00"
"0.69","149","BestKozaRule","1.00"
"0.69","499","GKLRule","1.00"
"0.69","499","DasRule","1.00"
"0.69","499","DavisRule","1.00"
"0.69","499","BestKozaRule","1.00"
"0.69","999","GKLRule","1.00"
"0.69","999","DasRule","1.00"
"0.69","999","DavisRule","1.00"
"0.69","999","BestKozaRule","1.00"
"0.70","149","GKLRule","1.00"
"0.70","149","DasRule","1.00"
"0.70","149","DavisRule","1.00"
"0.70","149","BestKozaRule","1.00"
"0.70","499","GKLRule","1.00"
"0.70","499","DasRule","1.00"
"0.70","499","DavisRule","1.00"
"0.70","499","BestKozaRule","1.00"
"0.70","999","GKLRule","1.00"
"0.70","999","DasRule","1.00"
"0.70","999","DavisRule","1.00"
"0.70","999","BestKozaRule","1.00"
"0.71","149","GKLRule","1.00"
"0.71","149","DasRule","1.00"
"0.71","149","DavisRule","1.00"
"0.71","149","BestKozaRule","1.00"
"0.71","499","GKLRule","1.00"
"0.71","499","DasRule","1.00"
"0.71","499","DavisRule","1.00"
"0.71","499","BestKozaRule","1.00"
"0.71","999","GKLRule","1.00"
"0.71","999","DasRule","1.00"
"0.71","999","DavisRule","1.00"
"0.71","999","BestKozaRule","1.00"
"0.72","149","GKLRule","1.00"
"0.72","149","DasRule","1.00"
"0.72","149","DavisRule","1.00"
"0.72","149","BestKozaRule","1.00"
"0.72","499","GKLRule","1.00"
"0.72","499","DasRule","1.00"
"0.72","499","DavisRule","1.00"
"0.72","499","BestKozaRule","1.00"
"0.72","999","GKLRule","1.00"
"0.72","999","DasRule","1.00"
"0.72","999","DavisRule","1.00"
"0.72","999","BestKozaRule","1.00"
"0.73","149","GKLRule","1.00"
"0.73","149","DasRule","1.00"
"0.73","149","DavisRule","1.00"
"0.73","149","BestKozaRule","1.00"
"0.73","499","GKLRule","1.00"
"0.73","499","DasRule","1.00"
"0.73","499","DavisRule","1.00"
"0.73","499","BestKozaRule","1.00"
"0.73","999","GKLRule","1.00"
"0.73","999","DasRule","1.00"
"0.73","999","DavisRule","1.00"
"0.73","999","BestKozaRule","1.00"
"0.74","149","GKLRule","1.00"
"0.74","149","DasRule","1.00"
"0.74","149","DavisRule","1.00"
"0.74","149","BestKozaRule","1.00"
"0.74","499","GKLRule","1.00"
"0.74","499","DasRule","1.00"
"0.74","499","DavisRule","1.00"
"0.74","499","BestKozaRule","1.00"
"0.74","999","GKLRule","1.00"
"0.74","999","DasRule","1.00"
"0.74","999","DavisRule","1.00"
"0.74","999","BestKozaRule","1.00"
"0.75","149","GKLRule","1.00"
"0.75","149","DasRule","1.00"
"0.75","149","DavisRule","1.00"
"0.75","149","BestKozaRule","1.00"
"0.75","499","GKLRule","1.00"
"0.75","499","DasRule","1.00"
"0.75","499","DavisRule","1.00"
"0.75","499","BestKozaRule","1.00"
"0.75","999","GKLRule","1.00"
"0.75","999","DasRule","1.00"
"0.75","999","DavisRule","1.00"
"0.75","999","BestKozaRule","1.00"
"0.76","149","GKLRule","1.00"
"0.76","149","DasRule","1.00"
"0.76","149","DavisRule","1.00"
"0.76","149","BestKozaRule","1.00"
"0.76","499","GKLRule","1.00"
"0.76","499","DasRule","1.00"
"0.76","499","DavisRule","1.00"
"0.76","499","BestKozaRule","1.00"
"0.76","999","GKLRule","1.00"
"0.76","999","DasRule","1.00"
"0.76","999","DavisRule","1.00"
"0.76","999","BestKozaRule","1.00"
"0.77","149","GKLRule","1.00"
"0.77","149","DasRule","1.00"
"0.77","149","DavisRule","1.00"
"0.77","149","BestKozaRule","1.00"
"0.77","499","GKLRule","1.00"
"0.77","499","DasRule","1.00"
"0.77","499","DavisRule","1.00"
"0.77","499","BestKozaRule","1.00"
"0.77","999","GKLRule","1.00"
"0.77","999","DasRule","1.00"
"0.77","999","DavisRule","1.00"
"0.77","999","BestKozaRule","1.00"
"0.78","149","GKLRule","1.00"
"0.78","149","DasRule","1.00"
"0.78","149","DavisRule","1.00"
"0.78","149","BestKozaRule","1.00"
"0.78","499","GKLRule","1.00"
"0.78","499","DasRule","1.00"
"0.78","499","DavisRule","1.00"
"0.78","499","BestKozaRule","1.00"
"0.78","999","GKLRule","1.00"
"0.78","999","DasRule","1.00"
"0.78","999","DavisRule","1.00"
"0.78","999","BestKozaRule","1.00"
"0.79","149","GKLRule","1.00"
"0.79","149","DasRule","1.00"
"0.79","149","DavisRule","1.00"
"0.79","149","BestKozaRule","1.00"
"0.79","499","GKLRule","1.00"
"0.79","499","DasRule","1.00"
"0.79","499","DavisRule","1.00"
"0.79","499","BestKozaRule","1.00"
"0.79","999","GKLRule","1.00"
"0.79","999","DasRule","1.00"
"0.79","999","DavisRule","1.00"
"0.79","999","BestKozaRule","1.00"
"0.80","149","GKLRule","1.00"
"0.80","149","DasRule","1.00"
"0.80","149","DavisRule","1.00"
"0.80","149","BestKozaRule","1.00"
"0.80","499","GKLRule","1.00"
"0.80","499","DasRule","1.00"
"0.80","499","DavisRule","1.00"
"0.80","499","BestKozaRule","1.00"
"0.80","999","GKLRule","1.00"
"0.80","999","DasRule","1.00"
"0.80","999","DavisRule","1.00"
"0.80","999","BestKozaRule","1.00"
"0.81","149","GKLRule","1.00"
"0.81","149","DasRule","1.00"
"0.81","149","DavisRule","1.00"
"0.81","149","BestKozaRule","1.00"
"0.81","499","GKLRule","1.00"
"0.81","499","DasRule","1.00"
"0.81","499","DavisRule","1.00"
"0.81","499","BestKozaRule","1.00"
"0.81","999","GKLRule","1.00"
"0.81","999","DasRule","1.00"
"0.81","999","DavisRule","1.00"
"0.81","999","BestKozaRule","1.00"
"0.82","149","GKLRule","1.00"
"0.82","149","DasRule","1.00"
"0.82","149","DavisRule","1.00"
"0.82","149","BestKozaRule","1.00"
"0.82","499","GKLRule","1.00"
"0.82","499","DasRule","1.00"
"0.82","499","DavisRule","1.00"
"0.82","499","BestKozaRule","1.00"
"0.82","999","GKLRule","1.00"
"0.82","999","DasRule","1.00"
"0.82","999","DavisRule","1.00"
"0.82","999","BestKozaRule","1.00"
"0.83","149","GKLRule","1.00"
"0.83","149","DasRule","1.00"
"0.83","149","DavisRule","1.00"
"0.83","149","BestKozaRule","1.00"
"0.83","499","GKLRule","1.00"
"0.83","499","DasRule","1.00"
"0.83","499","DavisRule","1.00"
"0.83","499","BestKozaRule","1.00"
"0.83","999","GKLRule","1.00"
"0.83","999","DasRule","1.00"
"0.83","999","DavisRule","1.00"
"0.83","999","BestKozaRule","1.00"
"0.84","149","GKLRule","1.00"
"0.84","149","DasRule","1.00"
"0.84","149","DavisRule","1.00"
"0.84","149","BestKozaRule","1.00"
"0.84","499","GKLRule","1.00"
"0.84","499","DasRule","1.00"
"0.84","499","DavisRule","1.00"
"0.84","499","BestKozaRule","1.00"
"0.84","999","GKLRule","1.00"
"0.84","999","DasRule","1.00"
"0.84","999","DavisRule","1.00"
"0.84","999","BestKozaRule","1.00"
"0.85","149","GKLRule","1.00"
"0.85","149","DasRule","1.00"
"0.85","149","DavisRule","1.00"
"0.85","149","BestKozaRule","1.00"
"0.85","499","GKLRule","1.00"
"0.85","499","DasRule","1.00"
"0.85","499","DavisRule","1.00"
"0.85","499","BestKozaRule","1.00"
"0.85","999","GKLRule","1.00"
"0.85","999","DasRule","1.00"
"0.85","999","DavisRule","1.00"
"0.85","999","BestKozaRule","1.00"
"0.86","149","GKLRule","1.00"
"0.86","149","DasRule","1.00"
"0.86","149","DavisRule","1.00"
"0.86","149","BestKozaRule","1.00"
"0.86","499","GKLRule","1.00"
"0.86","499","DasRule","1.00"
"0.86","499","DavisRule","1.00"
"0.86","499","BestKozaRule","1.00"
"0.86","999","GKLRule","1.00"
"0.86","999","DasRule","1.00"
"0.86","999","DavisRule","1.00"
"0.86","999","BestKozaRule","1.00"
"0.87","149","GKLRule","1.00"
"0.87","149","DasRule","1.00"
"0.87","149","DavisRule","1.00"
"0.87","149","BestKozaRule","1.00"
"0.87","499","GKLRule","1.00"
"0.87","499","DasRule","1.00"
"0.87","499","DavisRule","1.00"
"0.87","499","BestKozaRule","1.00"
"0.87","999","GKLRule","1.00"
"0.87","999","DasRule","1.00"
"0.87","999","DavisRule","1.00"
"0.87","999","BestKozaRule","1.00"
"0.88","149","GKLRule","1.00"
"0.88","149","DasRule","1.00"
"0.88","149","DavisRule","1.00"
"0.88","149","BestKozaRule","1.00"
"0.88","499","GKLRule","1.00"
"0.88","499","DasRule","1.00"
"0.88","499","DavisRule","1.00"
"0.88","499","BestKozaRule","1.00"
"0.88","999","GKLRule","1.00"
"0.88","999","DasRule","1.00"
"0.88","999","DavisRule","1.00"
"0.88","999","BestKozaRule","1.00"
"0.89","149","GKLRule","1.00"
"0.89","149","DasRule","1.00"
"0.89","149","DavisRule","1.00"
"0.89","149","BestKozaRule","1.00"
"0.89","499","GKLRule","1.00"
"0.89","499","DasRule","1.00"
"0.89","499","DavisRule","1.00"
"0.89","499","BestKozaRule","1.00"
"0.89","999","GKLRule","1.00"
"0.89","999","DasRule","1.00"
"0.89","999","DavisRule","1.00"
"0.89","999","BestKozaRule","1.00"
"0.90","149","GKLRule","1.00"
"0.90","149","DasRule","1.00"
"0.90","149","DavisRule","1.00"
"0.90","149","BestKozaRule","1.00"
"0.90","499","GKLRule","1.00"
"0.90","499","DasRule","1.00"
"0.90","499","DavisRule","1.00"
"0.90","499","BestKozaRule","1.00"
"0.90","999","GKLRule","1.00"
"0.90","999","DasRule","1.00"
"0.90","999","DavisRule","1.00"
"0.90","999","BestKozaRule","1.00"
"0.91","149","GKLRule","1.00"
"0.91","149","DasRule","1.00"
"0.91","149","DavisRule","1.00"
"0.91","149","BestKozaRule","1.00"
"0.91","499","GKLRule","1.00"
"0.91","499","DasRule","1.00"
"0.91","499","DavisRule","1.00"
"0.91","499","BestKozaRule","1.00"
"0.91","999","GKLRule","1.00"
"0.91","999","DasRule","1.00"
"0.91","999","DavisRule","1.00"
"0.91","999","BestKozaRule","1.00"
"0.92","149","GKLRule","1.00"
"0.92","149","DasRule","1.00"
"0.92","149","DavisRule","1.00"
"0.92","149","BestKozaRule","1.00"
"0.92","499","GKLRule","1.00"
"0.92","499","DasRule","1.00"
"0.92","499","DavisRule","1.00"
"0.92","499","BestKozaRule","1.00"
"0.92","999","GKLRule","1.00"
"0.92","999","DasRule","1.00"
"0.92","999","DavisRule","1.00"
"0.92","999","BestKozaRule","1.00"
"0.93","149","GKLRule","1.00"
"0.93","149","DasRule","1.00"
"0.93","149","DavisRule","1.00"
"0.93","149","BestKozaRule","1.00"
"0.93","499","GKLRule","1.00"
"0.93","499","DasRule","1.00"
"0.93","499","DavisRule","1.00"
"0.93","499","BestKozaRule","1.00"
"0.93","999","GKLRule","1.00"
"0.93","999","DasRule","1.00"
"0.93","999","DavisRule","1.00"
"0.93","999","BestKozaRule","1.00"
"0.94","149","GKLRule","1.00"
"0.94","149","DasRule","1.00"
"0.94","149","DavisRule","1.00"
"0.94","149","BestKozaRule","1.00"
"0.94","499","GKLRule","1.00"
"0.94","499","DasRule","1.00"
"0.94","499","DavisRule","1.00"
"0.94","499","BestKozaRule","1.00"
"0.94","999","GKLRule","1.00"
"0.94","999","DasRule","1.00"
"0.94","999","DavisRule","1.00"
"0.94","999","BestKozaRule","1.00"
"0.95","149","GKLRule","1.00"
"0.95","149","DasRule","1.00"
"0.95","149","DavisRule","1.00"
"0.95","149","BestKozaRule","1.00"
"0.95","499","GKLRule","1.00"
"0.95","499","DasRule","1.00"
"0.95","499","DavisRule","1.00"
"0.95","499","BestKozaRule","1.00"
"0.95","999","GKLRule","1.00"
"0.95","999","DasRule","1.00"
"0.95","999","DavisRule","1.00"
"0.95","999","BestKozaRule","1.00"
"0.96","149","GKLRule","1.00"
"0.96","149","DasRule","1.00"
"0.96","149","DavisRule","1.00"
"0.96","149","BestKozaRule","1.00"
"0.96","499","GKLRule","1.00"
"0.96","499","DasRule","1.00"
"0.96","499","DavisRule","1.00"
"0.96","499","BestKozaRule","1.00"
"0.96","999","GKLRule","1.00"
"0.96","999","DasRule","1.00"
"0.96","999","DavisRule","1.00"
"0.96","999","BestKozaRule","1.00"
"0.97","149","GKLRule","1.00"
"0.97","149","DasRule","1.00"
"0.97","149","DavisRule","1.00"
"0.97","149","BestKozaRule","1.00"
"0.97","499","GKLRule","1.00"
"0.97","499","DasRule","1.00"
"0.97","499","DavisRule","1.00"
"0.97","499","BestKozaRule","1.00"
"0.97","999","GKLRule","1.00"
"0.97","999","DasRule","1.00"
"0.97","999","DavisRule","1.00"
"0.97","999","BestKozaRule","1.00"
"0.98","149","GKLRule","1.00"
"0.98","149","DasRule","1.00"
"0.98","149","DavisRule","1.00"
"0.98","149","BestKozaRule","1.00"
"0.98","499","GKLRule","1.00"
"0.98","499","DasRule","1.00"
"0.98","499","DavisRule","1.00"
"0.98","499","BestKozaRule","1.00"
"0.98","999","GKLRule","1.00"
"0.98","999","DasRule","1.00"
"0.98","999","DavisRule","1.00"
"0.98","999","BestKozaRule","1.00"
"0.99","149","GKLRule","1.00"
"0.99","149","DasRule","1.00"
"0.99","149","DavisRule","1.00"
"0.99","149","BestKozaRule","1.00"
"0.99","499","GKLRule","1.00"
"0.99","499","DasRule","1.00"
"0.99","499","DavisRule","1.00"
"0.99","499","BestKozaRule","1.00"
"0.99","999","GKLRule","1.00"
"0.99","999","DasRule","1.00"
"0.99","999","DavisRule","1.00"
"0.99","999","BestKozaRule","1.00"
