%!PS-Adobe-3.0 EPSF-3.0
%%DocumentNeededResources: font Helvetica
%%+ font Helvetica-Bold
%%+ font Helvetica-Oblique
%%+ font Helvetica-BoldOblique
%%+ font Symbol
%%Title: R Graphics Output
%%Creator: R Software
%%Pages: (atend)
%%BoundingBox: 0 0 479 317
%%EndComments
%%BeginProlog
/bp  { gs sRGB gs } def
% begin .ps.prolog
/gs  { gsave } bind def
/gr  { grestore } bind def
/ep  { showpage gr gr } bind def
/m   { moveto } bind def
/l  { rlineto } bind def
/np  { newpath } bind def
/cp  { closepath } bind def
/f   { fill } bind def
/o   { stroke } bind def
/c   { newpath 0 360 arc } bind def
/r   { 4 2 roll moveto 1 copy 3 -1 roll exch 0 exch rlineto 0 rlineto -1 mul 0 exch rlineto closepath } bind def
/p1  { stroke } bind def
/p2  { gsave bg fill grestore newpath } bind def
/p3  { gsave bg fill grestore stroke } bind def
/p6  { gsave bg eofill grestore newpath } bind def
/p7  { gsave bg eofill grestore stroke } bind def
/t   { 5 -2 roll moveto gsave rotate
       1 index stringwidth pop
       mul neg 0 rmoveto show grestore } bind def
/ta  { 4 -2 roll moveto gsave rotate show } bind def
/tb  { 2 -1 roll 0 rmoveto show } bind def
/cl  { grestore gsave newpath 3 index 3 index moveto 1 index
       4 -1 roll lineto  exch 1 index lineto lineto
       closepath clip newpath } bind def
/rgb { setrgbcolor } bind def
/s   { scalefont setfont } bind def
% end   .ps.prolog
/sRGB { [ /CIEBasedABC
          << /DecodeLMN
               [ { dup 0.03928 le
                        {12.92321 div}
                        {0.055 add 1.055 div 2.4 exp }
                     ifelse
                 } bind dup dup
               ]
             /MatrixLMN [0.412457 0.212673 0.019334
                         0.357576 0.715152 0.119192
                         0.180437 0.072175 0.950301]
             /WhitePoint [0.9505 1.0 1.0890]
           >>
         ] setcolorspace } bind def
/srgb { setcolor } bind def
%%IncludeResource: font Helvetica
/Helvetica findfont
dup length dict begin
  {1 index /FID ne {def} {pop pop} ifelse} forall
  /Encoding ISOLatin1Encoding def
  currentdict
  end
/Font1 exch definefont pop
%%IncludeResource: font Helvetica-Bold
/Helvetica-Bold findfont
dup length dict begin
  {1 index /FID ne {def} {pop pop} ifelse} forall
  /Encoding ISOLatin1Encoding def
  currentdict
  end
/Font2 exch definefont pop
%%IncludeResource: font Helvetica-Oblique
/Helvetica-Oblique findfont
dup length dict begin
  {1 index /FID ne {def} {pop pop} ifelse} forall
  /Encoding ISOLatin1Encoding def
  currentdict
  end
/Font3 exch definefont pop
%%IncludeResource: font Helvetica-BoldOblique
/Helvetica-BoldOblique findfont
dup length dict begin
  {1 index /FID ne {def} {pop pop} ifelse} forall
  /Encoding ISOLatin1Encoding def
  currentdict
  end
/Font4 exch definefont pop
%%IncludeResource: font Symbol
/Symbol findfont
dup length dict begin
  {1 index /FID ne {def} {pop pop} ifelse} forall
  currentdict
  end
/Font5 exch definefont pop
%%EndProlog
%%Page: 1 1
bp
0.00 0.00 479.25 317.25 cl
0.00 0.00 479.25 317.25 cl
/bg { 1 1 1 srgb } def
1 1 1 srgb
1.06 setlinewidth
[] 0 setdash
1 setlinecap
1 setlinejoin
10.00 setmiterlimit
0.00 -0.00 479.25 317.25 r p3
0.00 0.00 479.25 317.25 cl
48.79 216.62 333.05 302.85 cl
/bg { 0.8980 0.8980 0.8980 srgb } def
48.79 216.62 284.26 86.23 r p2
0.9490 0.9490 0.9490 srgb
0.53 setlinewidth
[] 0 setdash
0 setlinecap
1 setlinejoin
10.00 setmiterlimit
np
48.79 222.72 m
284.26 0 l
o
np
48.79 244.50 m
284.26 0 l
o
np
48.79 266.27 m
284.26 0 l
o
np
48.79 288.04 m
284.26 0 l
o
np
94.34 216.62 m
0 86.23 l
o
np
159.59 216.62 m
0 86.23 l
o
np
224.85 216.62 m
0 86.23 l
o
np
290.11 216.62 m
0 86.23 l
o
1 1 1 srgb
1.06 setlinewidth
[] 0 setdash
np
48.79 233.61 m
284.26 0 l
o
np
48.79 255.38 m
284.26 0 l
o
np
48.79 277.16 m
284.26 0 l
o
np
48.79 298.93 m
284.26 0 l
o
np
61.71 216.62 m
0 86.23 l
o
np
126.97 216.62 m
0 86.23 l
o
np
192.22 216.62 m
0 86.23 l
o
np
257.48 216.62 m
0 86.23 l
o
np
322.74 216.62 m
0 86.23 l
o
0.9725 0.4627 0.4275 srgb
1.00 setmiterlimit
np
61.71 298.93 m
2.61 0 l
2.61 0 l
2.61 0 l
2.61 0 l
2.61 0 l
2.61 0 l
2.61 0 l
2.61 0 l
2.61 0 l
2.61 0 l
2.61 0 l
2.61 0 l
2.61 0 l
2.61 0 l
2.61 0 l
2.61 0 l
2.61 0 l
2.61 0 l
2.61 0 l
2.61 0 l
2.61 0 l
2.62 0 l
2.61 0 l
2.61 0 l
2.61 0 l
2.61 0 l
2.61 0 l
2.61 0 l
2.61 0 l
2.61 0 l
2.61 0 l
2.61 0 l
2.61 0 l
2.61 0 l
2.61 0 l
2.61 0 l
2.61 0 l
2.61 0 l
2.61 0 l
2.61 0 l
2.61 0 l
2.61 -0.87 l
2.61 -1.74 l
2.61 -1.74 l
2.61 -2.62 l
2.61 -3.48 l
2.61 -2.61 l
2.61 -4.36 l
2.61 -3.48 l
2.61 0 l
2.61 0.87 l
2.61 1.74 l
2.61 3.48 l
2.62 3.49 l
2.61 4.35 l
2.61 1.74 l
2.61 1.75 l
2.61 1.74 l
2.61 0.87 l
2.61 0 l
2.61 0.87 l
2.61 0 l
2.61 0 l
2.61 0 l
2.61 0 l
2.61 0 l
2.61 0 l
2.61 0 l
2.61 0 l
2.61 0 l
2.61 0 l
2.61 0 l
2.61 0 l
2.61 0 l
2.61 0 l
2.61 0 l
2.61 0 l
2.61 0 l
2.61 0 l
2.61 0 l
2.61 0 l
2.61 0 l
2.61 0 l
2.61 0 l
2.62 0 l
2.61 0 l
2.61 0 l
2.61 0 l
2.61 0 l
2.61 0 l
2.61 0 l
2.61 0 l
2.61 0 l
2.61 0 l
2.61 0 l
2.61 0 l
2.61 0 l
2.61 0 l
2.61 0 l
o
0.4863 0.6824 0 srgb
np
61.71 298.93 m
2.61 0 l
2.61 0 l
2.61 0 l
2.61 0 l
2.61 0 l
2.61 0 l
2.61 0 l
2.61 0 l
2.61 0 l
2.61 0 l
2.61 0 l
2.61 0 l
2.61 0 l
2.61 0 l
2.61 0 l
2.61 0 l
2.61 0 l
2.61 0 l
2.61 0 l
2.61 0 l
2.61 0 l
2.62 0 l
2.61 0 l
2.61 0 l
2.61 0 l
2.61 0 l
2.61 0 l
2.61 0 l
2.61 0 l
2.61 0 l
2.61 0 l
2.61 0 l
2.61 0 l
2.61 0 l
2.61 0 l
2.61 0 l
2.61 0 l
2.61 0 l
2.61 0 l
2.61 0 l
2.61 -0.87 l
2.61 0 l
2.61 -1.74 l
2.61 -0.87 l
2.61 -1.75 l
2.61 -4.35 l
2.61 -4.35 l
2.61 -0.88 l
2.61 -2.61 l
2.61 -2.61 l
2.61 0 l
2.61 3.48 l
2.61 0 l
2.62 4.36 l
2.61 4.35 l
2.61 3.49 l
2.61 0 l
2.61 3.48 l
2.61 0 l
2.61 0.87 l
2.61 -0.87 l
2.61 0.87 l
2.61 0 l
2.61 0 l
2.61 0 l
2.61 0 l
2.61 0 l
2.61 0 l
2.61 0 l
2.61 0 l
2.61 0 l
2.61 0 l
2.61 0 l
2.61 0 l
2.61 0 l
2.61 0 l
2.61 0 l
2.61 0 l
2.61 0 l
2.61 0 l
2.61 0 l
2.61 0 l
2.61 0 l
2.61 0 l
2.62 0 l
2.61 0 l
2.61 0 l
2.61 0 l
2.61 0 l
2.61 0 l
2.61 0 l
2.61 0 l
2.61 0 l
2.61 0 l
2.61 0 l
2.61 0 l
2.61 0 l
2.61 0 l
2.61 0 l
o
0 0.7490 0.7686 srgb
np
61.71 298.93 m
2.61 0 l
2.61 0 l
2.61 0 l
2.61 0 l
2.61 0 l
2.61 0 l
2.61 0 l
2.61 0 l
2.61 0 l
2.61 0 l
2.61 0 l
2.61 0 l
2.61 0 l
2.61 0 l
2.61 0 l
2.61 0 l
2.61 0 l
2.61 0 l
2.61 0 l
2.61 0 l
2.61 0 l
2.62 0 l
2.61 0 l
2.61 0 l
2.61 0 l
2.61 0 l
2.61 0 l
2.61 0 l
2.61 0 l
2.61 0 l
2.61 0 l
2.61 0 l
2.61 0 l
2.61 0 l
2.61 0 l
2.61 0 l
2.61 0 l
2.61 0 l
2.61 0 l
2.61 0 l
2.61 -0.87 l
2.61 0 l
2.61 -1.74 l
2.61 -1.74 l
2.61 -1.75 l
2.61 -2.61 l
2.61 -4.35 l
2.61 -2.62 l
2.61 -2.61 l
2.61 -2.61 l
2.61 0 l
2.61 2.61 l
2.61 0.87 l
2.62 4.36 l
2.61 5.22 l
2.61 2.61 l
2.61 1.75 l
2.61 1.74 l
2.61 1.74 l
2.61 -0.87 l
2.61 0.87 l
2.61 0 l
2.61 0 l
2.61 0 l
2.61 0 l
2.61 0 l
2.61 0 l
2.61 0 l
2.61 0 l
2.61 0 l
2.61 0 l
2.61 0 l
2.61 0 l
2.61 0 l
2.61 0 l
2.61 0 l
2.61 0 l
2.61 0 l
2.61 0 l
2.61 0 l
2.61 0 l
2.61 0 l
2.61 0 l
2.61 0 l
2.62 0 l
2.61 0 l
2.61 0 l
2.61 0 l
2.61 0 l
2.61 0 l
2.61 0 l
2.61 0 l
2.61 0 l
2.61 0 l
2.61 0 l
2.61 0 l
2.61 0 l
2.61 0 l
2.61 0 l
o
0.7804 0.4863 1 srgb
np
61.71 298.93 m
2.61 0 l
2.61 0 l
2.61 0 l
2.61 0 l
2.61 0 l
2.61 0 l
2.61 0 l
2.61 0 l
2.61 0 l
2.61 0 l
2.61 0 l
2.61 0 l
2.61 0 l
2.61 0 l
2.61 0 l
2.61 0 l
2.61 0 l
2.61 0 l
2.61 0 l
2.61 0 l
2.61 0 l
2.62 0 l
2.61 0 l
2.61 0 l
2.61 0 l
2.61 0 l
2.61 0 l
2.61 0 l
2.61 0 l
2.61 0 l
2.61 0 l
2.61 0 l
2.61 0 l
2.61 0 l
2.61 0 l
2.61 0 l
2.61 0 l
2.61 0 l
2.61 0 l
2.61 0 l
2.61 -0.87 l
2.61 0 l
2.61 -1.74 l
2.61 -0.87 l
2.61 -2.62 l
2.61 -3.48 l
2.61 -3.48 l
2.61 -4.36 l
2.61 -2.61 l
2.61 -0.87 l
2.61 0 l
2.61 0.87 l
2.61 4.35 l
2.62 1.75 l
2.61 6.09 l
2.61 3.49 l
2.61 0 l
2.61 2.61 l
2.61 0.87 l
2.61 0 l
2.61 0.87 l
2.61 0 l
2.61 0 l
2.61 0 l
2.61 0 l
2.61 0 l
2.61 0 l
2.61 0 l
2.61 0 l
2.61 0 l
2.61 0 l
2.61 0 l
2.61 0 l
2.61 0 l
2.61 0 l
2.61 0 l
2.61 0 l
2.61 0 l
2.61 0 l
2.61 0 l
2.61 0 l
2.61 0 l
2.61 0 l
2.61 0 l
2.62 0 l
2.61 0 l
2.61 0 l
2.61 0 l
2.61 0 l
2.61 0 l
2.61 0 l
2.61 0 l
2.61 0 l
2.61 0 l
2.61 0 l
2.61 0 l
2.61 0 l
2.61 0 l
2.61 0 l
o
0.00 0.00 479.25 317.25 cl
48.79 126.80 333.05 213.02 cl
/bg { 0.8980 0.8980 0.8980 srgb } def
48.79 126.80 284.26 86.23 r p2
0.9490 0.9490 0.9490 srgb
0.53 setlinewidth
[] 0 setdash
0 setlinecap
1 setlinejoin
10.00 setmiterlimit
np
48.79 132.90 m
284.26 0 l
o
np
48.79 154.67 m
284.26 0 l
o
np
48.79 176.44 m
284.26 0 l
o
np
48.79 198.22 m
284.26 0 l
o
np
94.34 126.80 m
0 86.22 l
o
np
159.59 126.80 m
0 86.22 l
o
np
224.85 126.80 m
0 86.22 l
o
np
290.11 126.80 m
0 86.22 l
o
1 1 1 srgb
1.06 setlinewidth
[] 0 setdash
np
48.79 143.78 m
284.26 0 l
o
np
48.79 165.56 m
284.26 0 l
o
np
48.79 187.33 m
284.26 0 l
o
np
48.79 209.11 m
284.26 0 l
o
np
61.71 126.80 m
0 86.22 l
o
np
126.97 126.80 m
0 86.22 l
o
np
192.22 126.80 m
0 86.22 l
o
np
257.48 126.80 m
0 86.22 l
o
np
322.74 126.80 m
0 86.22 l
o
0.9725 0.4627 0.4275 srgb
1.00 setmiterlimit
np
61.71 209.11 m
2.61 0 l
2.61 0 l
2.61 0 l
2.61 0 l
2.61 0 l
2.61 0 l
2.61 0 l
2.61 0 l
2.61 0 l
2.61 0 l
2.61 0 l
2.61 0 l
2.61 0 l
2.61 0 l
2.61 0 l
2.61 0 l
2.61 0 l
2.61 0 l
2.61 0 l
2.61 0 l
2.61 0 l
2.62 0 l
2.61 0 l
2.61 0 l
2.61 0 l
2.61 0 l
2.61 0 l
2.61 0 l
2.61 0 l
2.61 0 l
2.61 0 l
2.61 0 l
2.61 0 l
2.61 0 l
2.61 0 l
2.61 0 l
2.61 0 l
2.61 0 l
2.61 -0.88 l
2.61 0 l
2.61 0 l
2.61 -0.87 l
2.61 0.87 l
2.61 -2.61 l
2.61 -3.48 l
2.61 -5.23 l
2.61 -8.71 l
2.61 -13.06 l
2.61 -8.71 l
2.61 -4.36 l
2.61 -1.74 l
2.61 12.20 l
2.61 14.80 l
2.62 6.97 l
2.61 6.97 l
2.61 4.35 l
2.61 0.87 l
2.61 0.87 l
2.61 0.87 l
2.61 0.88 l
2.61 0 l
2.61 0 l
2.61 0 l
2.61 0 l
2.61 0 l
2.61 0 l
2.61 0 l
2.61 0 l
2.61 0 l
2.61 0 l
2.61 0 l
2.61 0 l
2.61 0 l
2.61 0 l
2.61 0 l
2.61 0 l
2.61 0 l
2.61 0 l
2.61 0 l
2.61 0 l
2.61 0 l
2.61 0 l
2.61 0 l
2.61 0 l
2.62 0 l
2.61 0 l
2.61 0 l
2.61 0 l
2.61 0 l
2.61 0 l
2.61 0 l
2.61 0 l
2.61 0 l
2.61 0 l
2.61 0 l
2.61 0 l
2.61 0 l
2.61 0 l
2.61 0 l
o
0.4863 0.6824 0 srgb
np
61.71 209.11 m
2.61 0 l
2.61 0 l
2.61 0 l
2.61 0 l
2.61 0 l
2.61 0 l
2.61 0 l
2.61 0 l
2.61 0 l
2.61 0 l
2.61 0 l
2.61 0 l
2.61 0 l
2.61 0 l
2.61 0 l
2.61 0 l
2.61 0 l
2.61 0 l
2.61 0 l
2.61 0 l
2.61 0 l
2.62 0 l
2.61 0 l
2.61 0 l
2.61 0 l
2.61 0 l
2.61 0 l
2.61 0 l
2.61 0 l
2.61 0 l
2.61 0 l
2.61 0 l
2.61 0 l
2.61 0 l
2.61 0 l
2.61 0 l
2.61 0 l
2.61 0 l
2.61 0 l
2.61 0 l
2.61 0 l
2.61 0 l
2.61 -0.88 l
2.61 -2.61 l
2.61 -2.61 l
2.61 -5.23 l
2.61 -9.58 l
2.61 -14.80 l
2.61 -9.58 l
2.61 0 l
2.61 -0.88 l
2.61 8.71 l
2.61 14.81 l
2.62 6.97 l
2.61 6.97 l
2.61 4.35 l
2.61 2.61 l
2.61 0.87 l
2.61 0.88 l
2.61 0 l
2.61 0 l
2.61 0 l
2.61 0 l
2.61 0 l
2.61 0 l
2.61 0 l
2.61 0 l
2.61 0 l
2.61 0 l
2.61 0 l
2.61 0 l
2.61 0 l
2.61 0 l
2.61 0 l
2.61 0 l
2.61 0 l
2.61 0 l
2.61 0 l
2.61 0 l
2.61 0 l
2.61 0 l
2.61 0 l
2.61 0 l
2.61 0 l
2.62 0 l
2.61 0 l
2.61 0 l
2.61 0 l
2.61 0 l
2.61 0 l
2.61 0 l
2.61 0 l
2.61 0 l
2.61 0 l
2.61 0 l
2.61 0 l
2.61 0 l
2.61 0 l
2.61 0 l
o
0 0.7490 0.7686 srgb
np
61.71 209.11 m
2.61 0 l
2.61 0 l
2.61 0 l
2.61 0 l
2.61 0 l
2.61 0 l
2.61 0 l
2.61 0 l
2.61 0 l
2.61 0 l
2.61 0 l
2.61 0 l
2.61 0 l
2.61 0 l
2.61 0 l
2.61 0 l
2.61 0 l
2.61 0 l
2.61 0 l
2.61 0 l
2.61 0 l
2.62 0 l
2.61 0 l
2.61 0 l
2.61 0 l
2.61 0 l
2.61 0 l
2.61 0 l
2.61 0 l
2.61 0 l
2.61 0 l
2.61 0 l
2.61 0 l
2.61 0 l
2.61 0 l
2.61 0 l
2.61 0 l
2.61 0 l
2.61 0 l
2.61 0 l
2.61 0 l
2.61 -0.88 l
2.61 0 l
2.61 -1.74 l
2.61 -4.35 l
2.61 -4.36 l
2.61 -11.32 l
2.61 -11.32 l
2.61 -11.32 l
2.61 -0.88 l
2.61 -1.74 l
2.61 12.20 l
2.61 13.93 l
2.62 6.97 l
2.61 6.97 l
2.61 4.35 l
2.61 1.74 l
2.61 0.87 l
2.61 0.88 l
2.61 0 l
2.61 0 l
2.61 0 l
2.61 0 l
2.61 0 l
2.61 0 l
2.61 0 l
2.61 0 l
2.61 0 l
2.61 0 l
2.61 0 l
2.61 0 l
2.61 0 l
2.61 0 l
2.61 0 l
2.61 0 l
2.61 0 l
2.61 0 l
2.61 0 l
2.61 0 l
2.61 0 l
2.61 0 l
2.61 0 l
2.61 0 l
2.61 0 l
2.62 0 l
2.61 0 l
2.61 0 l
2.61 0 l
2.61 0 l
2.61 0 l
2.61 0 l
2.61 0 l
2.61 0 l
2.61 0 l
2.61 0 l
2.61 0 l
2.61 0 l
2.61 0 l
2.61 0 l
o
0.7804 0.4863 1 srgb
np
61.71 209.11 m
2.61 0 l
2.61 0 l
2.61 0 l
2.61 0 l
2.61 0 l
2.61 0 l
2.61 0 l
2.61 0 l
2.61 0 l
2.61 0 l
2.61 0 l
2.61 0 l
2.61 0 l
2.61 0 l
2.61 0 l
2.61 0 l
2.61 0 l
2.61 0 l
2.61 0 l
2.61 0 l
2.61 0 l
2.62 0 l
2.61 0 l
2.61 0 l
2.61 0 l
2.61 0 l
2.61 0 l
2.61 0 l
2.61 0 l
2.61 0 l
2.61 0 l
2.61 0 l
2.61 0 l
2.61 0 l
2.61 0 l
2.61 0 l
2.61 0 l
2.61 0 l
2.61 0 l
2.61 0 l
2.61 0 l
2.61 -0.88 l
2.61 0 l
2.61 -3.48 l
2.61 -4.35 l
2.61 -2.62 l
2.61 -10.45 l
2.61 -12.19 l
2.61 -12.20 l
2.61 -2.61 l
2.61 0.87 l
2.61 6.97 l
2.61 14.81 l
2.62 10.45 l
2.61 6.97 l
2.61 5.22 l
2.61 1.74 l
2.61 0.87 l
2.61 0.88 l
2.61 0 l
2.61 0 l
2.61 0 l
2.61 0 l
2.61 0 l
2.61 0 l
2.61 0 l
2.61 0 l
2.61 0 l
2.61 0 l
2.61 0 l
2.61 0 l
2.61 0 l
2.61 0 l
2.61 0 l
2.61 0 l
2.61 0 l
2.61 0 l
2.61 0 l
2.61 0 l
2.61 0 l
2.61 0 l
2.61 0 l
2.61 0 l
2.61 0 l
2.62 0 l
2.61 0 l
2.61 0 l
2.61 0 l
2.61 0 l
2.61 0 l
2.61 0 l
2.61 0 l
2.61 0 l
2.61 0 l
2.61 0 l
2.61 0 l
2.61 0 l
2.61 0 l
2.61 0 l
o
0.00 0.00 479.25 317.25 cl
48.79 36.97 333.05 123.20 cl
/bg { 0.8980 0.8980 0.8980 srgb } def
48.79 36.97 284.26 86.23 r p2
0.9490 0.9490 0.9490 srgb
0.53 setlinewidth
[] 0 setdash
0 setlinecap
1 setlinejoin
10.00 setmiterlimit
np
48.79 43.07 m
284.26 0 l
o
np
48.79 64.85 m
284.26 0 l
o
np
48.79 86.62 m
284.26 0 l
o
np
48.79 108.39 m
284.26 0 l
o
np
94.34 36.97 m
0 86.23 l
o
np
159.59 36.97 m
0 86.23 l
o
np
224.85 36.97 m
0 86.23 l
o
np
290.11 36.97 m
0 86.23 l
o
1 1 1 srgb
1.06 setlinewidth
[] 0 setdash
np
48.79 53.96 m
284.26 0 l
o
np
48.79 75.73 m
284.26 0 l
o
np
48.79 97.51 m
284.26 0 l
o
np
48.79 119.28 m
284.26 0 l
o
np
61.71 36.97 m
0 86.23 l
o
np
126.97 36.97 m
0 86.23 l
o
np
192.22 36.97 m
0 86.23 l
o
np
257.48 36.97 m
0 86.23 l
o
np
322.74 36.97 m
0 86.23 l
o
0.9725 0.4627 0.4275 srgb
1.00 setmiterlimit
np
61.71 119.28 m
2.61 0 l
2.61 0 l
2.61 0 l
2.61 0 l
2.61 0 l
2.61 0 l
2.61 0 l
2.61 0 l
2.61 0 l
2.61 0 l
2.61 0 l
2.61 0 l
2.61 0 l
2.61 0 l
2.61 0 l
2.61 0 l
2.61 0 l
2.61 0 l
2.61 0 l
2.61 0 l
2.61 0 l
2.62 0 l
2.61 0 l
2.61 0 l
2.61 0 l
2.61 0 l
2.61 0 l
2.61 0 l
2.61 0 l
2.61 0 l
2.61 0 l
2.61 0 l
2.61 0 l
2.61 0 l
2.61 0 l
2.61 0 l
2.61 0 l
2.61 0 l
2.61 0 l
2.61 -0.87 l
2.61 -0.87 l
2.61 -0.87 l
2.61 -1.74 l
2.61 -5.23 l
2.61 -9.58 l
2.61 -10.45 l
2.61 -15.68 l
2.61 -17.42 l
2.61 -10.45 l
2.61 -3.48 l
2.61 1.74 l
2.61 12.19 l
2.61 15.68 l
2.62 16.55 l
2.61 10.45 l
2.61 7.84 l
2.61 6.96 l
2.61 2.62 l
2.61 1.74 l
2.61 0 l
2.61 0.87 l
2.61 0 l
2.61 0 l
2.61 0 l
2.61 0 l
2.61 0 l
2.61 0 l
2.61 0 l
2.61 0 l
2.61 0 l
2.61 0 l
2.61 0 l
2.61 0 l
2.61 0 l
2.61 0 l
2.61 0 l
2.61 0 l
2.61 0 l
2.61 0 l
2.61 0 l
2.61 0 l
2.61 0 l
2.61 0 l
2.61 0 l
2.62 0 l
2.61 0 l
2.61 0 l
2.61 0 l
2.61 0 l
2.61 0 l
2.61 0 l
2.61 0 l
2.61 0 l
2.61 0 l
2.61 0 l
2.61 0 l
2.61 0 l
2.61 0 l
2.61 0 l
o
0.4863 0.6824 0 srgb
np
61.71 119.28 m
2.61 0 l
2.61 0 l
2.61 0 l
2.61 0 l
2.61 0 l
2.61 0 l
2.61 0 l
2.61 0 l
2.61 0 l
2.61 0 l
2.61 0 l
2.61 0 l
2.61 0 l
2.61 0 l
2.61 0 l
2.61 0 l
2.61 0 l
2.61 0 l
2.61 0 l
2.61 0 l
2.61 0 l
2.62 0 l
2.61 0 l
2.61 0 l
2.61 0 l
2.61 0 l
2.61 0 l
2.61 0 l
2.61 0 l
2.61 0 l
2.61 0 l
2.61 0 l
2.61 0 l
2.61 0 l
2.61 0 l
2.61 0 l
2.61 0 l
2.61 0 l
2.61 0 l
2.61 0 l
2.61 -0.87 l
2.61 -0.87 l
2.61 -3.49 l
2.61 -3.48 l
2.61 -8.71 l
2.61 -12.19 l
2.61 -16.55 l
2.61 -12.19 l
2.61 -16.55 l
2.61 -1.74 l
2.61 1.74 l
2.61 12.19 l
2.61 16.55 l
2.62 16.55 l
2.61 9.58 l
2.61 9.58 l
2.61 6.10 l
2.61 2.61 l
2.61 0.87 l
2.61 0.87 l
2.61 0 l
2.61 0 l
2.61 0 l
2.61 0 l
2.61 0 l
2.61 0 l
2.61 0 l
2.61 0 l
2.61 0 l
2.61 0 l
2.61 0 l
2.61 0 l
2.61 0 l
2.61 0 l
2.61 0 l
2.61 0 l
2.61 0 l
2.61 0 l
2.61 0 l
2.61 0 l
2.61 0 l
2.61 0 l
2.61 0 l
2.61 0 l
2.62 0 l
2.61 0 l
2.61 0 l
2.61 0 l
2.61 0 l
2.61 0 l
2.61 0 l
2.61 0 l
2.61 0 l
2.61 0 l
2.61 0 l
2.61 0 l
2.61 0 l
2.61 0 l
2.61 0 l
o
0 0.7490 0.7686 srgb
np
61.71 119.28 m
2.61 0 l
2.61 0 l
2.61 0 l
2.61 0 l
2.61 0 l
2.61 0 l
2.61 0 l
2.61 0 l
2.61 0 l
2.61 0 l
2.61 0 l
2.61 0 l
2.61 0 l
2.61 0 l
2.61 0 l
2.61 0 l
2.61 0 l
2.61 0 l
2.61 0 l
2.61 0 l
2.61 0 l
2.62 0 l
2.61 0 l
2.61 0 l
2.61 0 l
2.61 0 l
2.61 0 l
2.61 0 l
2.61 0 l
2.61 0 l
2.61 0 l
2.61 0 l
2.61 0 l
2.61 0 l
2.61 0 l
2.61 0 l
2.61 0 l
2.61 0 l
2.61 0 l
2.61 0 l
2.61 -0.87 l
2.61 -0.87 l
2.61 -1.74 l
2.61 -4.36 l
2.61 -8.71 l
2.61 -12.19 l
2.61 -14.81 l
2.61 -15.68 l
2.61 -15.67 l
2.61 -1.74 l
2.61 1.74 l
2.61 13.06 l
2.61 14.81 l
2.62 19.16 l
2.61 8.71 l
2.61 9.58 l
2.61 6.10 l
2.61 1.74 l
2.61 0.87 l
2.61 0.87 l
2.61 0 l
2.61 0 l
2.61 0 l
2.61 0 l
2.61 0 l
2.61 0 l
2.61 0 l
2.61 0 l
2.61 0 l
2.61 0 l
2.61 0 l
2.61 0 l
2.61 0 l
2.61 0 l
2.61 0 l
2.61 0 l
2.61 0 l
2.61 0 l
2.61 0 l
2.61 0 l
2.61 0 l
2.61 0 l
2.61 0 l
2.61 0 l
2.62 0 l
2.61 0 l
2.61 0 l
2.61 0 l
2.61 0 l
2.61 0 l
2.61 0 l
2.61 0 l
2.61 0 l
2.61 0 l
2.61 0 l
2.61 0 l
2.61 0 l
2.61 0 l
2.61 0 l
o
0.7804 0.4863 1 srgb
np
61.71 119.28 m
2.61 0 l
2.61 0 l
2.61 0 l
2.61 0 l
2.61 0 l
2.61 0 l
2.61 0 l
2.61 0 l
2.61 0 l
2.61 0 l
2.61 0 l
2.61 0 l
2.61 0 l
2.61 0 l
2.61 0 l
2.61 0 l
2.61 0 l
2.61 0 l
2.61 0 l
2.61 0 l
2.61 0 l
2.62 0 l
2.61 0 l
2.61 0 l
2.61 0 l
2.61 0 l
2.61 0 l
2.61 0 l
2.61 0 l
2.61 0 l
2.61 0 l
2.61 0 l
2.61 0 l
2.61 0 l
2.61 0 l
2.61 0 l
2.61 0 l
2.61 0 l
2.61 0 l
2.61 0 l
2.61 -0.87 l
2.61 -0.87 l
2.61 -3.49 l
2.61 -4.35 l
2.61 -8.71 l
2.61 -15.68 l
2.61 -13.06 l
2.61 -13.94 l
2.61 -13.06 l
2.61 -4.36 l
2.61 3.49 l
2.61 12.19 l
2.61 13.94 l
2.62 15.67 l
2.61 11.33 l
2.61 9.58 l
2.61 6.96 l
2.61 2.62 l
2.61 0.87 l
2.61 1.74 l
2.61 0 l
2.61 0 l
2.61 0 l
2.61 0 l
2.61 0 l
2.61 0 l
2.61 0 l
2.61 0 l
2.61 0 l
2.61 0 l
2.61 0 l
2.61 0 l
2.61 0 l
2.61 0 l
2.61 0 l
2.61 0 l
2.61 0 l
2.61 0 l
2.61 0 l
2.61 0 l
2.61 0 l
2.61 0 l
2.61 0 l
2.61 0 l
2.62 0 l
2.61 0 l
2.61 0 l
2.61 0 l
2.61 0 l
2.61 0 l
2.61 0 l
2.61 0 l
2.61 0 l
2.61 0 l
2.61 0 l
2.61 0 l
2.61 0 l
2.61 0 l
2.61 0 l
o
0.00 0.00 479.25 317.25 cl
0.00 0.00 479.25 317.25 cl
0.00 0.00 479.25 317.25 cl
/Font1 findfont 10 s
0.4980 0.4980 0.4980 srgb
41.70 230.02 (0.25) 1 0 t
41.70 251.79 (0.50) 1 0 t
41.70 273.57 (0.75) 1 0 t
41.70 295.34 (1.00) 1 0 t
0.00 0.00 479.25 317.25 cl
0.00 0.00 479.25 317.25 cl
0.4980 0.4980 0.4980 srgb
1.06 setlinewidth
[] 0 setdash
0 setlinecap
1 setlinejoin
10.00 setmiterlimit
np
44.54 233.61 m
4.25 0 l
o
np
44.54 255.38 m
4.25 0 l
o
np
44.54 277.16 m
4.25 0 l
o
np
44.54 298.93 m
4.25 0 l
o
0.00 0.00 479.25 317.25 cl
0.00 0.00 479.25 317.25 cl
0.00 0.00 479.25 317.25 cl
0.00 0.00 479.25 317.25 cl
0.00 0.00 479.25 317.25 cl
0.00 0.00 479.25 317.25 cl
/Font1 findfont 10 s
0.4980 0.4980 0.4980 srgb
41.70 140.19 (0.25) 1 0 t
41.70 161.97 (0.50) 1 0 t
41.70 183.74 (0.75) 1 0 t
41.70 205.52 (1.00) 1 0 t
0.00 0.00 479.25 317.25 cl
0.00 0.00 479.25 317.25 cl
0.4980 0.4980 0.4980 srgb
1.06 setlinewidth
[] 0 setdash
0 setlinecap
1 setlinejoin
10.00 setmiterlimit
np
44.54 143.78 m
4.25 0 l
o
np
44.54 165.56 m
4.25 0 l
o
np
44.54 187.33 m
4.25 0 l
o
np
44.54 209.11 m
4.25 0 l
o
0.00 0.00 479.25 317.25 cl
0.00 0.00 479.25 317.25 cl
0.00 0.00 479.25 317.25 cl
0.00 0.00 479.25 317.25 cl
0.00 0.00 479.25 317.25 cl
0.00 0.00 479.25 317.25 cl
/Font1 findfont 10 s
0.4980 0.4980 0.4980 srgb
41.70 50.37 (0.25) 1 0 t
41.70 72.14 (0.50) 1 0 t
41.70 93.92 (0.75) 1 0 t
41.70 115.69 (1.00) 1 0 t
0.00 0.00 479.25 317.25 cl
0.00 0.00 479.25 317.25 cl
0.4980 0.4980 0.4980 srgb
1.06 setlinewidth
[] 0 setdash
0 setlinecap
1 setlinejoin
10.00 setmiterlimit
np
44.54 53.96 m
4.25 0 l
o
np
44.54 75.73 m
4.25 0 l
o
np
44.54 97.51 m
4.25 0 l
o
np
44.54 119.28 m
4.25 0 l
o
0.00 0.00 479.25 317.25 cl
0.00 0.00 479.25 317.25 cl
0.00 0.00 479.25 317.25 cl
0.00 0.00 479.25 317.25 cl
333.05 216.62 349.52 302.85 cl
/bg { 0.8000 0.8000 0.8000 srgb } def
333.05 216.62 16.47 86.23 r p2
/Font1 findfont 10 s
0 0 0 srgb
337.70 259.74 (149) .5 270.00 t
0.00 0.00 479.25 317.25 cl
333.05 126.80 349.52 213.02 cl
/bg { 0.8000 0.8000 0.8000 srgb } def
333.05 126.80 16.47 86.23 r p2
/Font1 findfont 10 s
0 0 0 srgb
337.70 169.91 (499) .5 270.00 t
0.00 0.00 479.25 317.25 cl
333.05 36.97 349.52 123.20 cl
/bg { 0.8000 0.8000 0.8000 srgb } def
333.05 36.97 16.47 86.23 r p2
/Font1 findfont 10 s
0 0 0 srgb
337.70 80.09 (999) .5 270.00 t
0.00 0.00 479.25 317.25 cl
0.00 0.00 479.25 317.25 cl
0.00 0.00 479.25 317.25 cl
0.4980 0.4980 0.4980 srgb
1.06 setlinewidth
[] 0 setdash
0 setlinecap
1 setlinejoin
10.00 setmiterlimit
np
61.71 32.72 m
0 4.25 l
o
np
126.97 32.72 m
0 4.25 l
o
np
192.22 32.72 m
0 4.25 l
o
np
257.48 32.72 m
0 4.25 l
o
np
322.74 32.72 m
0 4.25 l
o
0.00 0.00 479.25 317.25 cl
0.00 0.00 479.25 317.25 cl
/Font1 findfont 10 s
0.4980 0.4980 0.4980 srgb
61.71 22.71 (0.00) .5 0 t
126.97 22.71 (0.25) .5 0 t
192.22 22.71 (0.50) .5 0 t
257.48 22.71 (0.75) .5 0 t
322.74 22.71 (1.00) .5 0 t
0.00 0.00 479.25 317.25 cl
0.00 0.00 479.25 317.25 cl
0.00 0.00 479.25 317.25 cl
0.00 0.00 479.25 317.25 cl
0.00 0.00 479.25 317.25 cl
/Font1 findfont 12 s
0 0 0 srgb
155.57 10.80 (LambdaP) 0 ta
-0.600 (oint) tb gr
0.00 0.00 479.25 317.25 cl
0.00 0.00 479.25 317.25 cl
/Font1 findfont 12 s
0 0 0 srgb
19.42 169.91 (Fitness) .5 90 t
0.00 0.00 479.25 317.25 cl
0.00 0.00 479.25 317.25 cl
0.00 0.00 479.25 317.25 cl
0.00 0.00 479.25 317.25 cl
0.00 0.00 479.25 317.25 cl
0.00 0.00 479.25 317.25 cl
/bg { 1 1 1 srgb } def
359.56 113.26 95.26 113.30 r p2
0.00 0.00 479.25 317.25 cl
0.00 0.00 479.25 317.25 cl
/Font2 findfont 10 s
0 0 0 srgb
363.81 215.28 (Rule) 0 0 t
0.00 0.00 479.25 317.25 cl
0.00 0.00 479.25 317.25 cl
/bg { 0.9490 0.9490 0.9490 srgb } def
1 1 1 srgb
1.06 setlinewidth
[] 0 setdash
1 setlinecap
1 setlinejoin
10.00 setmiterlimit
363.81 186.64 23.04 23.04 r p3
0.00 0.00 479.25 317.25 cl
0.00 0.00 479.25 317.25 cl
0.9725 0.4627 0.4275 srgb
1.06 setlinewidth
[] 0 setdash
0 setlinecap
1 setlinejoin
10.00 setmiterlimit
np
366.11 198.16 m
18.44 0 l
o
0.00 0.00 479.25 317.25 cl
0.00 0.00 479.25 317.25 cl
/bg { 0.9490 0.9490 0.9490 srgb } def
1 1 1 srgb
1.06 setlinewidth
[] 0 setdash
1 setlinecap
1 setlinejoin
10.00 setmiterlimit
363.81 163.60 23.04 23.04 r p3
0.00 0.00 479.25 317.25 cl
0.00 0.00 479.25 317.25 cl
0.4863 0.6824 0 srgb
1.06 setlinewidth
[] 0 setdash
0 setlinecap
1 setlinejoin
10.00 setmiterlimit
np
366.11 175.12 m
18.44 0 l
o
0.00 0.00 479.25 317.25 cl
0.00 0.00 479.25 317.25 cl
/bg { 0.9490 0.9490 0.9490 srgb } def
1 1 1 srgb
1.06 setlinewidth
[] 0 setdash
1 setlinecap
1 setlinejoin
10.00 setmiterlimit
363.81 140.56 23.04 23.04 r p3
0.00 0.00 479.25 317.25 cl
0.00 0.00 479.25 317.25 cl
0 0.7490 0.7686 srgb
1.06 setlinewidth
[] 0 setdash
0 setlinecap
1 setlinejoin
10.00 setmiterlimit
np
366.11 152.08 m
18.44 0 l
o
0.00 0.00 479.25 317.25 cl
0.00 0.00 479.25 317.25 cl
/bg { 0.9490 0.9490 0.9490 srgb } def
1 1 1 srgb
1.06 setlinewidth
[] 0 setdash
1 setlinecap
1 setlinejoin
10.00 setmiterlimit
363.81 117.52 23.04 23.04 r p3
0.00 0.00 479.25 317.25 cl
0.00 0.00 479.25 317.25 cl
0.7804 0.4863 1 srgb
1.06 setlinewidth
[] 0 setdash
0 setlinecap
1 setlinejoin
10.00 setmiterlimit
np
366.11 129.04 m
18.44 0 l
o
0.00 0.00 479.25 317.25 cl
0.00 0.00 479.25 317.25 cl
/Font1 findfont 10 s
0 0 0 srgb
389.73 194.57 (BestK) 0 ta
-0.400 (ozaRule) tb gr
0.00 0.00 479.25 317.25 cl
0.00 0.00 479.25 317.25 cl
/Font1 findfont 10 s
0 0 0 srgb
389.73 171.53 (DasRule) 0 0 t
0.00 0.00 479.25 317.25 cl
0.00 0.00 479.25 317.25 cl
/Font1 findfont 10 s
0 0 0 srgb
389.73 148.49 (Da) 0 ta
-0.200 (visRule) tb gr
0.00 0.00 479.25 317.25 cl
0.00 0.00 479.25 317.25 cl
/Font1 findfont 10 s
0 0 0 srgb
389.73 125.45 (GKLRule) 0 0 t
0.00 0.00 479.25 317.25 cl
0.00 0.00 479.25 317.25 cl
0.00 0.00 479.25 317.25 cl
0.00 0.00 479.25 317.25 cl
0.00 0.00 479.25 317.25 cl
0.00 0.00 479.25 317.25 cl
0.00 0.00 479.25 317.25 cl
0.00 0.00 479.25 317.25 cl
0.00 0.00 479.25 317.25 cl
0.00 0.00 479.25 317.25 cl
0.00 0.00 479.25 317.25 cl
0.00 0.00 479.25 317.25 cl
ep
%%Trailer
%%Pages: 1
%%EOF
