%!PS-Adobe-3.0 EPSF-3.0
%%DocumentNeededResources: font Helvetica
%%+ font Helvetica-Bold
%%+ font Helvetica-Oblique
%%+ font Helvetica-BoldOblique
%%+ font Symbol
%%Title: R Graphics Output
%%Creator: R Software
%%Pages: (atend)
%%BoundingBox: 0 0 601 386
%%EndComments
%%BeginProlog
/bp  { gs sRGB gs } def
% begin .ps.prolog
/gs  { gsave } bind def
/gr  { grestore } bind def
/ep  { showpage gr gr } bind def
/m   { moveto } bind def
/l  { rlineto } bind def
/np  { newpath } bind def
/cp  { closepath } bind def
/f   { fill } bind def
/o   { stroke } bind def
/c   { newpath 0 360 arc } bind def
/r   { 4 2 roll moveto 1 copy 3 -1 roll exch 0 exch rlineto 0 rlineto -1 mul 0 exch rlineto closepath } bind def
/p1  { stroke } bind def
/p2  { gsave bg fill grestore newpath } bind def
/p3  { gsave bg fill grestore stroke } bind def
/p6  { gsave bg eofill grestore newpath } bind def
/p7  { gsave bg eofill grestore stroke } bind def
/t   { 5 -2 roll moveto gsave rotate
       1 index stringwidth pop
       mul neg 0 rmoveto show grestore } bind def
/ta  { 4 -2 roll moveto gsave rotate show } bind def
/tb  { 2 -1 roll 0 rmoveto show } bind def
/cl  { grestore gsave newpath 3 index 3 index moveto 1 index
       4 -1 roll lineto  exch 1 index lineto lineto
       closepath clip newpath } bind def
/rgb { setrgbcolor } bind def
/s   { scalefont setfont } bind def
% end   .ps.prolog
/sRGB { [ /CIEBasedABC
          << /DecodeLMN
               [ { dup 0.03928 le
                        {12.92321 div}
                        {0.055 add 1.055 div 2.4 exp }
                     ifelse
                 } bind dup dup
               ]
             /MatrixLMN [0.412457 0.212673 0.019334
                         0.357576 0.715152 0.119192
                         0.180437 0.072175 0.950301]
             /WhitePoint [0.9505 1.0 1.0890]
           >>
         ] setcolorspace } bind def
/srgb { setcolor } bind def
%%IncludeResource: font Helvetica
/Helvetica findfont
dup length dict begin
  {1 index /FID ne {def} {pop pop} ifelse} forall
  /Encoding ISOLatin1Encoding def
  currentdict
  end
/Font1 exch definefont pop
%%IncludeResource: font Helvetica-Bold
/Helvetica-Bold findfont
dup length dict begin
  {1 index /FID ne {def} {pop pop} ifelse} forall
  /Encoding ISOLatin1Encoding def
  currentdict
  end
/Font2 exch definefont pop
%%IncludeResource: font Helvetica-Oblique
/Helvetica-Oblique findfont
dup length dict begin
  {1 index /FID ne {def} {pop pop} ifelse} forall
  /Encoding ISOLatin1Encoding def
  currentdict
  end
/Font3 exch definefont pop
%%IncludeResource: font Helvetica-BoldOblique
/Helvetica-BoldOblique findfont
dup length dict begin
  {1 index /FID ne {def} {pop pop} ifelse} forall
  /Encoding ISOLatin1Encoding def
  currentdict
  end
/Font4 exch definefont pop
%%IncludeResource: font Symbol
/Symbol findfont
dup length dict begin
  {1 index /FID ne {def} {pop pop} ifelse} forall
  currentdict
  end
/Font5 exch definefont pop
%%EndProlog
%%Page: 1 1
bp
0.00 0.00 600.75 385.50 cl
0.00 0.00 600.75 385.50 cl
/bg { 1 1 1 srgb } def
1 1 1 srgb
1.06 setlinewidth
[] 0 setdash
1 setlinecap
1 setlinejoin
10.00 setmiterlimit
-0.00 0.00 600.75 385.50 r p3
0.00 0.00 600.75 385.50 cl
0.00 0.00 600.75 385.50 cl
0.00 0.00 600.75 385.50 cl
49.56 37.28 504.58 371.10 cl
/bg { 0.8980 0.8980 0.8980 srgb } def
49.56 37.28 455.02 333.82 r p2
0.9490 0.9490 0.9490 srgb
0.53 setlinewidth
[] 0 setdash
0 setlinecap
1 setlinejoin
10.00 setmiterlimit
np
49.56 75.22 m
455.02 0 l
o
np
49.56 151.08 m
455.02 0 l
o
np
49.56 226.95 m
455.02 0 l
o
np
49.56 302.82 m
455.02 0 l
o
np
121.95 37.28 m
0 333.82 l
o
np
225.36 37.28 m
0 333.82 l
o
np
328.78 37.28 m
0 333.82 l
o
np
432.19 37.28 m
0 333.82 l
o
1 1 1 srgb
1.06 setlinewidth
[] 0 setdash
np
49.56 37.28 m
455.02 0 l
o
np
49.56 113.15 m
455.02 0 l
o
np
49.56 189.02 m
455.02 0 l
o
np
49.56 264.89 m
455.02 0 l
o
np
49.56 340.75 m
455.02 0 l
o
np
70.25 37.28 m
0 333.82 l
o
np
173.66 37.28 m
0 333.82 l
o
np
277.07 37.28 m
0 333.82 l
o
np
380.48 37.28 m
0 333.82 l
o
np
483.90 37.28 m
0 333.82 l
o
0 0.7490 0.7686 srgb
1.00 setmiterlimit
np
70.25 47.97 m
4.13 0.05 l
4.14 0.05 l
4.13 0.05 l
4.14 0.05 l
4.14 0.05 l
4.13 0.05 l
4.14 0.05 l
4.14 0.05 l
4.13 0.04 l
4.14 0.05 l
4.14 0.04 l
4.13 0.05 l
4.14 0.04 l
4.14 0.04 l
4.13 0.04 l
4.14 0.04 l
4.14 0.04 l
4.13 0.04 l
4.14 0.03 l
4.14 0.04 l
4.13 0.03 l
4.14 0.03 l
4.14 0.04 l
4.13 0.03 l
4.14 0.03 l
4.13 0.03 l
4.14 0.02 l
4.14 0.03 l
4.13 0.03 l
4.14 0.02 l
4.14 0.02 l
4.13 0.02 l
4.14 0.03 l
4.14 0.02 l
4.13 0.01 l
4.14 0.02 l
4.14 0.02 l
4.13 0.01 l
4.14 0.02 l
4.14 0.01 l
4.13 0.01 l
4.14 0.01 l
4.14 0.01 l
4.13 0.01 l
4.14 0 l
4.14 0.01 l
4.13 0 l
4.14 0.01 l
4.13 0 l
4.14 0 l
4.14 0 l
4.13 0 l
4.14 -0.01 l
4.14 0 l
4.13 -0.01 l
4.14 0 l
4.14 -0.01 l
4.13 -0.01 l
4.14 -0.01 l
4.14 -0.01 l
4.13 -0.01 l
4.14 -0.02 l
4.14 -0.01 l
4.13 -0.02 l
4.14 -0.02 l
4.14 -0.01 l
4.13 -0.02 l
4.14 -0.03 l
4.14 -0.02 l
4.13 -0.02 l
4.14 -0.02 l
4.13 -0.03 l
4.14 -0.03 l
4.14 -0.02 l
4.13 -0.03 l
4.14 -0.03 l
4.14 -0.03 l
4.13 -0.04 l
4.14 -0.03 l
4.14 -0.03 l
4.13 -0.04 l
4.14 -0.03 l
4.14 -0.04 l
4.13 -0.04 l
4.14 -0.04 l
4.14 -0.04 l
4.13 -0.04 l
4.14 -0.04 l
4.14 -0.05 l
4.13 -0.04 l
4.14 -0.05 l
4.14 -0.04 l
4.13 -0.05 l
4.14 -0.05 l
4.13 -0.05 l
4.14 -0.05 l
4.14 -0.05 l
4.13 -0.05 l
4.14 -0.05 l
483.90 47.97 lineto
o
0.9725 0.4627 0.4275 srgb
np
70.25 37.28 m
4.13 0 l
4.14 0 l
4.13 0 l
4.14 0 l
4.14 0 l
4.13 0 l
4.14 0 l
4.14 0 l
4.13 0 l
4.14 0 l
4.14 0 l
4.13 0 l
4.14 0 l
4.14 0 l
4.13 0 l
4.14 0 l
4.14 0 l
4.13 0 l
4.14 0 l
4.14 0 l
4.13 0 l
4.14 0 l
4.14 0 l
4.13 0 l
4.14 0 l
4.13 0 l
4.14 0 l
4.14 0 l
4.13 0 l
4.14 0 l
4.14 0.01 l
4.13 0 l
4.14 0.03 l
4.14 0.06 l
4.13 0.17 l
4.14 0.39 l
4.14 0.88 l
4.13 1.82 l
4.14 3.54 l
4.14 6.40 l
4.13 10.78 l
4.14 16.88 l
4.14 24.50 l
4.13 32.80 l
4.14 40.31 l
4.14 45.01 l
4.13 44.89 l
4.14 38.64 l
4.13 26.25 l
4.14 9.31 l
4.14 -9.31 l
4.13 -26.25 l
4.14 -38.64 l
4.14 -44.89 l
4.13 -45.01 l
4.14 -40.31 l
4.14 -32.80 l
4.13 -24.50 l
4.14 -16.88 l
4.14 -10.78 l
4.13 -6.40 l
4.14 -3.54 l
4.14 -1.82 l
4.13 -0.88 l
4.14 -0.39 l
4.14 -0.17 l
4.13 -0.06 l
4.14 -0.03 l
4.14 0 l
4.13 -0.01 l
4.14 0 l
4.13 0 l
4.14 0 l
4.14 0 l
4.13 0 l
4.14 0 l
4.14 0 l
4.13 0 l
4.14 0 l
4.14 0 l
4.13 0 l
4.14 0 l
4.14 0 l
4.13 0 l
4.14 0 l
4.14 0 l
4.13 0 l
4.14 0 l
4.14 0 l
4.13 0 l
4.14 0 l
4.14 0 l
4.13 0 l
4.14 0 l
4.13 0 l
4.14 0 l
4.14 0 l
4.13 0 l
4.14 0 l
483.90 37.28 lineto
o
0.00 0.00 600.75 385.50 cl
0.00 0.00 600.75 385.50 cl
0.00 0.00 600.75 385.50 cl
/Font1 findfont 10 s
0.4980 0.4980 0.4980 srgb
42.48 33.69 (0.0) 1 0 t
42.48 109.56 (2.5) 1 0 t
42.48 185.43 (5.0) 1 0 t
42.48 261.30 (7.5) 1 0 t
42.48 337.16 (10.0) 1 0 t
0.00 0.00 600.75 385.50 cl
0.00 0.00 600.75 385.50 cl
0.4980 0.4980 0.4980 srgb
1.06 setlinewidth
[] 0 setdash
0 setlinecap
1 setlinejoin
10.00 setmiterlimit
np
45.31 37.28 m
4.25 0 l
o
np
45.31 113.15 m
4.25 0 l
o
np
45.31 189.02 m
4.25 0 l
o
np
45.31 264.89 m
4.25 0 l
o
np
45.31 340.75 m
4.25 0 l
o
0.00 0.00 600.75 385.50 cl
0.00 0.00 600.75 385.50 cl
0.00 0.00 600.75 385.50 cl
0.00 0.00 600.75 385.50 cl
0.00 0.00 600.75 385.50 cl
0.00 0.00 600.75 385.50 cl
0.4980 0.4980 0.4980 srgb
1.06 setlinewidth
[] 0 setdash
0 setlinecap
1 setlinejoin
10.00 setmiterlimit
np
70.25 33.03 m
0 4.25 l
o
np
173.66 33.03 m
0 4.25 l
o
np
277.07 33.03 m
0 4.25 l
o
np
380.48 33.03 m
0 4.25 l
o
np
483.90 33.03 m
0 4.25 l
o
0.00 0.00 600.75 385.50 cl
0.00 0.00 600.75 385.50 cl
/Font1 findfont 10 s
0.4980 0.4980 0.4980 srgb
70.25 23.02 (0.00) .5 0 t
173.66 23.02 (0.25) .5 0 t
277.07 23.02 (0.50) .5 0 t
380.48 23.02 (0.75) .5 0 t
483.90 23.02 (1.00) .5 0 t
0.00 0.00 600.75 385.50 cl
0.00 0.00 600.75 385.50 cl
0.00 0.00 600.75 385.50 cl
0.00 0.00 600.75 385.50 cl
0.00 0.00 600.75 385.50 cl
/Font1 findfont 12 s
0 0 0 srgb
277.07 10.80 (x) .5 0 t
0.00 0.00 600.75 385.50 cl
0.00 0.00 600.75 385.50 cl
/Font1 findfont 12 s
0 0 0 srgb
19.42 204.19 (y) .5 90 t
0.00 0.00 600.75 385.50 cl
0.00 0.00 600.75 385.50 cl
0.00 0.00 600.75 385.50 cl
0.00 0.00 600.75 385.50 cl
0.00 0.00 600.75 385.50 cl
0.00 0.00 600.75 385.50 cl
/bg { 1 1 1 srgb } def
514.61 170.58 61.70 67.22 r p2
0.00 0.00 600.75 385.50 cl
0.00 0.00 600.75 385.50 cl
/Font2 findfont 10 s
0 0 0 srgb
518.87 226.52 (".. 1") 0 0 t
0.00 0.00 600.75 385.50 cl
0.00 0.00 600.75 385.50 cl
/bg { 0.9490 0.9490 0.9490 srgb } def
1 1 1 srgb
1.06 setlinewidth
[] 0 setdash
1 setlinecap
1 setlinejoin
10.00 setmiterlimit
518.87 197.88 23.04 23.04 r p3
0.00 0.00 600.75 385.50 cl
0.00 0.00 600.75 385.50 cl
0.9725 0.4627 0.4275 srgb
1.06 setlinewidth
[] 0 setdash
0 setlinecap
1 setlinejoin
10.00 setmiterlimit
np
521.17 209.40 m
18.43 0 l
o
0.00 0.00 600.75 385.50 cl
0.00 0.00 600.75 385.50 cl
0.9725 0.4627 0.4275 srgb
1.06 setlinewidth
[] 0 setdash
0 setlinecap
1 setlinejoin
10.00 setmiterlimit
np
521.17 209.40 m
18.43 0 l
o
0.00 0.00 600.75 385.50 cl
0.00 0.00 600.75 385.50 cl
/bg { 0.9490 0.9490 0.9490 srgb } def
1 1 1 srgb
1.06 setlinewidth
[] 0 setdash
1 setlinecap
1 setlinejoin
10.00 setmiterlimit
518.87 174.84 23.04 23.04 r p3
0.00 0.00 600.75 385.50 cl
0.00 0.00 600.75 385.50 cl
0 0.7490 0.7686 srgb
1.06 setlinewidth
[] 0 setdash
0 setlinecap
1 setlinejoin
10.00 setmiterlimit
np
521.17 186.36 m
18.43 0 l
o
0.00 0.00 600.75 385.50 cl
0.00 0.00 600.75 385.50 cl
0 0.7490 0.7686 srgb
1.06 setlinewidth
[] 0 setdash
0 setlinecap
1 setlinejoin
10.00 setmiterlimit
np
521.17 186.36 m
18.43 0 l
o
0.00 0.00 600.75 385.50 cl
0.00 0.00 600.75 385.50 cl
/Font1 findfont 10 s
0 0 0 srgb
544.79 205.81 (.. 0.04) 0 0 t
0.00 0.00 600.75 385.50 cl
0.00 0.00 600.75 385.50 cl
/Font1 findfont 10 s
0 0 0 srgb
544.79 182.77 (.. 1) 0 0 t
0.00 0.00 600.75 385.50 cl
0.00 0.00 600.75 385.50 cl
0.00 0.00 600.75 385.50 cl
0.00 0.00 600.75 385.50 cl
0.00 0.00 600.75 385.50 cl
0.00 0.00 600.75 385.50 cl
0.00 0.00 600.75 385.50 cl
0.00 0.00 600.75 385.50 cl
0.00 0.00 600.75 385.50 cl
0.00 0.00 600.75 385.50 cl
0.00 0.00 600.75 385.50 cl
0.00 0.00 600.75 385.50 cl
ep
%%Trailer
%%Pages: 1
%%EOF
